\relax 
\providecommand{\transparent@use}[1]{}
\providecommand\hyper@newdestlabel[2]{}
\providecommand\HyperFirstAtBeginDocument{\AtBeginDocument}
\HyperFirstAtBeginDocument{\ifx\hyper@anchor\@undefined
\global\let\oldnewlabel\newlabel
\gdef\newlabel#1#2{\newlabelxx{#1}#2}
\gdef\newlabelxx#1#2#3#4#5#6{\oldnewlabel{#1}{{#2}{#3}}}
\AtEndDocument{\ifx\hyper@anchor\@undefined
\let\newlabel\oldnewlabel
\fi}
\fi}
\global\let\hyper@last\relax 
\gdef\HyperFirstAtBeginDocument#1{#1}
\providecommand\HyField@AuxAddToFields[1]{}
\providecommand\HyField@AuxAddToCoFields[2]{}
\abx@aux@refcontext{nty/global//global/global}
\providecommand \oddpage@label [2]{}
\@writefile{nav}{\headcommand {\slideentry {0}{0}{1}{1/1}{}{0}}}
\@writefile{nav}{\headcommand {\beamer@framepages {1}{1}}}
\@writefile{nav}{\headcommand {\slideentry {0}{0}{2}{2/3}{}{0}}}
\@writefile{nav}{\headcommand {\beamer@framepages {2}{3}}}
\@writefile{nav}{\headcommand {\slideentry {0}{0}{3}{4/7}{}{0}}}
\@writefile{nav}{\headcommand {\beamer@framepages {4}{7}}}
\@writefile{nav}{\headcommand {\slideentry {0}{0}{4}{8/9}{}{0}}}
\@writefile{nav}{\headcommand {\beamer@framepages {8}{9}}}
\@writefile{nav}{\headcommand {\slideentry {0}{0}{5}{10/15}{}{0}}}
\@writefile{nav}{\headcommand {\beamer@framepages {10}{15}}}
\@writefile{nav}{\headcommand {\slideentry {0}{0}{6}{16/20}{}{0}}}
\@writefile{nav}{\headcommand {\beamer@framepages {16}{20}}}
\@writefile{nav}{\headcommand {\slideentry {0}{0}{7}{21/25}{}{0}}}
\@writefile{nav}{\headcommand {\beamer@framepages {21}{25}}}
\@writefile{nav}{\headcommand {\slideentry {0}{0}{8}{26/31}{}{0}}}
\@writefile{nav}{\headcommand {\beamer@framepages {26}{31}}}
\global\@namedef{mainendframenumber}{8}
\@writefile{nav}{\headcommand {\gdef \insertmainframenumber {8}}}
\@writefile{nav}{\headcommand {\partentry {\translate  {Appendix}}{1}}}
\@writefile{nav}{\headcommand {\beamer@partpages {1}{31}}}
\@writefile{nav}{\headcommand {\beamer@sectionpages {1}{31}}}
\@writefile{nav}{\headcommand {\beamer@subsectionpages {1}{31}}}
\@writefile{nav}{\headcommand {\beamer@appendixpages {32}}}
\@writefile{nav}{\headcommand {\slideentry {0}{0}{9}{32/32}{}{1}}}
\@writefile{nav}{\headcommand {\beamer@framepages {32}{32}}}
\@writefile{nav}{\headcommand {\slideentry {0}{0}{10}{33/33}{}{1}}}
\@writefile{nav}{\headcommand {\beamer@framepages {33}{33}}}
\@writefile{nav}{\headcommand {\slideentry {0}{0}{11}{34/34}{}{1}}}
\@writefile{nav}{\headcommand {\beamer@framepages {34}{34}}}
\@writefile{nav}{\headcommand {\slideentry {0}{0}{12}{35/35}{}{1}}}
\@writefile{nav}{\headcommand {\beamer@framepages {35}{35}}}
\@writefile{nav}{\headcommand {\slideentry {0}{0}{13}{36/36}{}{1}}}
\@writefile{nav}{\headcommand {\beamer@framepages {36}{36}}}
\@writefile{nav}{\headcommand {\slideentry {0}{0}{14}{37/37}{}{1}}}
\@writefile{nav}{\headcommand {\beamer@framepages {37}{37}}}
\@writefile{nav}{\headcommand {\slideentry {0}{0}{15}{38/38}{}{1}}}
\@writefile{nav}{\headcommand {\beamer@framepages {38}{38}}}
\@writefile{nav}{\headcommand {\slideentry {0}{0}{16}{39/39}{}{1}}}
\@writefile{nav}{\headcommand {\beamer@framepages {39}{39}}}
\@writefile{nav}{\headcommand {\slideentry {0}{0}{17}{40/40}{}{1}}}
\@writefile{nav}{\headcommand {\beamer@framepages {40}{40}}}
\@writefile{nav}{\headcommand {\slideentry {0}{0}{18}{41/41}{}{1}}}
\@writefile{nav}{\headcommand {\beamer@framepages {41}{41}}}
\@writefile{nav}{\headcommand {\slideentry {0}{0}{19}{42/42}{}{1}}}
\@writefile{nav}{\headcommand {\beamer@framepages {42}{42}}}
\@writefile{nav}{\headcommand {\slideentry {0}{0}{20}{43/43}{}{1}}}
\@writefile{nav}{\headcommand {\beamer@framepages {43}{43}}}
\@writefile{nav}{\headcommand {\slideentry {0}{0}{21}{44/44}{}{1}}}
\@writefile{nav}{\headcommand {\beamer@framepages {44}{44}}}
\@writefile{nav}{\headcommand {\slideentry {0}{0}{22}{45/45}{}{1}}}
\@writefile{nav}{\headcommand {\beamer@framepages {45}{45}}}
\@writefile{nav}{\headcommand {\beamer@partpages {32}{45}}}
\@writefile{nav}{\headcommand {\beamer@subsectionpages {32}{45}}}
\@writefile{nav}{\headcommand {\beamer@sectionpages {32}{45}}}
\@writefile{nav}{\headcommand {\beamer@documentpages {45}}}
\@writefile{nav}{\headcommand {\gdef \inserttotalframenumber {14}}}
\global\@namedef{appendixtotalframenumber}{14}
\global\@namedef{inserttotalframenumber}{8}
\@writefile{nav}{\headcommand {\gdef \inserttotalframenumber {8}}}
\@writefile{nav}{\headcommand {\gdef \appendixtotalframenumber {14}}}
\abx@aux@read@bbl@mdfivesum{D41D8CD98F00B204E9800998ECF8427E}
\abx@aux@read@bblrerun
\gdef\svg@ink@ver@settings{{\m@ne }{inkscape}{1}}
\gdef \@abspage@last{45}
