intersection resolution = 100000, maximum allowed chisquare_red = 100000
Measurement number, 1st intersection 12, 2nd intersection 12, tot 12, 1st intersection 34, 2nd intersection 34, tot 34, chisquare_red 
1 [-4.60846213e-11] [7.85039463e-09] [7.89647925e-09] [-1.37015045e-10] [7.62976849e-09] [7.76678353e-09] [4177.850720990037, 4915.393219700606, 3059.6185914237662, 5484.003351215442]
2 [-1.24389395e-10] [7.74634461e-09] [7.87073401e-09] [-2.21185055e-10] [7.53054876e-09] [7.75173381e-09] [3223.4687706173345, 5041.004881495349, 2752.3394697552785, 4847.413534873355]
3 [-1.09913977e-10] [7.83408351e-09] [7.94399749e-09] [-2.01916304e-10] [7.61555997e-09] [7.81747627e-09] [3968.5190831126893, 5198.86335641628, 2822.432220835848, 4357.514064551272]
4 [-1.44388475e-10] [7.74713607e-09] [7.89152454e-09] [-2.46745205e-10] [7.52973794e-09] [7.77648315e-09] [3351.6760596935965, 5331.116260573743, 2843.5879714495004, 4682.731443056069]
5 [-8.3127688e-11] [7.82344934e-09] [7.90657703e-09] [-1.72884754e-10] [7.61033119e-09] [7.78321595e-09] [4127.648913451831, 4728.8874217770135, 3060.6443494584337, 4845.584188955797]
6 [-1.75043173e-10] [7.83409897e-09] [8.00914214e-09] [-2.64882718e-10] [7.61199559e-09] [7.8768783e-09] [3637.6817537860775, 4701.921945594494, 2943.6298317176193, 4944.506813487974]
7 [-1.71276201e-10] [7.80856133e-09] [7.97983753e-09] [-2.65068809e-10] [7.59121787e-09] [7.85628668e-09] [3412.124586275808, 4249.688640224899, 2684.5971019442163, 4358.631569720579]
8 [-7.3871828e-11] [7.84022706e-09] [7.91409889e-09] [-1.62733353e-10] [7.6242483e-09] [7.78698166e-09] [4066.0728716624353, 5178.56332278998, 3137.1047301894823, 5183.54074522628]
9 [-2.53794096e-11] [7.87921452e-09] [7.90459393e-09] [-1.28945297e-10] [7.66357599e-09] [7.79252129e-09] [4056.003727207855, 4652.163009348517, 3422.2525883139638, 5375.258569113967]
10 [-1.20207038e-10] [7.80022786e-09] [7.9204349e-09] [-2.08482982e-10] [7.58265623e-09] [7.79113922e-09] [3824.385269450753, 5195.337150804874, 2517.99896483054, 4595.5265916014]
11 [-1.36670762e-10] [7.77188212e-09] [7.90855288e-09] [-2.26124665e-10] [7.55907297e-09] [7.78519763e-09] [3633.8069180496905, 4874.891046091723, 2877.571727209775, 4405.309938243031]
12 [-5.70398967e-11] [7.88557196e-09] [7.94261186e-09] [-1.56438934e-10] [7.66974514e-09] [7.82618408e-09] [4527.298117160539, 4479.577732376963, 3253.932240206265, 5449.981537837373]
13 [-2.35526671e-11] [7.78877232e-09] [7.81232499e-09] [-1.10645042e-10] [7.57080024e-09] [7.68144528e-09] [2930.9509234192633, 4413.44153059449, 3004.7123200928454, 5294.0175721336345]
14 [-1.09641081e-10] [7.80584731e-09] [7.91548839e-09] [-2.02962051e-10] [7.59154157e-09] [7.79450362e-09] [3886.453730354273, 4727.821534682356, 2857.3763776473966, 4665.967823688671]
15 [-3.3908845e-11] [7.84969574e-09] [7.88360459e-09] [-1.25730385e-10] [7.63372681e-09] [7.7594572e-09] [4036.882123516641, 4740.044550092041, 3216.3995936769165, 5267.205606184702]
16 [-7.24829552e-11] [7.83428984e-09] [7.90677279e-09] [-1.68094393e-10] [7.61552018e-09] [7.78361458e-09] [4012.555080759915, 4662.494239380844, 2720.3200497395424, 5181.4916561592245]
17 [-8.52936613e-11] [7.78128588e-09] [7.86657955e-09] [-1.81804464e-10] [7.57289713e-09] [7.75470159e-09] [3820.677146544716, 4764.2928159677795, 3316.7239956292574, 4707.061056133729]
18 [-5.26454828e-11] [7.83729846e-09] [7.88994394e-09] [-1.4785871e-10] [7.61932392e-09] [7.76718263e-09] [3946.8719346645958, 4555.256641568126, 3083.6093966997632, 4998.021065044697]
19 [-1.22748186e-11] [7.98043317e-09] [7.99270799e-09] [-9.66027677e-11] [7.76344251e-09] [7.86004527e-09] [2899.442490901512, 4191.294951108187, 2995.7640647509643, 4723.138891338479]
20 [-6.81418714e-11] [7.84615448e-09] [7.91429635e-09] [-1.58739132e-10] [7.62804677e-09] [7.7867859e-09] [3768.309102679098, 4810.383176076009, 3037.9191750595865, 5196.637471188545]
21 [-1.44284803e-10] [7.74744364e-09] [7.89172844e-09] [-2.4867029e-10] [7.53118333e-09] [7.77985362e-09] [3356.657640430726, 5263.906621930814, 2678.6629413737733, 4783.7209784137285]
