intersection resolution = 100000, maximum allowed chisquare_red = 100000
Measurement number, 1st intersection 12, 2nd intersection 12, tot 12, 1st intersection 34, 2nd intersection 34, tot 34, chisquare_red 
1 [-6.45377244e-11] [4.37849583e-08] [4.3849496e-08] [2.06202213e-09] [3.56496106e-08] [3.35875885e-08] [12082.048230565537, 16572.621571091386, 14955.604582588863, 12219.562561843513]
