intersection resolution = 100000, maximum allowed chisquare_red = 100000
Measurement number, 1st intersection 12, 2nd intersection 12, tot 12, 1st intersection 34, 2nd intersection 34, tot 34, chisquare_red 
10 [-1.31903077e-10] [1.02498245e-09] [1.15688553e-09] [-4.e-08] [1.14513147e-07] [1.54513147e-07] [349.5596051517971, 571.8593090547071, 210.68026782371086, 156.7666798613651]
14 [-5.03349451e-11] [7.22236484e-08] [7.22739833e-08] [3.99348869e-10] [6.82216931e-08] [6.78223443e-08] [770.4461957536265, 1132.6136963718145, 1106.1291746809259, 972.350557317207]
16 [-1.66489436e-10] [7.56839277e-08] [7.58504171e-08] [1.85181383e-10] [6.54378929e-08] [6.52527115e-08] [716.3624049266415, 1154.4720430792806, 1178.5380146203056, 917.6874151149224]
17 [-8.12632039e-11] [1.04466499e-08] [1.05279131e-08] [-1.4094924e-08] [1.06000948e-07] [1.20095872e-07] [591.5398209941462, 697.1349961091486, 221.5666667421741, 143.91047922726202]
19 [-2.23213819e-11] [7.70470159e-08] [7.70693373e-08] [2.10017237e-11] [7.64887073e-08] [7.64677056e-08] [711.4335035637531, 1180.7714588553517, 1055.7829460895778, 932.6465836240367]
33 [-8.5158362e-11] [6.3087213e-09] [6.39387966e-09] [-3.06671741e-08] [8.3260836e-08] [1.1392801e-07] [490.9749049505555, 610.5381340776537, 209.55663777783008, 145.22078706116395]
37 [-1.50452029e-10] [8.21617053e-08] [8.23121573e-08] [-1.74475533e-10] [6.48624447e-08] [6.50369202e-08] [863.6325489013079, 1084.6090187876216, 1051.048062689058, 948.6959865940734]
45 [-6.23214992e-11] [6.67729446e-08] [6.68352661e-08] [-6.95997958e-10] [6.86767039e-08] [6.93727019e-08] [758.4749402433907, 1112.3942192949846, 1119.2551264367644, 956.2485308887586]
74 [-1.27800695e-10] [1.94020898e-09] [2.06800967e-09] [5.47461661e-08] [5.66663047e-08] [1.92013856e-09] [457.0754792647953, 515.4955238507711, 197.84545969263567, 144.36437970510065]
76 [-1.55342819e-10] [5.11960049e-09] [5.27494331e-09] [-1.72424239e-08] [1.43171557e-07] [1.60413981e-07] [438.3867014600668, 567.1521603114011, 185.65828527659363, 148.09574046202027]
80 [-2.47750214e-11] [7.3024311e-08] [7.3049086e-08] [4.96660734e-11] [6.4173597e-08] [6.4123931e-08] [775.9514899902016, 1194.452475000635, 1115.3830141744913, 948.9142996893588]
84 [-5.82900522e-11] [8.06395188e-08] [8.06978088e-08] [2.55715815e-10] [6.68153663e-08] [6.65596505e-08] [725.5093862081649, 1044.3527135700392, 1061.9352560757486, 932.4425439095025]
87 [-8.81716835e-11] [7.4699412e-08] [7.47875836e-08] [3.49590162e-10] [5.74184385e-08] [5.70688483e-08] [794.0552940053042, 1204.6715946395557, 1004.6742684563684, 1021.8977295838481]
93 [-2.08435624e-11] [7.76817019e-08] [7.77025455e-08] [4.29728211e-10] [6.34228999e-08] [6.29931717e-08] [730.5493430868523, 1157.6339074030168, 1107.796773523058, 923.0037480501957]
102 [-6.0069096e-11] [5.26589791e-08] [5.27190482e-08] [-1.08360002e-09] [7.76300394e-08] [7.87136394e-08] [752.1250855562145, 1077.921763952767, 1117.261771608591, 962.2723617330109]
106 [-1.14965843e-10] [1.0422967e-08] [1.05379328e-08] [3.20349774e-08] [1.58499275e-07] [1.26464298e-07] [441.82842356678964, 714.1201114537042, 190.22822908280202, 140.74973857390756]
109 [-7.04341084e-11] [7.32365046e-08] [7.33069387e-08] [7.12416757e-12] [6.54235968e-08] [6.54164727e-08] [765.5644894433373, 1134.2692084261103, 1205.9573279284655, 902.4978736705623]
111 [-9.61117897e-11] [7.46555265e-08] [7.47516383e-08] [3.52851606e-10] [6.2734293e-08] [6.23814414e-08] [678.6894692181536, 1091.6360316853456, 1168.2879474623892, 1030.7523427176725]
118 [-8.04674972e-11] [7.76601483e-08] [7.77406158e-08] [-1.97852499e-10] [7.33470186e-08] [7.35448711e-08] [781.0106689832887, 1121.7149286802332, 1027.9843159556754, 906.5859919686554]
134 [-3.87178171e-11] [7.83378585e-09] [7.87250367e-09] [-4.e-08] [9.13833698e-08] [1.3138337e-07] [455.9762466304243, 682.5122636609024, 212.73780716577429, 150.85467978872333]
141 [-9.24412406e-11] [6.17755949e-08] [6.18680361e-08] [8.75260701e-11] [6.04570646e-08] [6.03695386e-08] [763.9948286398933, 1168.9288855299342, 1045.590040738843, 867.3150245492159]
143 [-9.43980699e-11] [5.48830115e-09] [5.58269922e-09] [-3.65851941e-08] [8.32651461e-08] [1.1985034e-07] [375.97171035600394, 564.8553825986048, 184.48101824120187, 133.28971244459294]
150 [-8.14955151e-11] [1.92855799e-09] [2.0100535e-09] [8.68924394e-08] [1.23600973e-07] [3.67085336e-08] [12581.024495255495, 505.30656530469616, 197.60891513391914, 142.8539358922907]
155 [-6.66230841e-11] [8.27550095e-08] [8.28216326e-08] [-4.19097532e-11] [7.30134648e-08] [7.30553746e-08] [778.6791842028772, 1078.180445567789, 1163.348433310919, 979.5324350801795]
158 [-1.5531128e-10] [2.91205792e-08] [2.92758905e-08] [-2.01059915e-09] [6.4171253e-08] [6.61818522e-08] [700.3328327198795, 952.3035274045529, 1144.0942746442329, 982.1508865928986]
165 [-7.59282817e-11] [7.59145752e-08] [7.59905035e-08] [5.27051821e-10] [6.83253592e-08] [6.77983073e-08] [716.4830037541152, 1116.7276293831019, 1146.5366283134592, 987.1433254092814]
172 [-1.61060597e-11] [7.37844844e-08] [7.38005905e-08] [4.77615243e-11] [7.79043836e-08] [7.78566221e-08] [766.274012449342, 1201.2407262022043, 1110.5442565861676, 917.4861305320336]
175 [-9.84337757e-11] [7.94204597e-08] [7.95188934e-08] [-3.25614698e-10] [5.52587297e-08] [5.55843444e-08] [893.748826025085, 1052.4554721311183, 1075.938039299562, 1080.2035734635497]
176 [-9.00540982e-12] [1.04170397e-08] [1.04260451e-08] [1.18928564e-08] [1.20007508e-08] [1.07894333e-10] [532.9675451588621, 807.3506139876442, 178.14318815478816, 144.85904737373286]
177 [-6.10057136e-11] [1.98903756e-09] [2.05004327e-09] [-1.19835921e-08] [1.28960986e-07] [1.40944578e-07] [454.77774359013665, 583.7616312764368, 193.01515136238584, 156.00494192896105]
181 [-7.79109057e-11] [6.55127003e-08] [6.55906112e-08] [3.69556351e-10] [6.22137675e-08] [6.18442112e-08] [787.5358674616514, 1077.7178129296526, 1061.4193460833487, 910.5857538075924]
188 [-5.4652805e-11] [6.67465326e-08] [6.68011854e-08] [-4.43677126e-10] [6.95246482e-08] [6.99683253e-08] [729.4327554512528, 1056.4932190788247, 1127.1902355577417, 1025.5240165567484]
189 [-1.05762999e-11] [7.10245394e-08] [7.10351157e-08] [-3.34259107e-10] [7.19516445e-08] [7.22859036e-08] [750.5506455147656, 1124.5805896777579, 1116.3614200367822, 933.5207909451836]
197 [-1.50512283e-10] [9.30848799e-09] [9.45900027e-09] [5.80541387e-09] [5.85536476e-09] [4.99508871e-11] [460.56758735631263, 600.9144091568812, 197.91123724309006, 153.73666056131836]
200 [-4.72320951e-11] [1.40752466e-08] [1.41224787e-08] [-4.e-08] [1.65603635e-09] [4.16560364e-08] [538.0209446226826, 760.2050035372216, 217.3758873551796, 137.02228822086016]
204 [-6.49020959e-11] [1.04590543e-08] [1.05239564e-08] [7.00014852e-08] [7.00014852e-08] [0.] [528.6877992493194, 724.9412462604535, 182.20017624562985, 130.3907098283488]
211 [-1.28556779e-10] [7.86530027e-08] [7.87815595e-08] [-6.1755233e-10] [7.37364985e-08] [7.43540508e-08] [722.8520855630268, 1130.4737953236074, 1160.9454735357021, 1060.834689295701]
217 [-1.19412483e-10] [1.13875478e-08] [1.15069603e-08] [8.25054089e-09] [9.1816283e-09] [9.31087413e-10] [537.6561849145838, 730.70407527012, 203.2377768544683, 156.6912854063025]
220 [-6.49216517e-11] [1.04430482e-08] [1.05079699e-08] [-3.22436272e-09] [1.85289315e-09] [5.07725587e-09] [516.0734740078867, 754.2383312781874, 450.7674608217439, 341.03496710923673]
227 [-8.26918606e-11] [1.43335687e-08] [1.44162606e-08] [5.43111827e-08] [5.49525651e-08] [6.41382379e-10] [561.4722180420222, 683.7125487105336, 184.73306913582843, 144.44154838710543]
247 [-8.46877424e-11] [7.97178502e-08] [7.9802538e-08] [1.55618682e-10] [7.48832685e-08] [7.47276498e-08] [777.1029292305557, 1092.1342118133268, 1058.6742475083922, 948.0835679106498]
258 [-4.37621608e-11] [2.00826507e-09] [2.05202723e-09] [-3.3000868e-08] [9.77388424e-08] [1.3073971e-07] [464.7496657745454, 542.0132878563209, 224.61935499218237, 143.5240309692544]
260 [-7.55834469e-11] [1.12575272e-08] [1.13331106e-08] [-4.e-08] [-3.69584307e-08] [3.04156934e-09] [521.9753841274893, 717.0697066542488, 195.9579543920632, 142.04405351102756]
281 [-7.67147319e-11] [8.79857952e-08] [8.80625099e-08] [7.34805159e-10] [6.71244637e-08] [6.63896585e-08] [840.3603618925463, 1103.8119936495657, 1089.193059071906, 976.9116523681115]
297 [-9.66295e-11] [8.14042742e-08] [8.15009037e-08] [3.98849579e-10] [6.82829629e-08] [6.78841134e-08] [839.097153244148, 1109.8744123648733, 1142.7824778416596, 988.4758943548613]
302 [-1.34767581e-10] [6.88042743e-08] [6.89390419e-08] [-6.52020436e-10] [7.94422755e-08] [8.00942959e-08] [715.0285807554187, 1139.6221742795417, 1191.9681084100705, 1007.0749242821793]
312 [-1.66045274e-10] [8.15588124e-08] [8.17248577e-08] [2.84771188e-10] [7.1645444e-08] [7.13606728e-08] [749.3203073186905, 1049.103963514202, 1051.3151594073197, 882.6114991284542]
353 [-3.02363583e-11] [6.82137024e-08] [6.82439388e-08] [3.73504615e-10] [6.58681541e-08] [6.54946495e-08] [758.7672926595602, 1134.658482798664, 1147.261292772577, 980.8278946421339]
358 [-8.26142135e-11] [1.07570601e-08] [1.08396743e-08] [-3.19775837e-08] [-3.08490452e-09] [2.88926791e-08] [473.474343354527, 741.3479544549072, 203.70726637739412, 133.92372087842452]
380 [-1.08739472e-10] [7.89784679e-08] [7.90872074e-08] [7.50428144e-10] [6.61868905e-08] [6.54364623e-08] [751.2525118164524, 1010.6928011377183, 1125.7765897639579, 982.8412450096424]
391 [-8.3990502e-11] [5.0545099e-08] [5.06290895e-08] [-4.04074005e-10] [6.51004581e-08] [6.55045321e-08] [737.0792429804515, 1109.8876544044444, 1170.4123726480432, 956.9158238768939]
397 [-1.61113458e-10] [1.78796101e-08] [1.80407235e-08] [7.50483077e-09] [1.24154838e-07] [1.16650007e-07] [559.4082111027344, 784.78072061442, 225.89392283438548, 169.55491067134824]
407 [-7.87131265e-11] [7.9014507e-08] [7.90932201e-08] [-4.36338246e-10] [7.20872718e-08] [7.25236101e-08] [800.7436660545213, 1092.4031288773263, 1181.186823810871, 937.1456313574531]
413 [-9.27650654e-11] [8.129021e-08] [8.13829751e-08] [8.66635404e-10] [7.48948612e-08] [7.40282258e-08] [847.7996705542874, 1082.2857262737107, 1148.7583615872825, 950.2975883968388]
422 [-1.06176715e-10] [1.70152806e-08] [1.71214573e-08] [1.05554983e-07] [1.32456551e-07] [2.69015675e-08] [562.5122328587684, 753.5043996805914, 212.3963896651836, 140.75501122846998]
425 [-8.14406271e-11] [1.53417591e-08] [1.54231998e-08] [9.81602355e-09] [9.85798214e-09] [4.19585906e-11] [590.2100541451308, 778.7344826187953, 178.91156871765202, 150.40820202033888]
433 [-4.86557181e-11] [1.86152748e-09] [1.9101832e-09] [5.93207147e-08] [1.17402518e-07] [5.80818028e-08] [412.31722741615863, 528.9936312336431, 1041.8564592054302, 824.3615937862205]
437 [-1.24964318e-10] [9.92943032e-09] [1.00543946e-08] [-3.99741052e-08] [-1.99019882e-08] [2.0072117e-08] [476.41907152135224, 637.812482076919, 181.9823606040719, 134.60153257623037]
441 [-1.32094983e-10] [1.512717e-08] [1.5259265e-08] [-4.e-08] [-2.37813226e-08] [1.62186774e-08] [555.5774065726629, 746.6100414798383, 199.5589144920281, 151.1809878244576]
444 [-1.02687177e-10] [7.85169938e-08] [7.8619681e-08] [4.68779602e-10] [7.49404952e-08] [7.44717156e-08] [718.9778802633886, 1063.6708986556084, 1067.2598961520303, 1026.9562590712583]
465 [-3.63562511e-11] [7.31427449e-08] [7.31791012e-08] [6.7826228e-11] [7.32030669e-08] [7.31352407e-08] [865.6989900273533, 1152.3084500319542, 1135.157766582645, 965.2965985642983]
471 [-1.40798603e-10] [7.40910917e-08] [7.42318903e-08] [8.93387667e-10] [5.5095111e-08] [5.42017233e-08] [771.117757899909, 1096.0312868689446, 1039.3407098010239, 923.0364145176267]
498 [-1.42686589e-10] [7.44109296e-08] [7.45536162e-08] [1.09620366e-10] [7.97944367e-08] [7.96848163e-08] [722.7116690620408, 1104.5096947517757, 1082.2099742765508, 952.6541464336863]
504 [-5.59427222e-11] [7.11172451e-08] [7.11731878e-08] [-5.78235523e-10] [6.23386897e-08] [6.29169252e-08] [698.7814481412653, 1175.6264308444377, 1113.756607354015, 953.5971756112275]
511 [-1.50031236e-10] [6.67138646e-09] [6.8214177e-09] [-3.02667767e-08] [-6.33834682e-09] [2.39284299e-08] [420.51505871929345, 599.2774977356853, 164.43583048756489, 139.004875725667]
523 [-3.4548811e-11] [7.03651855e-08] [7.03997343e-08] [6.70904235e-10] [5.77855783e-08] [5.7114674e-08] [756.963486656706, 1165.6064695966036, 1056.8870551434131, 945.085744118884]
541 [-1.15745996e-11] [4.41858917e-08] [4.41974663e-08] [-1.79638211e-09] [7.47595563e-08] [7.65559384e-08] [819.3115769025129, 1083.785382171143, 1136.7985394503667, 1019.4873635602471]
553 [-9.45452488e-11] [7.08406496e-08] [7.09351949e-08] [-3.89821917e-10] [7.33388182e-08] [7.37286401e-08] [802.9166082165788, 1107.0967583776683, 1091.5188528073706, 891.3089072629075]
562 [-1.6397383e-10] [7.47495331e-08] [7.49135069e-08] [-3.58548031e-10] [7.68924245e-08] [7.72509725e-08] [794.3612092087886, 1100.8547835496502, 1084.1491184515903, 930.187260993386]
567 [-1.25380807e-11] [7.7268523e-08] [7.72810611e-08] [9.14267178e-10] [6.28501278e-08] [6.19358606e-08] [774.5764981437652, 1042.8679089781165, 1086.371604172334, 908.3876925202417]
568 [-6.59468884e-11] [6.92390512e-08] [6.93049981e-08] [-3.60138987e-10] [6.02531314e-08] [6.06132704e-08] [670.3722216415185, 1181.4622300974606, 1100.8971472139244, 917.8295382782948]
574 [-1.00719613e-10] [8.19935771e-08] [8.20942967e-08] [-5.58603576e-11] [6.37824817e-08] [6.3838342e-08] [806.9406749868195, 1090.791802501259, 1078.0276363849875, 886.0660362157768]
576 [-1.48372932e-10] [7.85613122e-08] [7.87096851e-08] [1.29287346e-10] [7.18077773e-08] [7.167849e-08] [783.7027406844187, 1086.5620830746154, 1082.4712397746127, 956.6618861966933]
587 [-5.28978202e-12] [1.23269027e-08] [1.23321925e-08] [-2.79299037e-08] [1.22477782e-07] [1.50407685e-07] [580.7308024852138, 742.6355576533637, 187.92919269966583, 143.24657435290004]
592 [-1.22673771e-10] [8.37019507e-08] [8.38246245e-08] [2.79793404e-10] [7.04699521e-08] [7.01901587e-08] [748.2193632885677, 1058.0735081232983, 1082.0827202454652, 872.0686372411398]
594 [-2.98757618e-11] [1.87420448e-08] [1.87719206e-08] [9.87671516e-08] [9.96482851e-08] [8.81133472e-10] [659.3540642291719, 809.0763212187916, 176.68569098626804, 160.0612110754307]
603 [-7.82828015e-11] [4.4082983e-08] [4.41612658e-08] [-1.88219197e-09] [6.7147104e-08] [6.9029296e-08] [773.8396681035664, 1125.8327475325034, 1160.9315104075704, 902.2410086898968]
627 [-1.35105351e-10] [1.92692327e-09] [2.06202862e-09] [2.17743036e-09] [8.69529796e-08] [8.47755492e-08] [440.2568640380551, 497.26334878507987, 180.53733427813717, 134.8729326276385]
629 [-6.99141084e-11] [7.15967973e-08] [7.16667114e-08] [-6.28275988e-10] [6.10817889e-08] [6.17100649e-08] [775.054050548764, 1037.8351725335488, 1098.1292249367548, 963.8152518347057]
633 [-1.61076266e-10] [1.76558675e-08] [1.78169437e-08] [1.51403979e-07] [1.51501883e-07] [9.79038267e-11] [605.2610651126972, 755.3898526955456, 248.84005081182892, 244.72752523679478]
645 [-1.18702086e-10] [6.52578275e-08] [6.53765295e-08] [-6.13913395e-10] [8.05633796e-08] [8.1177293e-08] [694.7004225296248, 1061.8550573524951, 1117.907488771556, 1028.0318569048247]
648 [-8.29706191e-11] [7.99731375e-09] [8.08028437e-09] [1.47593012e-07] [1.47694937e-07] [1.01924775e-10] [7340.120507051806, 5407.8903013152985, 192.7853063207409, 149.1910820042225]
671 [-8.39555733e-11] [7.4621783e-08] [7.47057386e-08] [4.48780935e-10] [6.70980862e-08] [6.66493053e-08] [746.4670094523582, 1134.4178488561076, 1134.0237391962257, 940.8456050720235]
694 [-1.43945886e-10] [7.52865656e-09] [7.67260245e-09] [1.49400636e-07] [1.49434602e-07] [3.39663988e-11] [525.080294102822, 640.9608295077051, 330.4589882344017, 258.9005909945585]
716 [-1.94033222e-11] [9.60537268e-09] [9.624776e-09] [-4.e-08] [1.29379408e-07] [1.69379408e-07] [506.77076591380654, 769.541980066807, 198.82090346993942, 142.1354852150374]
721 [-7.21886831e-11] [6.96003639e-08] [6.96725526e-08] [-1.295782e-11] [7.96176798e-08] [7.96306376e-08] [732.2971428465121, 1076.1558639523867, 1062.870003440036, 1038.1342180743811]
726 [-7.23470662e-11] [6.81135952e-08] [6.81859423e-08] [-3.54385503e-10] [6.57035139e-08] [6.60578994e-08] [811.1230440579475, 1116.1024112740893, 1084.2098216959712, 871.724827071932]
755 [-5.85416772e-11] [7.32343773e-08] [7.32929189e-08] [4.53525215e-10] [7.64280242e-08] [7.5974499e-08] [703.5288029335641, 1123.3072026028788, 1101.6561251333444, 888.6971968782499]
757 [-8.83034419e-11] [6.00994116e-08] [6.0187715e-08] [-4.99441767e-10] [6.81202622e-08] [6.86197039e-08] [749.9908922358889, 1140.15891937827, 1120.7822227807014, 897.7953149455507]
775 [-1.94199012e-11] [6.57931409e-10] [6.7735131e-10] [9.88725773e-08] [9.9094361e-08] [2.21783726e-10] [389.9774979903349, 494.70655971782793, 196.35312731311183, 144.70308288018114]
777 [-1.53528089e-10] [1.42295835e-09] [1.57648644e-09] [-2.93962534e-08] [4.34153377e-08] [7.28115912e-08] [396.98287160312725, 545.9151933940723, 190.95969222035887, 136.70521084529977]
778 [-1.27843314e-10] [6.10330762e-08] [6.11609195e-08] [-1.04559436e-09] [6.75359007e-08] [6.85814951e-08] [707.2025287651702, 1138.7274687604179, 1095.1639225198703, 1038.463795758908]
787 [-1.32330229e-10] [8.51130206e-08] [8.52453508e-08] [2.17407566e-11] [6.98481517e-08] [6.98264109e-08] [764.6123196606312, 1070.281789855439, 1066.651873752087, 907.3713237005652]
799 [-7.16641831e-12] [2.11880217e-09] [2.12596858e-09] [-2.22215025e-08] [1.36140617e-07] [1.58362119e-07] [505.60198602217685, 569.4846736002272, 187.1415420699515, 143.08908540076885]
802 [-1.42390151e-10] [4.03963833e-09] [4.18202848e-09] [-5.5508731e-09] [9.17446136e-08] [9.72954867e-08] [410.5039099528261, 525.8449011508377, 190.5386846317238, 130.9803831326974]
809 [-1.08959114e-11] [8.42292887e-08] [8.42401846e-08] [1.61362135e-10] [6.92404131e-08] [6.90790509e-08] [776.3645480673785, 1123.617311895824, 1050.5536262608105, 899.9306641812203]
827 [-1.57940085e-10] [7.66477407e-08] [7.68056808e-08] [-2.46495482e-10] [6.58973184e-08] [6.61438139e-08] [729.1617527591526, 1176.5027636967575, 1140.2969270173517, 961.443707616641]
837 [-6.91393989e-11] [6.52854722e-09] [6.59768662e-09] [-4.e-08] [1.38961569e-07] [1.78961569e-07] [430.214736721333, 558.4614567394739, 198.85832299395355, 151.91845163251153]
847 [-2.42687319e-11] [8.19363295e-08] [8.19605982e-08] [-1.44553732e-10] [5.91039685e-08] [5.92485223e-08] [814.8835013347342, 1152.629399089432, 1081.7830870317757, 996.7819548344473]
878 [-1.58022883e-10] [6.81678693e-08] [6.83258922e-08] [2.36465198e-11] [6.38418589e-08] [6.38182123e-08] [815.4976261649074, 1046.5360067302447, 992.866365343368, 884.2536202177592]
917 [-2.87922062e-11] [8.47888592e-08] [8.48176514e-08] [-1.39588494e-11] [7.31153358e-08] [7.31292946e-08] [790.4808348723104, 1128.719136702148, 1059.177563530185, 1048.8146538901965]
919 [-7.83381637e-11] [7.38180586e-08] [7.38963968e-08] [-1.30468969e-10] [6.99435775e-08] [7.00740464e-08] [771.8052006259304, 1122.4091494600923, 1184.4394883844927, 965.4062674398787]
920 [-1.04020651e-10] [1.27067962e-09] [1.37470027e-09] [-2.35477934e-08] [1.90053032e-08] [4.25530966e-08] [348.89070049323317, 599.5313416123047, 200.52112662217235, 145.8569982817223]
928 [-6.48039342e-11] [3.96734806e-09] [4.03215199e-09] [-3.89449532e-08] [2.39253472e-08] [6.28703004e-08] [399.87206789988846, 550.0187123885983, 189.8131361186632, 137.46117049559413]
947 [-1.38222835e-10] [6.27988369e-08] [6.29370598e-08] [-1.78176557e-10] [6.64832708e-08] [6.66614474e-08] [684.0303290385718, 1132.0202638107867, 1110.1206606092476, 985.5414183846743]
948 [-9.27351363e-11] [7.66028012e-08] [7.66955364e-08] [2.87662514e-10] [6.99403009e-08] [6.96526384e-08] [774.7366145952274, 1092.7125329737976, 996.2763383920335, 977.4951091922835]
958 [-3.2605444e-11] [6.97816783e-08] [6.98142837e-08] [-3.87663412e-10] [6.41020048e-08] [6.44896683e-08] [775.4360448349445, 1196.7399648825565, 1118.0591028105102, 951.4432524956346]
967 [-9.87738401e-11] [7.84089878e-08] [7.85077617e-08] [-2.40309093e-10] [7.03152891e-08] [7.05555982e-08] [725.1018103235622, 1097.0603839058879, 1129.7585113756832, 956.8769025575799]
972 [-1.15468062e-10] [1.12356367e-08] [1.13511048e-08] [-3.88328222e-08] [-3.86526404e-08] [1.80181824e-10] [445.14122182830823, 729.1955496631775, 191.7494662877685, 137.5943522142847]
1015 [-3.09360503e-11] [2.04708238e-09] [2.07801843e-09] [-3.03574943e-08] [1.59800003e-07] [1.90157497e-07] [469.8944040884473, 520.4621078295189, 176.33703627431785, 149.0212989352534]
1033 [-3.03962738e-11] [7.32046386e-08] [7.32350349e-08] [5.86725759e-10] [7.61813707e-08] [7.5594645e-08] [786.0131982799214, 1129.968425946416, 1155.290452664604, 1093.5042797144822]
1045 [-1.43590633e-10] [1.71637682e-08] [1.73073588e-08] [6.25450018e-08] [6.44091815e-08] [1.86417975e-09] [624.463665364783, 787.9645218120393, 191.79149978071197, 168.29226807629982]
1059 [-1.66448942e-10] [8.42856249e-08] [8.44520738e-08] [2.14911055e-10] [6.60809434e-08] [6.58660324e-08] [737.9136851393329, 1129.9373107540587, 1091.5791530502804, 932.6368836091964]
1063 [-9.03455281e-11] [8.13467151e-08] [8.14370607e-08] [6.64729736e-10] [7.23851642e-08] [7.17204345e-08] [710.8930522505442, 1125.946907224511, 1149.2889830370443, 972.7366748992312]
1068 [-2.22066437e-11] [1.81482441e-08] [1.81704508e-08] [-3.93397654e-08] [-3.93156839e-08] [2.40815063e-11] [665.7572561179993, 832.3266863011013, 180.83217991932554, 150.93574202736914]
1086 [-3.77719947e-11] [1.65582597e-08] [1.65960317e-08] [-4.e-08] [-2.99379269e-08] [1.00620731e-08] [612.0216857824096, 811.4318363977328, 223.3577879748703, 150.23070981932506]
1090 [-1.15276159e-10] [6.83806391e-09] [6.95334007e-09] [-5.3722285e-09] [-5.35424524e-09] [1.79832628e-11] [433.66177506244816, 628.4805826710387, 202.53813089494952, 134.37051713036396]
1114 [-8.63739385e-11] [8.03076936e-08] [8.03940675e-08] [-2.56436957e-10] [6.93839992e-08] [6.96404361e-08] [726.1207712471228, 1096.3080610726697, 1101.924104712445, 970.9015825398983]
1116 [-9.20728525e-11] [8.31381648e-09] [8.40588933e-09] [-3.03102882e-08] [-2.75987803e-08] [2.71150796e-09] [522.1043129699395, 555.6185207406411, 209.69367341329956, 144.71508917694683]
1126 [-3.39858324e-11] [1.68077791e-08] [1.68417649e-08] [-5.74443977e-09] [-5.51264574e-09] [2.31794026e-10] [565.0122140607923, 878.3227368896255, 207.61579683425646, 140.25806451766724]
1152 [-1.18678484e-10] [1.52087096e-08] [1.5327388e-08] [1.17102645e-07] [1.17286466e-07] [1.83820565e-10] [483.1630938622736, 776.6305249789731, 210.32729316445318, 144.22846978655147]
1153 [-7.99767298e-11] [6.39521236e-08] [6.40321003e-08] [1.75482203e-10] [6.71126608e-08] [6.69371786e-08] [676.5136401054615, 1061.8458237541242, 1078.4686617212164, 864.9485517047226]
1163 [-3.64741978e-11] [7.64054162e-08] [7.64418904e-08] [-3.97624152e-10] [6.7408835e-08] [6.78064591e-08] [763.7056781553098, 1173.9688082591103, 1161.2852228120346, 945.0818104052361]
1177 [-1.65254062e-11] [7.03592464e-08] [7.03757718e-08] [8.40962976e-10] [7.3694429e-08] [7.2853466e-08] [822.6977353732037, 1099.0779905407558, 1000.0692898419088, 931.3982659665771]
1180 [-7.63722819e-11] [7.34303918e-08] [7.35067641e-08] [-2.52067751e-10] [6.18797902e-08] [6.2131858e-08] [742.0257870972046, 1082.770529283231, 1137.8096328180634, 933.2834412384761]
1187 [-8.02479962e-11] [7.20798664e-08] [7.21601144e-08] [1.57207037e-10] [6.46966106e-08] [6.45394036e-08] [733.5439405921308, 1163.0722218212027, 1127.5439198996385, 960.2017446971875]
1201 [-3.20458208e-11] [7.20841974e-08] [7.21162432e-08] [-1.75889317e-10] [7.05337288e-08] [7.07096181e-08] [722.8727334302141, 1059.029767967911, 1164.8465194874414, 988.1324492527358]
1208 [-9.9580934e-11] [4.92648634e-08] [4.93644443e-08] [-1.00725777e-09] [5.16977772e-08] [5.2705035e-08] [691.612575581812, 967.709475641648, 1028.3076967786387, 977.2870479264031]
1234 [-1.64553258e-10] [7.84571509e-08] [7.86217042e-08] [6.37150701e-11] [6.29129049e-08] [6.28491899e-08] [741.3583713995108, 1086.0358959860248, 978.2212752948936, 893.4712327968537]
1235 [-1.64672052e-10] [8.32203667e-08] [8.33850387e-08] [8.15327507e-10] [6.67616171e-08] [6.59462896e-08] [772.7055654348648, 1156.902645424563, 1076.4460989289603, 921.3357478713543]
1249 [-9.81960237e-11] [7.03116309e-08] [7.0409827e-08] [-1.16208914e-10] [6.48888558e-08] [6.50050647e-08] [740.3981502348414, 1072.9264332020514, 1005.8157506209117, 911.9801465626839]
1254 [-1.34145159e-10] [7.71110455e-08] [7.72451907e-08] [3.27027491e-10] [6.15156785e-08] [6.1188651e-08] [730.1798936275932, 1105.603540907503, 1136.7664010441688, 904.1811470335163]
1258 [-1.40834449e-10] [9.22822525e-09] [9.3690597e-09] [1.31711308e-07] [1.47045388e-07] [1.53340805e-08] [450.89013318799374, 646.4736520072415, 179.4400765994861, 141.23767743510075]
1261 [-9.82337955e-11] [6.73144891e-08] [6.74127229e-08] [-9.13619801e-10] [6.62772637e-08] [6.71908835e-08] [796.4123615813807, 1166.969544908258, 1209.8868810908414, 946.9493083547859]
1267 [-1.17997048e-10] [7.6727638e-08] [7.68456351e-08] [1.32646312e-11] [6.64667816e-08] [6.6453517e-08] [778.3141718369201, 1125.3031571176896, 1044.60948059748, 894.0355823784213]
1279 [-3.67737496e-11] [6.66045305e-08] [6.66413042e-08] [2.87665289e-10] [6.67573958e-08] [6.64697306e-08] [721.1796245976147, 1230.615099397712, 1100.3802553824971, 944.2933270281372]
1286 [-6.42218487e-11] [6.13083809e-08] [6.13726028e-08] [-5.52210093e-10] [6.22488458e-08] [6.28010559e-08] [805.4040706849052, 1073.2666576141996, 1010.7004732973594, 914.3129519175201]
1287 [-5.53433065e-11] [8.49846181e-09] [8.55380512e-09] [-4.e-08] [-3.03597348e-08] [9.64026518e-09] [515.6754905548039, 526.3283586584606, 208.84446782640507, 147.65853620194932]
1294 [-6.83913165e-11] [8.43153721e-09] [8.49992852e-09] [2.50319911e-08] [1.43943533e-07] [1.18911542e-07] [439.90493715539384, 586.2236790170115, 181.81260666658383, 137.36624646416016]
1300 [-1.62477307e-10] [8.0143617e-08] [8.03060943e-08] [-2.84380749e-10] [6.54238838e-08] [6.57082646e-08] [773.4757965095843, 1063.4644245554302, 1132.3159639258747, 898.6523295963491]
1311 [-9.96185496e-12] [6.31809849e-08] [6.31909468e-08] [-8.51717414e-10] [6.21612068e-08] [6.30129243e-08] [829.1553754585325, 1150.3091223106749, 1054.3952574235384, 1034.235947517655]
1333 [-1.12790594e-10] [8.08086176e-08] [8.09214082e-08] [-2.12464139e-10] [7.35399841e-08] [7.37524482e-08] [758.7700740820067, 1123.6975547395075, 1120.5705740206035, 957.8892723736261]
