intersection resolution = 100000, maximum allowed chisquare_red = 100000
Measurement number, 1st intersection 12, 2nd intersection 12, tot 12, 1st intersection 34, 2nd intersection 34, tot 34, chisquare_red 
1 [-8.19889578e-09] [-4.08010946e-10] [7.79088484e-09] [-8.11511319e-09] [-4.45647632e-13] [8.11466754e-09] [3704.9405809145815, 5173.302598714517, 3111.8325393407454, 4815.621503927184]
2 [-8.16759477e-09] [-2.78997777e-10] [7.88859699e-09] [-8.05178006e-09] [9.45290144e-11] [8.14630907e-09] [3655.356216245713, 4516.862874941278, 3212.670253293193, 4643.088619513721]
3 [-8.17853655e-09] [-2.31431328e-10] [7.94710522e-09] [-8.09336955e-09] [1.13436869e-10] [8.20680642e-09] [3337.806594167163, 4428.4762088399275, 3134.287483772151, 4572.708393284725]
4 [-8.18733761e-09] [-2.01426765e-10] [7.98591085e-09] [-8.09169259e-09] [1.4098665e-10] [8.23267924e-09] [3476.6445361667343, 4427.096304555607, 3583.853901214212, 4784.717603516537]
5 [-8.1652266e-09] [-1.84291148e-10] [7.98093545e-09] [-8.06380688e-09] [1.61309446e-10] [8.22511632e-09] [3384.6564437293728, 4744.3109715788505, 2951.3512375696323, 4448.009481668247]
6 [-8.17157648e-09] [-1.92034066e-10] [7.97954241e-09] [-8.07891762e-09] [1.47989537e-10] [8.22690716e-09] [3716.1296324972745, 4663.528558403181, 3037.9271493132296, 4419.956611772817]
7 [-8.16185997e-09] [-1.56844803e-10] [8.00501517e-09] [-8.10693683e-09] [1.34099183e-10] [8.24103602e-09] [3946.618807446461, 4683.645354461279, 2777.728427398507, 4121.602916916239]
8 [-8.19289933e-09] [-2.88580662e-10] [7.90431866e-09] [-8.12563154e-09] [6.84390467e-11] [8.19407059e-09] [3542.6967085194287, 4911.856543726057, 2894.237417326315, 4313.701258496179]
9 [-8.1760408e-09] [-2.54210125e-10] [7.92183068e-09] [-8.09696087e-09] [9.96968778e-11] [8.19665775e-09] [3934.9562058442957, 4845.675383605191, 3188.8150196758697, 4499.11285860512]
10 [-8.13900875e-09] [-3.55487369e-10] [7.78352138e-09] [-8.11077282e-09] [-1.87652992e-12] [8.10889629e-09] [3240.847217505562, 4712.910167317805, 3220.326359241695, 5016.708771432402]
11 [-8.1613304e-09] [-2.52634576e-10] [7.90869583e-09] [-8.09238761e-09] [1.05662784e-10] [8.19805039e-09] [3641.6332078581318, 4776.915286349105, 2907.2621510109116, 4636.472996143715]
12 [-8.18392596e-09] [-3.45278833e-10] [7.83864712e-09] [-8.12092602e-09] [3.79212405e-11] [8.15884726e-09] [3441.0956306802254, 4492.037713133873, 3245.214441950977, 4675.881591233509]
13 [-8.15667246e-09] [-1.71358591e-10] [7.98531387e-09] [-8.07072996e-09] [1.66127119e-10] [8.23685708e-09] [3508.853188905662, 4361.236594731332, 3202.758843338647, 4730.895072676727]
14 [-8.16346909e-09] [-2.60941862e-10] [7.90252723e-09] [-8.04551012e-09] [1.04979434e-10] [8.15048955e-09] [3812.5858164132264, 4916.636673849851, 3543.911170466653, 5048.582817647213]
15 [-8.14098454e-09] [-2.4462654e-10] [7.896358e-09] [-8.07188274e-09] [7.6416538e-11] [8.14829928e-09] [3620.80100939965, 4826.491246552391, 3323.296424633674, 4866.449818882907]
16 [-8.17297665e-09] [-3.24180731e-10] [7.84879591e-09] [-8.07213204e-09] [6.16400997e-11] [8.13377214e-09] [3351.8494129325272, 4732.7543177146135, 3012.2016759167386, 5176.617908417233]
17 [-8.16209471e-09] [-2.29318625e-10] [7.93277608e-09] [-8.12769359e-09] [7.23480006e-11] [8.2000416e-09] [3841.2210834437365, 4830.069927457245, 3165.987166666441, 4036.118092835124]
18 [-8.19511872e-09] [-3.72791026e-10] [7.82232769e-09] [-8.09959491e-09] [2.06448296e-11] [8.12023974e-09] [3400.8576920245087, 4577.954127415394, 2903.026001466579, 4581.673273913722]
19 [-8.18937495e-09] [-2.61972471e-10] [7.92740248e-09] [-8.09999624e-09] [9.46718077e-11] [8.19466804e-09] [3665.616974737707, 4656.223473445563, 2781.761722418537, 4611.946341089557]
20 [-8.17882095e-09] [-3.22065567e-10] [7.85675538e-09] [-8.07486601e-09] [5.81093948e-11] [8.1329754e-09] [3448.2813496149574, 4916.531902733708, 2762.233741223229, 4358.000121001435]
21 [-8.1678038e-09] [-2.13336073e-10] [7.95446773e-09] [-8.0790843e-09] [1.36479183e-10] [8.21556348e-09] [3674.825586395402, 4672.104311829564, 2829.2614327475358, 4214.713047005343]
22 [-8.14893566e-09] [-2.14567445e-10] [7.93436822e-09] [-8.07349819e-09] [1.37487768e-10] [8.21098596e-09] [3403.919175492811, 4802.085708152795, 3243.909011926993, 4767.312045890081]
23 [-8.14512111e-09] [-3.41300195e-10] [7.80382091e-09] [-8.04946503e-09] [6.02277301e-11] [8.10969276e-09] [3301.516273334841, 4673.871070894409, 3356.8693183535815, 4665.983333772833]
24 [-8.16502945e-09] [-3.49467231e-10] [7.81556222e-09] [-8.07511073e-09] [4.71189949e-11] [8.12222973e-09] [3729.052260932189, 5111.015685013431, 2818.576190247062, 4709.332330009082]
25 [-8.17497057e-09] [-2.94532809e-10] [7.88043776e-09] [-8.07097001e-09] [7.47426701e-11] [8.14571268e-09] [3599.053011878141, 4505.968407993156, 2896.3031538308724, 4673.550534330524]
26 [-8.17021349e-09] [-2.7047205e-10] [7.89974144e-09] [-8.06083669e-09] [9.72150652e-11] [8.15805176e-09] [3496.335833361405, 4685.86981513496, 2947.8702772084225, 4223.237943406939]
27 [-8.14418702e-09] [-2.76088083e-10] [7.86809894e-09] [-8.07497355e-09] [5.24306158e-11] [8.12740416e-09] [3367.728080638706, 4883.602079394172, 2800.8386751135477, 4629.728561782815]
28 [-8.20467665e-09] [-2.88219206e-10] [7.91645744e-09] [-8.11306841e-09] [7.20465539e-11] [8.18511496e-09] [3644.7475476499094, 4881.6091852840855, 3054.564128945569, 4563.064141291579]
29 [-8.13677341e-09] [-2.49569373e-10] [7.88720404e-09] [-8.06600769e-09] [7.41329209e-11] [8.14014061e-09] [3546.5035663792187, 4507.612946509089, 3087.322927728194, 4400.690489026711]
30 [-8.16926872e-09] [-1.94502336e-10] [7.97476639e-09] [-8.08607123e-09] [1.47403001e-10] [8.23347423e-09] [3578.114268449929, 4293.289116437582, 3188.1724301455997, 4483.725626891726]
31 [-8.18357944e-09] [-3.22047539e-10] [7.8615319e-09] [-8.08550957e-09] [6.33871953e-11] [8.14889676e-09] [3545.446779042765, 4588.825803385262, 2970.8394059909815, 4600.686003665992]
32 [-8.15693642e-09] [-3.8237067e-10] [7.77456575e-09] [-8.0828787e-09] [2.10425645e-11] [8.10392126e-09] [3487.0685823024014, 4853.618991478973, 2837.309249576489, 4643.641892680781]
33 [-8.16031534e-09] [-2.54405106e-10] [7.90591023e-09] [-8.10035445e-09] [6.04820588e-11] [8.16083651e-09] [3538.632027886596, 4600.077293713197, 3130.6663032133865, 4705.019890835102]
34 [-8.1616849e-09] [-1.90301643e-10] [7.97138325e-09] [-8.07331694e-09] [1.5637599e-10] [8.22969293e-09] [3645.4021287216165, 4541.422603205935, 2900.5810783435254, 4593.360197841907]
35 [-8.19177264e-09] [-1.51533617e-10] [8.04023902e-09] [-8.10343067e-09] [1.92532592e-10] [8.29596326e-09] [3810.8902962583966, 4932.192869937517, 3077.789863437682, 4363.878704783579]
36 [-8.17042495e-09] [-2.54962351e-10] [7.9154626e-09] [-8.05146311e-09] [1.13752254e-10] [8.16521537e-09] [3460.4011646223717, 4555.943498838526, 2742.859408134853, 4303.942986819676]
37 [-8.16580949e-09] [-3.4248577e-10] [7.82332372e-09] [-8.09286136e-09] [5.08614996e-11] [8.14372286e-09] [3698.5882594625095, 4815.670983971817, 3013.642466964663, 4815.053081403291]
38 [-8.1566916e-09] [-2.93169379e-10] [7.86352222e-09] [-8.04620353e-09] [8.77666062e-11] [8.13397013e-09] [3283.3623488576513, 4493.808475094142, 2779.9818267282117, 4568.663785173848]
39 [-8.15932544e-09] [-2.83664493e-10] [7.87566095e-09] [-8.03734291e-09] [9.28478673e-11] [8.13019077e-09] [3603.250775664391, 4491.18830765824, 3255.157044343147, 4627.106565726335]
40 [-8.13538433e-09] [-3.05095942e-10] [7.83028839e-09] [-8.07415231e-09] [3.7928261e-11] [8.11208057e-09] [3659.615780618271, 4793.35020134315, 2944.6284309289013, 4630.210080570855]
41 [-8.19050636e-09] [-2.79222426e-10] [7.91128393e-09] [-8.11852345e-09] [7.59458168e-11] [8.19446927e-09] [3730.595673535835, 4373.789204964077, 3365.1876884125195, 4616.905161744868]
42 [-8.13822357e-09] [-2.89826315e-10] [7.84839725e-09] [-8.09755771e-09] [4.55675964e-11] [8.14312531e-09] [3641.0301389518345, 4692.164845829591, 2761.5439071818855, 4458.557560113787]
43 [-8.17024117e-09] [-3.12888355e-10] [7.85735281e-09] [-8.04604816e-09] [7.14053909e-11] [8.11745355e-09] [3495.2496067676066, 4820.172006717759, 3091.75265060075, 4721.095353591058]
44 [-8.17635023e-09] [-1.64170928e-10] [8.0121793e-09] [-8.08650765e-09] [1.80400096e-10] [8.26690774e-09] [3723.2090475677614, 4683.267201086947, 2922.303647760309, 4336.100175494228]
45 [-8.20625996e-09] [-3.05523847e-10] [7.90073611e-09] [-8.0886697e-09] [6.04261939e-11] [8.14909589e-09] [3463.7104607152746, 5193.419957590542, 2852.479504202748, 4786.734606914187]
46 [-8.15884273e-09] [-2.3323085e-10] [7.92561188e-09] [-8.12408465e-09] [7.29715432e-11] [8.1970562e-09] [3759.3743091633087, 4556.0676692340285, 3156.8937991587286, 4631.504083087049]
47 [-8.16204269e-09] [-2.66281616e-10] [7.89576108e-09] [-8.08671044e-09] [9.70125307e-11] [8.18372297e-09] [3469.1364477099987, 4634.2815846796475, 2855.608358851107, 4336.635601246562]
48 [-8.14095629e-09] [-2.17135244e-10] [7.92382105e-09] [-8.11312992e-09] [8.43241334e-11] [8.19745405e-09] [3488.563128050144, 4605.498836961975, 3203.490932160913, 4802.953425505044]
49 [-8.19685503e-09] [-2.1273482e-10] [7.98412021e-09] [-8.12645806e-09] [1.2532461e-10] [8.25178267e-09] [4146.398000296326, 4732.837495517074, 2957.26417602238, 4361.960817518989]
50 [-8.15989795e-09] [-1.76773324e-10] [7.98312462e-09] [-8.11994218e-09] [1.12736685e-10] [8.23267887e-09] [3916.707995923618, 4690.164060668312, 2744.2299432882473, 4116.347276285267]
51 [-8.14255856e-09] [-2.52369555e-10] [7.89018901e-09] [-8.07228627e-09] [6.62617794e-11] [8.13854805e-09] [3659.8780271955857, 4798.949312567302, 3151.0997766006953, 4344.621203490159]
52 [-8.19212755e-09] [-3.58456388e-10] [7.83367116e-09] [-8.08609603e-09] [3.43431202e-11] [8.12043915e-09] [3267.8787818303836, 4634.2996216984, 3027.684295610138, 4460.908083496732]
53 [-8.1457005e-09] [-2.69043392e-10] [7.87665711e-09] [-8.03152659e-09] [1.09409637e-10] [8.14093623e-09] [3625.8234219298492, 4644.557944146931, 3303.0772417778626, 4616.617335967433]
54 [-8.19235766e-09] [-2.38288301e-10] [7.95406936e-09] [-8.10660429e-09] [1.03785855e-10] [8.21039014e-09] [3437.1122937369023, 4626.550954607703, 3306.7434263309137, 4471.523491278711]
55 [-8.16251409e-09] [-2.08842692e-10] [7.9536714e-09] [-8.07473484e-09] [1.34858926e-10] [8.20959376e-09] [4261.574633931914, 4683.020592906443, 2834.866831761527, 4352.406640054325]
56 [-8.18318169e-09] [-3.89311859e-10] [7.79386983e-09] [-8.09005626e-09] [2.10291967e-11] [8.11108545e-09] [3717.811990537568, 4852.013160376268, 3049.5967857970545, 4776.952867796475]
57 [-8.18282713e-09] [-3.13534803e-10] [7.86929233e-09] [-8.06919338e-09] [6.49775042e-11] [8.13417088e-09] [3537.085600197241, 4708.4596639860265, 2935.9813642452373, 4653.132390915129]
58 [-8.17439438e-09] [-2.67289742e-10] [7.90710464e-09] [-8.05162289e-09] [9.90645767e-11] [8.15068747e-09] [3541.974384606982, 4972.045668621235, 2931.1015037171096, 4594.2382512174745]
59 [-8.18634089e-09] [-2.97146994e-10] [7.88919389e-09] [-8.10478477e-09] [7.21717044e-11] [8.17695648e-09] [3512.579180557685, 4466.482174981462, 2794.3048877398514, 4459.233849198507]
60 [-8.20646986e-09] [-3.54092427e-10] [7.85237743e-09] [-8.09835499e-09] [3.08395368e-11] [8.12919452e-09] [3395.8174703620416, 4555.655443922724, 3166.4414883394224, 4502.551531120032]
61 [-8.1579093e-09] [-2.0423765e-10] [7.95367165e-09] [-8.03388945e-09] [1.47643397e-10] [8.18153284e-09] [4115.842482591447, 4895.102561204352, 3028.0193442585305, 4765.193341712968]
62 [-8.14819016e-09] [-2.87454755e-10] [7.8607354e-09] [-8.03148485e-09] [9.25350616e-11] [8.12401992e-09] [3833.185703860209, 5109.619234152724, 3447.024145737828, 4727.545794240328]
63 [-8.15652807e-09] [-2.39075655e-10] [7.91745242e-09] [-8.03627548e-09] [1.23366721e-10] [8.1596422e-09] [4098.124750344871, 4746.418268195701, 2994.6809779931245, 4317.74407518216]
64 [-8.17420367e-09] [-2.95358113e-10] [7.87884555e-09] [-8.05755296e-09] [8.39800318e-11] [8.14153299e-09] [3302.41138757272, 4533.547529122619, 3168.0420295802296, 4888.392545801593]
65 [-8.14773822e-09] [-2.65111481e-10] [7.88262674e-09] [-8.04108215e-09] [1.07018358e-10] [8.14810051e-09] [3369.5478368008708, 4860.862969837774, 2966.3226795961973, 4570.574663308108]
66 [-8.18361659e-09] [-3.18900868e-10] [7.86471572e-09] [-8.06539922e-09] [6.85721239e-11] [8.13397134e-09] [3493.445345241455, 4891.716188186395, 2963.818922211118, 4815.725552405788]
67 [-8.16650997e-09] [-3.0995398e-10] [7.85655599e-09] [-8.03893037e-09] [7.39467498e-11] [8.11287712e-09] [3455.019328537443, 4723.300998532182, 2916.0967877801872, 4550.001420956463]
68 [-8.16742043e-09] [-2.2449503e-10] [7.9429254e-09] [-8.08830346e-09] [1.25469515e-10] [8.21377298e-09] [3684.2844270619225, 4503.019854805471, 3032.791329266991, 4911.406995604182]
69 [-8.1670958e-09] [-2.68349869e-10] [7.89874594e-09] [-8.04490643e-09] [1.04985582e-10] [8.14989201e-09] [3684.1222767007225, 4589.918219957979, 3015.902033275788, 4973.548169138725]
70 [-8.16421334e-09] [-3.04273151e-10] [7.85994019e-09] [-8.05000687e-09] [7.95858742e-11] [8.12959275e-09] [3465.378657495924, 5032.150708714909, 2991.9689074052512, 4958.083429335885]
71 [-8.19830709e-09] [-2.55580818e-10] [7.94272627e-09] [-8.10990868e-09] [9.09280058e-11] [8.20083669e-09] [3755.3179951928673, 4869.272947682284, 2954.920135345711, 4508.14871045213]
72 [-8.1365813e-09] [-2.19128471e-10] [7.91745282e-09] [-8.10457023e-09] [8.98987252e-11] [8.19446896e-09] [3261.7754038460034, 4783.2713857203435, 3290.6085620500635, 4765.996669062776]
73 [-8.18114919e-09] [-2.50163695e-10] [7.93098549e-09] [-8.06241523e-09] [1.09765739e-10] [8.17218097e-09] [3343.7722314955945, 4556.3538443496, 3249.1220414338804, 4980.525635793007]
74 [-8.15834555e-09] [-1.6009675e-10] [7.9982488e-09] [-8.06263762e-09] [1.79395198e-10] [8.24203282e-09] [3321.133734576285, 4282.438348096455, 3147.3653946155036, 4479.056880756994]
75 [-8.19467393e-09] [-2.50752916e-10] [7.94392102e-09] [-8.10235533e-09] [9.47003485e-11] [8.19705568e-09] [3832.0741263563705, 4728.5238850103715, 2745.8625821817736, 4396.107160547326]
76 [-8.16420932e-09] [-2.312336e-10] [7.93297572e-09] [-8.04285013e-09] [1.29130604e-10] [8.17198073e-09] [3800.171553487544, 4669.347663996499, 2884.4046089499084, 4477.743703851048]
77 [-8.15555591e-09] [-2.20989151e-10] [7.93456675e-09] [-8.07923852e-09] [1.29756817e-10] [8.20899534e-09] [3974.6886694103837, 4806.1956366456525, 2737.724788157057, 4410.743078325222]
78 [-8.15914564e-09] [-3.19703647e-10] [7.839442e-09] [-8.16392396e-09] [1.50227795e-11] [8.17894674e-09] [3515.9043651648813, 4656.519934437627, 2717.254573758883, 4560.071922901003]
79 [-8.18323116e-09] [-2.02096625e-10] [7.98113454e-09] [-8.10316267e-09] [1.422517e-10] [8.24541437e-09] [3445.8640902228763, 4582.566467123057, 3120.7650384651133, 4606.394170114561]
80 [-8.15766009e-09] [-2.63490661e-10] [7.89416943e-09] [-8.03968566e-09] [1.08016765e-10] [8.14770243e-09] [3530.166473721677, 4735.271163181387, 3252.5483870979187, 4813.764564879345]
81 [-8.15689772e-09] [-2.4660922e-10] [7.9102885e-09] [-8.04470953e-09] [1.18516363e-10] [8.16322589e-09] [3492.1637888334435, 4569.442215004012, 3092.8650099602273, 4755.013298495306]
82 [-8.18732341e-09] [-2.87780837e-10] [7.89954257e-09] [-8.06790532e-09] [7.95974916e-11] [8.14750281e-09] [3762.4907285820123, 4674.806925499961, 3345.9016420777198, 4605.15718540258]
83 [-8.17663255e-09] [-2.7947865e-10] [7.8971539e-09] [-8.10970485e-09] [8.29728948e-11] [8.19267775e-09] [3705.8354657203927, 4578.030460957796, 2779.2030173382195, 4521.582219388714]
84 [-8.14650701e-09] [-2.01591189e-10] [7.94491582e-09] [-8.05876122e-09] [1.42871204e-10] [8.20163242e-09] [3287.9948148548992, 4496.652813659182, 3208.296538778104, 4716.38997966144]
85 [-8.19991177e-09] [-3.55693768e-10] [7.844218e-09] [-8.09129227e-09] [3.07391537e-11] [8.12203142e-09] [3661.8411354790314, 4993.567651233292, 3088.6696035182163, 4886.375187457016]
86 [-8.20908556e-09] [-3.04967071e-10] [7.90411849e-09] [-8.09795978e-09] [6.04885663e-11] [8.15844834e-09] [3909.299222370481, 4520.4713488210655, 3187.899401645329, 4576.867988737216]
87 [-8.16627295e-09] [-2.10611298e-10] [7.95566165e-09] [-8.08501713e-09] [1.36913738e-10] [8.22193086e-09] [3272.4235314919406, 4346.8926866499, 3252.2632267096906, 4667.187721361148]
88 [-8.16562884e-09] [-2.88971966e-10] [7.87665688e-09] [-8.05582379e-09] [8.78988616e-11] [8.14372265e-09] [3702.720561530174, 4550.990345662586, 3131.6148557087736, 4578.925635502172]
89 [-8.19547258e-09] [-3.35929914e-10] [7.85954266e-09] [-8.0776785e-09] [4.39539645e-11] [8.12163246e-09] [3440.3087074016075, 4814.992213712374, 2845.7927645030213, 4314.436451923784]
90 [-8.14273952e-09] [-2.08371108e-10] [7.93436841e-09] [-8.02731837e-09] [1.49040213e-10] [8.17635858e-09] [3236.202762282668, 4354.672676576234, 3105.936547895786, 4508.03431722708]
91 [-8.1853737e-09] [-1.85333683e-10] [8.00004002e-09] [-8.09100232e-09] [1.57396584e-10] [8.2483989e-09] [3386.733704681241, 4193.81691287871, 3153.4946040865216, 4640.50263750674]
92 [-8.18236964e-09] [-3.30190807e-10] [7.85217883e-09] [-8.09298518e-09] [5.39208437e-11] [8.14690602e-09] [3556.206757034676, 4966.26172720626, 2794.146604506718, 4523.906247544521]
93 [-8.13862202e-09] [-2.73309241e-10] [7.86531278e-09] [-8.06896215e-09] [5.66508098e-11] [8.12561296e-09] [3435.944930281893, 4212.856175452393, 2832.5764933364308, 4505.83491265767]
94 [-8.18080732e-09] [-2.00070783e-10] [7.98073653e-09] [-8.08703333e-09] [1.438535e-10] [8.23088683e-09] [3738.414695526854, 4805.54699562856, 3111.003436738093, 4502.545758634025]
95 [-8.20645906e-09] [-3.81942241e-10] [7.82451682e-09] [-8.1117786e-09] [9.85454647e-12] [8.12163315e-09] [3664.0437299270525, 4948.765995662141, 3169.099044951802, 4528.336750268123]
96 [-8.18411011e-09] [-3.29940888e-10] [7.85416922e-09] [-8.06877631e-09] [5.72347226e-11] [8.12601103e-09] [3714.367872780902, 5020.290378392423, 3181.4635610672326, 4496.827556420391]
97 [-8.17480769e-09] [-3.20837909e-10] [7.85396978e-09] [-8.06912097e-09] [6.68400909e-11] [8.13596106e-09] [3853.925934413928, 4862.082760938715, 3023.1271321667086, 4869.049813367392]
98 [-8.18579806e-09] [-3.00585001e-10] [7.88521306e-09] [-8.06458447e-09] [6.75958732e-11] [8.13218034e-09] [3443.3197914198163, 4728.8145118258235, 3241.718579716251, 4803.83129765806]
99 [-8.15069181e-09] [-1.94830708e-10] [7.9558611e-09] [-8.0269679e-09] [1.60536158e-10] [8.18750406e-09] [3274.0591452554027, 4429.775151061952, 3005.8283319692696, 4518.424476954141]
100 [-8.17897236e-09] [-1.8231539e-10] [7.99665697e-09] [-8.08382548e-09] [1.62981509e-10] [8.24680699e-09] [3955.526765249919, 4654.797869820588, 3421.6813623013586, 4351.153459928212]
