intersection resolution = 100000, maximum allowed chisquare_red = 100000
Measurement number, 1st intersection 12, 2nd intersection 12, tot 12, 1st intersection 34, 2nd intersection 34, tot 34, chisquare_red 
1 [-9.6344576e-09] [-1.78565923e-09] [7.84879838e-09] [-9.60486983e-09] [-1.45199753e-09] [8.1528723e-09] [3430.9481663530355, 4632.8678966943025, 3123.7129413198854, 4770.090504549327]
2 [-8.16054486e-09] [-3.26675668e-10] [7.83386919e-09] [-8.06535256e-09] [6.24492246e-11] [8.12780179e-09] [3609.1190533719514, 4666.02417973098, 3202.3797897043232, 4720.113626073846]
3 [-8.1811532e-09] [-3.11063464e-10] [7.87008974e-09] [-8.07158621e-09] [6.23857045e-11] [8.13397192e-09] [3525.138580909907, 5131.294159875153, 3030.373187106735, 4700.040902093285]
4 [-8.20620377e-09] [-4.0198419e-10] [7.80421958e-09] [-8.12125009e-09] [1.97447704e-12] [8.12322457e-09] [3232.081578242317, 4534.412743879511, 2899.5515710238856, 5022.582990429404]
5 [-8.16780642e-09] [-3.27766361e-10] [7.84004006e-09] [-8.09842358e-09] [5.067231e-11] [8.14909589e-09] [3528.0173654634755, 4886.239306695845, 2969.4437182644424, 4649.628720226124]
6 [-8.16005799e-09] [-1.50465441e-10] [8.00959254e-09] [-8.06081141e-09] [1.93757983e-10] [8.25456939e-09] [3368.028424695213, 4131.271156861844, 2977.224574836581, 4146.587176841177]
7 [-8.17459247e-09] [-2.76244067e-10] [7.8983484e-09] [-8.09263678e-09] [8.55138218e-11] [8.1781506e-09] [3552.639509722543, 5025.110412604, 2828.13084282004, 4653.015054374671]
8 [-8.20426635e-09] [-2.10196392e-10] [7.99406996e-09] [-8.10675558e-09] [1.29703612e-10] [8.23645919e-09] [4001.8589532926608, 4513.283282810307, 2595.1629201965375, 4245.62966542849]
9 [-8.20249877e-09] [-3.15295432e-10] [7.88720334e-09] [-8.10275371e-09] [4.8331671e-11] [8.15108538e-09] [3416.754836918772, 4808.448913922537, 3025.856878390452, 4205.179968756261]
10 [-8.17739843e-09] [-2.95169783e-10] [7.88222865e-09] [-8.10570846e-09] [7.10482734e-11] [8.17675673e-09] [3475.281569800338, 4565.578114885099, 2876.1988219205377, 4350.103335155353]
11 [-8.18735683e-09] [-3.4890963e-10] [7.8384472e-09] [-8.09506373e-09] [3.99029893e-11] [8.13496672e-09] [3342.6758040680497, 4618.442130503918, 3201.0793386986343, 4634.661906586996]
12 [-8.14757736e-09] [-3.51717807e-10] [7.79585955e-09] [-8.06414615e-09] [5.3307155e-11] [8.1174533e-09] [3521.047746053823, 4670.577268835455, 3326.477606156841, 4835.709287096357]
13 [-8.17317928e-09] [-2.84383303e-10] [7.88879598e-09] [-8.05881832e-09] [9.06754514e-11] [8.14949377e-09] [3533.436252302882, 5173.806258753508, 3256.7904754026176, 4430.6010165105]
14 [-8.20721668e-09] [-2.94937542e-10] [7.91227913e-09] [-8.12870189e-09] [5.46232774e-11] [8.18332516e-09] [3701.8551528548114, 4500.416852849996, 3149.5979949541525, 4488.916466924538]
15 [-8.1601069e-09] [-2.70117142e-10] [7.88998976e-09] [-8.11945863e-09] [4.47610614e-11] [8.16421969e-09] [3697.325230506946, 4731.493438799356, 2841.747918580887, 4648.918444758281]
16 [-8.17265781e-09] [-2.97991938e-10] [7.87466587e-09] [-8.06312873e-09] [7.52197975e-11] [8.13834853e-09] [3518.8094107878933, 4789.519532121904, 3178.73595574721, 4602.9213991790675]
17 [-8.15394959e-09] [-3.08338539e-10] [7.84561105e-09] [-8.06917075e-09] [7.53481119e-11] [8.14451886e-09] [3505.206667417482, 4705.381227378322, 2761.6810883657336, 4476.960657563174]
18 [-8.13843426e-09] [-2.35907404e-10] [7.90252686e-09] [-8.10201963e-09] [7.35438923e-11] [8.17556352e-09] [3468.932788426328, 4731.885185988559, 2812.640495041749, 4740.424175786163]
19 [-8.19237549e-09] [-2.89849065e-10] [7.90252643e-09] [-8.11934628e-09] [7.17402e-11] [8.19108648e-09] [3482.4888447640246, 4899.383048409914, 3112.0400571625714, 4396.749207694367]
20 [-8.19871247e-09] [-3.7101187e-10] [7.8277006e-09] [-8.10237093e-09] [1.48836282e-11] [8.11725456e-09] [3179.6203963108983, 4325.5466446465925, 2838.121923930692, 4546.010436309141]
21 [-8.19764942e-09] [-3.56215981e-10] [7.84143344e-09] [-8.09128462e-09] [3.17417542e-11] [8.12302637e-09] [3413.6229506771815, 4549.181543892511, 2975.5073102341275, 4671.211026792682]
22 [-8.19227088e-09] [-3.07454222e-10] [7.88481665e-09] [-8.07890235e-09] [5.9646016e-11] [8.13854836e-09] [3317.6453428739687, 4992.804245926339, 3381.2686944300285, 4816.499815333167]
23 [-8.17242516e-09] [-3.19450447e-10] [7.85297471e-09] [-8.06359894e-09] [6.57952071e-11] [8.12939415e-09] [3417.6776723349976, 4552.977680036046, 3175.270261132936, 4629.479926905595]
24 [-8.14034659e-09] [-2.69261881e-10] [7.8710847e-09] [-8.11968244e-09] [5.52839064e-11] [8.17496635e-09] [3497.4119409254204, 4590.314475705665, 2985.3281093669075, 4520.083933856487]
25 [-8.19217413e-09] [-3.18503621e-10] [7.87367051e-09] [-8.08983081e-09] [5.82696115e-11] [8.14810042e-09] [3691.635696113621, 4704.5638767600685, 3247.80558951952, 4641.5046398248305]
26 [-8.17560024e-09] [-3.3934183e-10] [7.83625841e-09] [-8.07873428e-09] [5.1854254e-11] [8.13058853e-09] [3781.9728238444936, 4992.180348159157, 2895.2198669283725, 4636.990730447463]
27 [-8.16130654e-09] [-3.05147857e-10] [7.85615868e-09] [-8.05398087e-09] [7.97909706e-11] [8.13377184e-09] [3499.1394937984014, 4942.148454330205, 2895.359886788585, 4524.951338566991]
28 [-8.17685853e-09] [-3.30849977e-10] [7.84600855e-09] [-8.07553369e-09] [5.36615866e-11] [8.12919528e-09] [3541.7874359822513, 4943.59907406362, 2873.0884353443753, 4728.4159992357245]
