intersection resolution = 100000, maximum allowed chisquare_red = 100000
Measurement number, 1st intersection 12, 2nd intersection 12, tot 12, 1st intersection 34, 2nd intersection 34, tot 34, chisquare_red 
1 [-8.52678766e-12] [7.9402234e-09] [7.94875019e-09] [-9.64620183e-11] [7.72952312e-09] [7.82598514e-09] [2897.2338682336144, 4731.7582868366635, 3182.325465234472, 5280.871604129465]
2 [-9.50615172e-11] [7.80933521e-09] [7.90439673e-09] [-1.89874635e-10] [7.60898678e-09] [7.79886141e-09] [3554.103015255048, 4897.868131178289, 3565.335637727078, 5248.198665890265]
3 [-6.47551285e-11] [7.82399938e-09] [7.88875451e-09] [-1.53650453e-10] [7.60996481e-09] [7.76361526e-09] [3493.720266408431, 4582.802512516113, 3256.7129327009993, 5028.605395807009]
4 [-3.78670527e-11] [7.83563925e-09] [7.87350631e-09] [-1.28279566e-10] [7.62068492e-09] [7.74896449e-09] [3876.16754358581, 4679.738547933349, 3223.048444769819, 4975.211779619487]
5 [-1.54999876e-10] [7.81909762e-09] [7.97409749e-09] [-2.46086243e-10] [7.60188207e-09] [7.84796831e-09] [3238.3287699517678, 4997.071727293874, 2775.9325609454295, 4160.935056017014]
6 [-6.78603728e-11] [7.81852099e-09] [7.88638137e-09] [-1.64102352e-10] [7.60169388e-09] [7.76579623e-09] [3708.086738205022, 4729.157877693345, 2839.298640109455, 4821.958418096789]
7 [-8.20092813e-11] [7.81921828e-09] [7.90122756e-09] [-1.81916411e-10] [7.60288891e-09] [7.78480532e-09] [3792.6717518719984, 4423.899785806445, 2709.1225620592613, 4820.876925209122]
8 [-1.5876811e-10] [7.80839887e-09] [7.96716698e-09] [-2.55838667e-10] [7.59529394e-09] [7.85113261e-09] [3284.725602060224, 4468.189282291733, 2985.578380004004, 4556.736806800082]
9 [-7.7745177e-12] [7.90493711e-09] [7.91271162e-09] [-9.75616488e-11] [7.6878373e-09] [7.78539895e-09] [3684.2726525145836, 4530.581171629963, 3974.6266255416494, 5605.995633418573]
10 [-1.35020604e-12] [7.88978201e-09] [7.89113222e-09] [-8.96835948e-11] [7.67036816e-09] [7.76005176e-09] [4079.0034273009555, 4924.261086374956, 3745.07238151158, 5418.948759259833]
11 [-6.2814443e-11] [7.90236877e-09] [7.96518321e-09] [-1.56020601e-10] [7.68521334e-09] [7.84123395e-09] [4076.444228247284, 5166.212680931376, 3458.1148165542972, 5188.655799202347]
12 [-7.36887674e-11] [7.78140356e-09] [7.85509233e-09] [-1.58625149e-10] [7.56994136e-09] [7.72856651e-09] [3496.3003726640413, 4755.060636918901, 2771.115190919006, 4981.948350210525]
13 [-7.94065635e-11] [7.8331087e-09] [7.91251526e-09] [-1.65164608e-10] [7.61963527e-09] [7.78479988e-09] [3920.803497921972, 5005.617270828262, 2783.0960570646184, 4615.72272829788]
14 [-4.90478017e-11] [7.85020385e-09] [7.89925165e-09] [-1.36233801e-10] [7.63312311e-09] [7.76935692e-09] [3687.9468092212437, 4523.019830008637, 3322.3717185636906, 5490.121285485558]
15 [-1.99010249e-12] [7.94062199e-09] [7.9426121e-09] [-8.59717706e-11] [7.73031089e-09] [7.81628266e-09] [2859.196840461394, 4778.644067720488, 3292.0045088306965, 5009.817796942238]
16 [-1.67464604e-10] [7.73376752e-09] [7.90123212e-09] [-2.7326522e-10] [7.52084143e-09] [7.79410665e-09] [3680.5447644773512, 5261.628220139196, 3487.0055569216743, 4940.607533933407]
17 [-9.48334393e-11] [7.7913479e-09] [7.88618134e-09] [-1.95785456e-10] [7.57416893e-09] [7.76995439e-09] [3426.4105216119406, 5126.432279792473, 2876.3282780574978, 4736.491812830609]
18 [-1.32625032e-10] [7.80682138e-09] [7.93944641e-09] [-2.28480445e-10] [7.59077572e-09] [7.81925617e-09] [3519.688135952115, 5034.766951266609, 2542.5691016708556, 4382.986594165179]
19 [-8.03453989e-11] [7.82009393e-09] [7.90043933e-09] [-1.77224885e-10] [7.60024998e-09] [7.77747487e-09] [3804.801270118583, 4968.498857652394, 2563.1188554968544, 5131.706185109473]
20 [-1.06276757e-10] [7.77357056e-09] [7.87984732e-09] [-2.01003744e-10] [7.55924323e-09] [7.76024697e-09] [3316.3545023225265, 5154.320221188254, 2492.5720351201926, 4757.76700982854]
21 [-1.58267247e-11] [7.90698563e-09] [7.92281236e-09] [-9.88007575e-11] [7.69154539e-09] [7.79034614e-09] [3827.5427257766696, 4551.126701243506, 3498.3779195582697, 5615.131284183387]
22 [-1.66134386e-11] [7.89649684e-09] [7.91311027e-09] [-1.04686787e-10] [7.68229644e-09] [7.78698323e-09] [3733.140590522654, 5254.571717344959, 3645.2175637568653, 5740.835013886858]
23 [-3.18298555e-11] [7.87435148e-09] [7.90618133e-09] [-1.14286207e-10] [7.66120702e-09] [7.77549323e-09] [3903.610739944438, 4475.971739676013, 3728.5392109391864, 5600.419327337046]
24 [-9.04974752e-11] [7.80914741e-09] [7.89964488e-09] [-1.94432438e-10] [7.6131409e-09] [7.80757334e-09] [3327.2188700981546, 4746.735269515689, 3708.737595822735, 5557.838987491059]
25 [-4.90603397e-11] [7.87533744e-09] [7.92439778e-09] [-1.41366558e-10] [7.65927627e-09] [7.80064283e-09] [4475.477759637441, 4664.110013006305, 3428.93295168256, 5739.975680580165]
26 [-6.11947163e-11] [7.8430041e-09] [7.90419881e-09] [-1.61972318e-10] [7.6293634e-09] [7.79133572e-09] [3743.262625569743, 4769.405927125213, 2889.1393446414263, 5089.490508115228]
27 [-1.52025469e-10] [7.75039427e-09] [7.90241974e-09] [-2.45068518e-10] [7.53795616e-09] [7.78302467e-09] [3079.202024203217, 5068.160987349114, 2901.0262117653465, 4942.934229350477]
28 [-6.33638082e-11] [7.80875844e-09] [7.87212225e-09] [-1.53602368e-10] [7.59278965e-09] [7.74639202e-09] [3441.399943985175, 4446.044981632233, 2922.627811014429, 4910.529608600394]
29 [-1.39417175e-10] [7.84338942e-09] [7.9828066e-09] [-2.32639145e-10] [7.62503011e-09] [7.85766925e-09] [3887.690613448467, 4677.901284086694, 2729.794588533012, 4986.880086979746]
30 [-4.09830813e-11] [7.83628759e-09] [7.87727067e-09] [-1.31470461e-10] [7.61729456e-09] [7.74876502e-09] [3320.6445537704517, 4278.517997802595, 3233.848382722169, 5382.914439000737]
31 [-2.43712979e-11] [7.92992289e-09] [7.95429419e-09] [-1.13640129e-10] [7.71967394e-09] [7.83331407e-09] [3279.572968250771, 4807.648730655131, 3325.5873861284085, 5346.167873109976]
32 [-1.763811e-11] [7.91269739e-09] [7.9303355e-09] [-1.10261757e-10] [7.69572823e-09] [7.80598999e-09] [3608.877857353466, 4796.333514958055, 3540.2907878782526, 5836.982314953997]
33 [-2.01458247e-11] [7.92959666e-09] [7.94974248e-09] [-1.04733362e-10] [7.71234401e-09] [7.81707737e-09] [3259.553138631969, 4633.456688518244, 3161.3595412385143, 5405.919265988123]
34 [-1.72115635e-10] [7.69604359e-09] [7.86815922e-09] [-2.67308842e-10] [7.4818518e-09] [7.74916064e-09] [3902.750620282593, 4833.8874871222115, 3315.689070329486, 4624.368946063046]
35 [-8.90736603e-11] [7.80007802e-09] [7.88915168e-09] [-1.8434251e-10] [7.59630125e-09] [7.78064376e-09] [3357.4367533305362, 4585.982291353477, 3355.9698595857467, 5493.47045873267]
36 [-9.86920772e-12] [7.89967739e-09] [7.9095466e-09] [-1.05377471e-10] [7.6825901e-09] [7.78796758e-09] [3657.6500877083117, 4724.59203564639, 3753.238432423774, 5480.660383142878]
37 [-1.46279051e-11] [7.88977032e-09] [7.90439823e-09] [-1.01415954e-10] [7.67269128e-09] [7.77410724e-09] [4148.813264793981, 4662.425017182661, 3734.1416744637795, 5684.100528568463]
38 [-1.74231554e-10] [7.69452557e-09] [7.86875712e-09] [-2.66731493e-10] [7.48143771e-09] [7.7481692e-09] [3719.645058811382, 4743.08087865903, 3481.716186554471, 4696.362291616903]
39 [2.39367205e-13] [7.92503269e-09] [7.92479333e-09] [-8.59801043e-11] [7.70792737e-09] [7.79390747e-09] [3022.9205905911726, 4740.074673863447, 3804.9489771769668, 5470.477202298455]
40 [-9.08249405e-11] [7.81278326e-09] [7.9036082e-09] [-1.95775956e-10] [7.59457369e-09] [7.79034964e-09] [3960.9820374649235, 4914.660938926083, 2730.839619294905, 4911.775218545449]
41 [-8.89242065e-11] [7.74834807e-09] [7.83727228e-09] [-1.9088826e-10] [7.52975879e-09] [7.72064705e-09] [3459.638294014113, 4767.237799199796, 2354.465026173294, 5161.906363869369]
42 [-1.2508631e-10] [7.81218275e-09] [7.93726906e-09] [-2.18833974e-10] [7.59705197e-09] [7.81588595e-09] [4087.114335008163, 4987.0980450105735, 2578.593248055811, 4528.184220719838]
43 [-1.86399656e-11] [7.84021484e-09] [7.8588548e-09] [-1.07301292e-10] [7.62265392e-09] [7.72995521e-09] [3583.538524301089, 4772.415179645543, 3560.057619845736, 5237.544136715381]
44 [-4.47164933e-11] [7.86859245e-09] [7.91330894e-09] [-1.30325306e-10] [7.65269205e-09] [7.78301736e-09] [4015.0684476844217, 4721.6674720475285, 3899.4353345074974, 5504.885658359079]
45 [-3.11402175e-11] [7.88988749e-09] [7.9210277e-09] [-1.17987723e-10] [7.67592372e-09] [7.79391144e-09] [3896.189039713042, 4742.912718237455, 3800.7083858184146, 5433.832160239967]
46 [-8.57742497e-11] [7.80198872e-09] [7.88776297e-09] [-1.8197261e-10] [7.58698831e-09] [7.76896092e-09] [3863.7588693659764, 4704.840381859803, 2673.5773529486237, 4925.175873964711]
47 [-9.25064399e-12] [7.95593632e-09] [7.96518696e-09] [-1.02180245e-10] [7.74222077e-09] [7.84440102e-09] [3037.1394168040024, 4493.847037308237, 3082.16100514528, 5408.841252664076]
48 [-1.73800314e-10] [7.77554718e-09] [7.9493475e-09] [-2.67100762e-10] [7.56225308e-09] [7.82935384e-09] [3008.172916981984, 4795.512194076155, 2799.480812543051, 4652.2812623334075]
49 [-1.3345083e-10] [7.78381715e-09] [7.91726798e-09] [-2.26690644e-10] [7.56860741e-09] [7.79529806e-09] [3338.1114374290228, 5126.177126574102, 2632.881773871656, 4801.528148154515]
50 [-9.1445147e-11] [7.76186765e-09] [7.8533128e-09] [-1.9002251e-10] [7.55142205e-09] [7.74144456e-09] [3862.8829497551283, 4658.087877482425, 3423.3497235739555, 5229.251817587001]
51 [-1.44984707e-10] [7.72852111e-09] [7.87350582e-09] [-2.37021629e-10] [7.51510848e-09] [7.75213011e-09] [3456.4355651767305, 5451.466118849796, 2850.749895292461, 4912.682444299522]
52 [-1.72615702e-10] [7.76425725e-09] [7.93687296e-09] [-2.62312686e-10] [7.55199557e-09] [7.81430826e-09] [2867.281657933946, 4935.930452409638, 2830.0678316269773, 4961.401179332733]
53 [-8.76950563e-11] [7.80818859e-09] [7.89588365e-09] [-1.85545197e-10] [7.60539352e-09] [7.79093871e-09] [3219.3118082263413, 5082.587323872701, 3322.222487722689, 5381.82711489014]
54 [-8.71665743e-11] [7.85286978e-09] [7.94003635e-09] [-1.86074758e-10] [7.63912366e-09] [7.82519842e-09] [4657.506898779283, 5024.242255840928, 2983.9193529317295, 5128.379008086326]
55 [-1.46747415e-10] [7.76556874e-09] [7.91231616e-09] [-2.38765722e-10] [7.55910671e-09] [7.79787244e-09] [3123.525357307299, 4598.352340165563, 3031.054840399976, 4514.59324317059]
56 [-6.51886186e-11] [7.76792435e-09] [7.83311297e-09] [-1.53808213e-10] [7.5541702e-09] [7.70797842e-09] [3026.879016201696, 4633.443888142538, 2763.098664381996, 5638.994504588738]
57 [-1.42363738e-10] [7.75332147e-09] [7.8956852e-09] [-2.33407215e-10] [7.53634936e-09] [7.76975657e-09] [3328.5237355683735, 5267.49809261169, 2474.3027178004927, 5010.660606208659]
58 [-1.10301389e-10] [7.80518365e-09] [7.91548504e-09] [-2.01739449e-10] [7.58623248e-09] [7.78797193e-09] [3736.709168739904, 4886.891025287277, 2481.973580646734, 4611.311988414537]
59 [-1.68073371e-10] [7.76563078e-09] [7.93370415e-09] [-2.60349858e-10] [7.55237297e-09] [7.81272283e-09] [3087.13450895591, 4507.907616933447, 2846.8379179697913, 4735.64783190263]
60 [-2.98260574e-12] [7.9524998e-09] [7.95548241e-09] [-9.02275243e-11] [7.73477285e-09] [7.82500037e-09] [2892.5728289943263, 4749.498585596575, 3096.3277460037602, 5253.149158005221]
61 [-2.69602689e-11] [7.80734155e-09] [7.83430182e-09] [-1.17062461e-10] [7.5869502e-09] [7.70401266e-09] [3002.459802209995, 4393.245274363167, 2739.5718803655714, 5182.162505475644]
62 [-1.17431687e-10] [7.79429111e-09] [7.9117228e-09] [-2.17622904e-10] [7.57886014e-09] [7.79648305e-09] [3628.4331043827283, 4698.054727900029, 2525.3332580474803, 4522.081023526732]
63 [-1.3845065e-11] [7.85689184e-09] [7.8707369e-09] [-1.00622597e-10] [7.64536782e-09] [7.74599042e-09] [3909.9043337100366, 4588.673083954591, 3881.183921701003, 5570.449237056081]
64 [-1.53503405e-10] [7.74217884e-09] [7.89568224e-09] [-2.51019692e-10] [7.52626201e-09] [7.7772817e-09] [3047.0701797151332, 4849.100248270548, 2891.5801659872236, 4961.823485567902]
65 [-1.46284474e-10] [7.7759357e-09] [7.92222017e-09] [-2.40617681e-10] [7.5621995e-09] [7.80281719e-09] [3225.4268986460893, 4908.00459910874, 2583.61630513274, 4702.870000141283]
66 [-8.00318734e-11] [7.86079758e-09] [7.94082945e-09] [-1.73891082e-10] [7.65288425e-09] [7.82677533e-09] [2873.8516649586945, 4433.4348933513675, 2499.399326174029, 4059.1280674719687]
67 [-1.74874817e-10] [7.7433808e-09] [7.91825562e-09] [-2.7091197e-10] [7.53131108e-09] [7.80222305e-09] [3154.731060614231, 4864.751600902424, 3218.1135227021073, 4662.403522433369]
68 [-9.58304728e-11] [7.79411263e-09] [7.8899431e-09] [-1.92488426e-10] [7.57963903e-09] [7.77212746e-09] [3420.9174341490457, 4880.292498254699, 2533.696660641651, 4610.759400761497]
69 [-1.61124692e-10] [7.75753207e-09] [7.91865676e-09] [-2.52234316e-10] [7.54326178e-09] [7.79549609e-09] [2958.100682732827, 4911.314650308184, 2756.5814361709986, 4829.048368419575]
70 [-1.74638613e-10] [7.75668768e-09] [7.93132629e-09] [-2.60719618e-10] [7.54131302e-09] [7.80203263e-09] [2950.9430013912333, 4734.206427610997, 2805.050580853093, 4878.339098125262]
71 [-1.13487799e-10] [7.82674708e-09] [7.94023488e-09] [-2.17786244e-10] [7.61335037e-09] [7.83113662e-09] [3681.826845830439, 4706.714303611028, 3041.975590655129, 4486.570982006882]
72 [-3.56833705e-11] [7.87524641e-09] [7.91092978e-09] [-1.21960955e-10] [7.65828731e-09] [7.78024826e-09] [4071.2852466362647, 5103.670453661486, 3645.6021512869183, 5488.044451005993]
73 [-1.26490058e-10] [7.77474109e-09] [7.90123115e-09] [-2.22979984e-10] [7.56023581e-09] [7.7832158e-09] [3483.4285383908527, 4963.00152223997, 2465.258890074937, 4372.827845008863]
74 [-1.17560473e-10] [7.76842524e-09] [7.88598571e-09] [-2.1028371e-10] [7.55313331e-09] [7.76341702e-09] [3386.741290216883, 5181.41718185734, 2335.804651720313, 4740.456209321656]
75 [-9.28213994e-11] [7.77059e-09] [7.8634114e-09] [-1.88299207e-10] [7.56541607e-09] [7.75371528e-09] [3932.2090265820007, 4906.956626923568, 3754.904970511175, 5336.734604432889]
76 [-4.1783069e-11] [7.93132214e-09] [7.97310521e-09] [-1.28547946e-10] [7.71169297e-09] [7.84024092e-09] [3202.1118635242137, 4617.417269203662, 3698.303160475137, 6066.238805122793]
77 [-1.52266037e-10] [7.75411138e-09] [7.90637741e-09] [-2.49732413e-10] [7.54140183e-09] [7.79113424e-09] [3073.400352015831, 5150.0234493794605, 3068.604397159267, 4797.483341916079]
78 [-1.08141486e-10] [7.76061316e-09] [7.86875464e-09] [-2.09655976e-10] [7.55178351e-09] [7.76143948e-09] [3382.521496593736, 5186.96370101749, 2617.0032775985874, 4895.999816076862]
79 [-1.58844158e-10] [7.69090086e-09] [7.84974502e-09] [-2.49473523e-10] [7.47414557e-09] [7.7236191e-09] [3783.05688717902, 5386.1248083099335, 3105.9113096060787, 5142.411624654926]
80 [-5.26241323e-11] [7.82009428e-09] [7.87271842e-09] [-1.47732722e-10] [7.60162461e-09] [7.74935733e-09] [3566.7654296794244, 4451.26204108688, 3013.596025156368, 5030.934004538369]
81 [-9.03041203e-11] [7.80894438e-09] [7.8992485e-09] [-1.82993858e-10] [7.59249906e-09] [7.77549292e-09] [3566.705159955523, 4715.844399403548, 2638.057193785927, 5040.163579664398]
82 [-1.05507566e-10] [7.86502511e-09] [7.97053268e-09] [-2.05773016e-10] [7.65169381e-09] [7.85746683e-09] [4671.836088831791, 5159.450614582272, 3432.3095487750743, 4779.651886154449]
83 [-9.44868223e-11] [7.80773128e-09] [7.9022181e-09] [-1.90872393e-10] [7.61036438e-09] [7.80123677e-09] [3614.3574388649063, 4605.606264360303, 3387.7948320761775, 5373.158397737308]
84 [-1.55272568e-10] [7.72932205e-09] [7.88459462e-09] [-2.51472389e-10] [7.51392441e-09] [7.7653968e-09] [3340.4763771732264, 5465.62745702497, 3089.45989632608, 4941.861743037026]
85 [-1.70001051e-11] [7.82581854e-09] [7.84281865e-09] [-1.05076084e-10] [7.61181371e-09] [7.7168898e-09] [3199.721527857126, 4184.46229726977, 3197.5245094547963, 4879.743130755778]
86 [1.33377437e-12] [7.8726621e-09] [7.87132833e-09] [-8.97235612e-11] [7.65448537e-09] [7.74420893e-09] [3633.135324404388, 4988.522383536246, 3586.2600706591124, 5244.108028532836]
87 [-1.6370616e-10] [7.72722944e-09] [7.8909356e-09] [-2.64370466e-10] [7.51330042e-09] [7.77767089e-09] [3410.4127779250107, 5269.713025998817, 3055.2066328901465, 5080.690036626344]
88 [-1.26884904e-10] [7.77375229e-09] [7.90063719e-09] [-2.29530353e-10] [7.55566425e-09] [7.7851946e-09] [3268.0364169543577, 4954.439681555878, 2583.3770299498956, 5086.326219674356]
89 [-1.56872025e-10] [7.71722733e-09] [7.87409935e-09] [-2.55565983e-10] [7.50330189e-09] [7.75886787e-09] [3425.628447256649, 5263.483861851942, 3057.6304019647314, 4981.087759230095]
90 [-4.70913399e-11] [7.85176326e-09] [7.8988546e-09] [-1.43898511e-10] [7.63932253e-09] [7.78322104e-09] [3956.029270255085, 4837.06662855761, 3445.337200375168, 5269.476183900553]
91 [-9.06908867e-11] [7.77766919e-09] [7.86836008e-09] [-1.84763198e-10] [7.57251353e-09] [7.75727673e-09] [3765.955858200108, 4956.621056743567, 3585.972190050937, 5052.819139471996]
