\relax 
\providecommand\hyper@newdestlabel[2]{}
\@writefile{toc}{\contentsline {section}{\numberline {7}Mechanical Structures}{30}{section.7}\protected@file@percent }
\@writefile{toc}{\contentsline {subsection}{\numberline {7.1}Housing for Scintillator, SiPMs and Amplifier Boards}{30}{subsection.7.1}\protected@file@percent }
\newlabel{fig:model_housing_body}{{23a}{31}{\relax }{figure.caption.28}{}}
\newlabel{fig:model_housing_body@cref}{{[subfigure][1][23]23a}{[1][30][]31}}
\newlabel{sub@fig:model_housing_body}{{a}{31}{\relax }{figure.caption.28}{}}
\newlabel{sub@fig:model_housing_body@cref}{{[subfigure][1][23]23a}{[1][30][]31}}
\newlabel{fig:model_housing_frame}{{23b}{31}{\relax }{figure.caption.28}{}}
\newlabel{fig:model_housing_frame@cref}{{[subfigure][2][23]23b}{[1][30][]31}}
\newlabel{sub@fig:model_housing_frame}{{b}{31}{\relax }{figure.caption.28}{}}
\newlabel{sub@fig:model_housing_frame@cref}{{[subfigure][2][23]23b}{[1][30][]31}}
\newlabel{fig:model_housing_cap_top}{{23c}{31}{\relax }{figure.caption.28}{}}
\newlabel{fig:model_housing_cap_top@cref}{{[subfigure][3][23]23c}{[1][30][]31}}
\newlabel{sub@fig:model_housing_cap_top}{{c}{31}{\relax }{figure.caption.28}{}}
\newlabel{sub@fig:model_housing_cap_top@cref}{{[subfigure][3][23]23c}{[1][30][]31}}
\newlabel{fig:model_housing_cap_bottom}{{23d}{31}{\relax }{figure.caption.28}{}}
\newlabel{fig:model_housing_cap_bottom@cref}{{[subfigure][4][23]23d}{[1][30][]31}}
\newlabel{sub@fig:model_housing_cap_bottom}{{d}{31}{\relax }{figure.caption.28}{}}
\newlabel{sub@fig:model_housing_cap_bottom@cref}{{[subfigure][4][23]23d}{[1][30][]31}}
\@writefile{lof}{\contentsline {figure}{\numberline {23}{\ignorespaces Computer renderings of housing bottom (a), adapter frame (b), housing top seen from above (c) and housing top seen from below (d). Not to scale.\relax }}{31}{figure.caption.28}\protected@file@percent }
\newlabel{fig:scinti_sipm_assembly}{{23}{31}{Computer renderings of housing bottom (a), adapter frame (b), housing top seen from above (c) and housing top seen from below (d). Not to scale.\relax }{figure.caption.28}{}}
\newlabel{fig:scinti_sipm_assembly@cref}{{[figure][23][]23}{[1][30][]31}}
\@writefile{toc}{\contentsline {subsection}{\numberline {7.2}Source and Collimator Holder}{32}{subsection.7.2}\protected@file@percent }
\newlabel{fig:model_collimator_holder}{{24a}{33}{\relax }{figure.caption.29}{}}
\newlabel{fig:model_collimator_holder@cref}{{[subfigure][1][24]24a}{[1][32][]33}}
\newlabel{sub@fig:model_collimator_holder}{{a}{33}{\relax }{figure.caption.29}{}}
\newlabel{sub@fig:model_collimator_holder@cref}{{[subfigure][1][24]24a}{[1][32][]33}}
\newlabel{fig:model_collimator_ring}{{24b}{33}{\relax }{figure.caption.29}{}}
\newlabel{fig:model_collimator_ring@cref}{{[subfigure][2][24]24b}{[1][32][]33}}
\newlabel{sub@fig:model_collimator_ring}{{b}{33}{\relax }{figure.caption.29}{}}
\newlabel{sub@fig:model_collimator_ring@cref}{{[subfigure][2][24]24b}{[1][32][]33}}
\newlabel{fig:model_source_cap}{{24c}{33}{\relax }{figure.caption.29}{}}
\newlabel{fig:model_source_cap@cref}{{[subfigure][3][24]24c}{[1][32][]33}}
\newlabel{sub@fig:model_source_cap}{{c}{33}{\relax }{figure.caption.29}{}}
\newlabel{sub@fig:model_source_cap@cref}{{[subfigure][3][24]24c}{[1][32][]33}}
\newlabel{fig:model_source_pin}{{24d}{33}{\relax }{figure.caption.29}{}}
\newlabel{fig:model_source_pin@cref}{{[subfigure][4][24]24d}{[1][32][]33}}
\newlabel{sub@fig:model_source_pin}{{d}{33}{\relax }{figure.caption.29}{}}
\newlabel{sub@fig:model_source_pin@cref}{{[subfigure][4][24]24d}{[1][32][]33}}
\@writefile{lof}{\contentsline {figure}{\numberline {24}{\ignorespaces Computer renderings of collimator holder (a), collimator hold down ring (b), section view of source cap (c) and threaded pin (d). Not to scale.\relax }}{33}{figure.caption.29}\protected@file@percent }
\newlabel{fig:source_assembly}{{24}{33}{Computer renderings of collimator holder (a), collimator hold down ring (b), section view of source cap (c) and threaded pin (d). Not to scale.\relax }{figure.caption.29}{}}
\newlabel{fig:source_assembly@cref}{{[figure][24][]24}{[1][32][]33}}
\@setckpt{mechanics}{
\setcounter{page}{34}
\setcounter{equation}{2}
\setcounter{enumi}{0}
\setcounter{enumii}{0}
\setcounter{enumiii}{0}
\setcounter{enumiv}{0}
\setcounter{footnote}{0}
\setcounter{mpfootnote}{0}
\setcounter{part}{0}
\setcounter{section}{7}
\setcounter{subsection}{2}
\setcounter{subsubsection}{0}
\setcounter{paragraph}{0}
\setcounter{subparagraph}{0}
\setcounter{figure}{24}
\setcounter{table}{0}
\setcounter{parentequation}{0}
\setcounter{tabx@nest}{0}
\setcounter{listtotal}{0}
\setcounter{listcount}{0}
\setcounter{liststart}{0}
\setcounter{liststop}{0}
\setcounter{citecount}{0}
\setcounter{citetotal}{0}
\setcounter{multicitecount}{0}
\setcounter{multicitetotal}{0}
\setcounter{instcount}{7}
\setcounter{maxnames}{3}
\setcounter{minnames}{1}
\setcounter{maxitems}{3}
\setcounter{minitems}{1}
\setcounter{citecounter}{0}
\setcounter{maxcitecounter}{0}
\setcounter{savedcitecounter}{0}
\setcounter{uniquelist}{0}
\setcounter{uniquename}{0}
\setcounter{refsection}{0}
\setcounter{refsegment}{0}
\setcounter{maxextratitle}{0}
\setcounter{maxextratitleyear}{0}
\setcounter{maxextraname}{0}
\setcounter{maxextradate}{0}
\setcounter{maxextraalpha}{0}
\setcounter{abbrvpenalty}{50}
\setcounter{highnamepenalty}{50}
\setcounter{lownamepenalty}{25}
\setcounter{maxparens}{3}
\setcounter{parenlevel}{0}
\setcounter{blx@maxsection}{0}
\setcounter{mincomprange}{10}
\setcounter{maxcomprange}{100000}
\setcounter{mincompwidth}{1}
\setcounter{afterword}{0}
\setcounter{savedafterword}{0}
\setcounter{annotator}{0}
\setcounter{savedannotator}{0}
\setcounter{author}{0}
\setcounter{savedauthor}{0}
\setcounter{bookauthor}{0}
\setcounter{savedbookauthor}{0}
\setcounter{commentator}{0}
\setcounter{savedcommentator}{0}
\setcounter{editor}{0}
\setcounter{savededitor}{0}
\setcounter{editora}{0}
\setcounter{savededitora}{0}
\setcounter{editorb}{0}
\setcounter{savededitorb}{0}
\setcounter{editorc}{0}
\setcounter{savededitorc}{0}
\setcounter{foreword}{0}
\setcounter{savedforeword}{0}
\setcounter{holder}{0}
\setcounter{savedholder}{0}
\setcounter{introduction}{0}
\setcounter{savedintroduction}{0}
\setcounter{namea}{0}
\setcounter{savednamea}{0}
\setcounter{nameb}{0}
\setcounter{savednameb}{0}
\setcounter{namec}{0}
\setcounter{savednamec}{0}
\setcounter{translator}{0}
\setcounter{savedtranslator}{0}
\setcounter{shortauthor}{0}
\setcounter{savedshortauthor}{0}
\setcounter{shorteditor}{0}
\setcounter{savedshorteditor}{0}
\setcounter{labelname}{0}
\setcounter{savedlabelname}{0}
\setcounter{institution}{0}
\setcounter{savedinstitution}{0}
\setcounter{lista}{0}
\setcounter{savedlista}{0}
\setcounter{listb}{0}
\setcounter{savedlistb}{0}
\setcounter{listc}{0}
\setcounter{savedlistc}{0}
\setcounter{listd}{0}
\setcounter{savedlistd}{0}
\setcounter{liste}{0}
\setcounter{savedliste}{0}
\setcounter{listf}{0}
\setcounter{savedlistf}{0}
\setcounter{location}{0}
\setcounter{savedlocation}{0}
\setcounter{organization}{0}
\setcounter{savedorganization}{0}
\setcounter{origlocation}{0}
\setcounter{savedoriglocation}{0}
\setcounter{origpublisher}{0}
\setcounter{savedorigpublisher}{0}
\setcounter{publisher}{0}
\setcounter{savedpublisher}{0}
\setcounter{language}{0}
\setcounter{savedlanguage}{0}
\setcounter{origlanguage}{0}
\setcounter{savedoriglanguage}{0}
\setcounter{pageref}{0}
\setcounter{savedpageref}{0}
\setcounter{textcitecount}{0}
\setcounter{textcitetotal}{0}
\setcounter{textcitemaxnames}{0}
\setcounter{biburlbigbreakpenalty}{100}
\setcounter{biburlbreakpenalty}{200}
\setcounter{biburlnumpenalty}{0}
\setcounter{biburlucpenalty}{0}
\setcounter{biburllcpenalty}{0}
\setcounter{smartand}{1}
\setcounter{bbx:relatedcount}{0}
\setcounter{bbx:relatedtotal}{0}
\setcounter{section@level}{2}
\setcounter{Item}{0}
\setcounter{Hfootnote}{0}
\setcounter{bookmark@seq@number}{0}
\setcounter{AM@survey}{0}
\setcounter{float@type}{8}
\setcounter{lstnumber}{1}
\setcounter{caption@flags}{6}
\setcounter{continuedfloat}{0}
\setcounter{subfigure}{4}
\setcounter{subtable}{0}
\setcounter{lstlisting}{0}
}
