\relax 
\providecommand\hyper@newdestlabel[2]{}
\@writefile{toc}{\contentsline {section}{\numberline {4}Custom Printed Circuit Boards}{12}{section.4}\protected@file@percent }
\@writefile{toc}{\contentsline {subsection}{\numberline {4.1}Amplifier Board}{12}{subsection.4.1}\protected@file@percent }
\@writefile{lof}{\contentsline {figure}{\numberline {8}{\ignorespaces Sketch of the amplifier board\relax }}{12}{figure.caption.9}\protected@file@percent }
\newlabel{fig:timing_amp}{{8}{12}{Sketch of the amplifier board\relax }{figure.caption.9}{}}
\newlabel{fig:timing_amp@cref}{{[figure][8][]8}{[1][12][]12}}
\@writefile{lof}{\contentsline {figure}{\numberline {9}{\ignorespaces Circuit design of the amplifier board\relax }}{12}{figure.caption.10}\protected@file@percent }
\newlabel{fig:timing_amp_circuit}{{9}{12}{Circuit design of the amplifier board\relax }{figure.caption.10}{}}
\newlabel{fig:timing_amp_circuit@cref}{{[figure][9][]9}{[1][12][]12}}
\@writefile{toc}{\contentsline {subsection}{\numberline {4.2}Earlier Iterations of the Amplifier Board}{13}{subsection.4.2}\protected@file@percent }
\newlabel{fig:timing_amp_pcb}{{10a}{14}{\relax }{figure.caption.11}{}}
\newlabel{fig:timing_amp_pcb@cref}{{[subfigure][1][10]10a}{[1][13][]14}}
\newlabel{sub@fig:timing_amp_pcb}{{a}{14}{\relax }{figure.caption.11}{}}
\newlabel{sub@fig:timing_amp_pcb@cref}{{[subfigure][1][10]10a}{[1][13][]14}}
\newlabel{fig:timing_amp_backside}{{10b}{14}{\relax }{figure.caption.11}{}}
\newlabel{fig:timing_amp_backside@cref}{{[subfigure][2][10]10b}{[1][13][]14}}
\newlabel{sub@fig:timing_amp_backside}{{b}{14}{\relax }{figure.caption.11}{}}
\newlabel{sub@fig:timing_amp_backside@cref}{{[subfigure][2][10]10b}{[1][13][]14}}
\newlabel{fig:timing_amp_noplug}{{10c}{14}{\relax }{figure.caption.11}{}}
\newlabel{fig:timing_amp_noplug@cref}{{[subfigure][3][10]10c}{[1][13][]14}}
\newlabel{sub@fig:timing_amp_noplug}{{c}{14}{\relax }{figure.caption.11}{}}
\newlabel{sub@fig:timing_amp_noplug@cref}{{[subfigure][3][10]10c}{[1][13][]14}}
\newlabel{fig:timing_amp_plugs}{{10d}{14}{\relax }{figure.caption.11}{}}
\newlabel{fig:timing_amp_plugs@cref}{{[subfigure][4][10]10d}{[1][13][]14}}
\newlabel{sub@fig:timing_amp_plugs}{{d}{14}{\relax }{figure.caption.11}{}}
\newlabel{sub@fig:timing_amp_plugs@cref}{{[subfigure][4][10]10d}{[1][13][]14}}
\@writefile{lof}{\contentsline {figure}{\numberline {10}{\ignorespaces Design of Amplifier PCB (a), backside of amplifier PCB with SiPM temporarily placed (b), front side od amplifier PCB without plugs (c) and amplifier PCB with plugs and cables attached (d).\relax }}{14}{figure.caption.11}\protected@file@percent }
\newlabel{fig:timing amp}{{10}{14}{Design of Amplifier PCB (a), backside of amplifier PCB with SiPM temporarily placed (b), front side od amplifier PCB without plugs (c) and amplifier PCB with plugs and cables attached (d).\relax }{figure.caption.11}{}}
\newlabel{fig:timing amp@cref}{{[figure][10][]10}{[1][13][]14}}
\@writefile{toc}{\contentsline {subsection}{\numberline {4.3}Logic Board}{14}{subsection.4.3}\protected@file@percent }
\@writefile{lof}{\contentsline {figure}{\numberline {11}{\ignorespaces Sketch of the logic board. Analog single ended inputs shown in red and differential digital signals shown in pairs of the same color with different gray levels.\relax }}{15}{figure.caption.12}\protected@file@percent }
\newlabel{fig:timing_logic}{{11}{15}{Sketch of the logic board. Analog single ended inputs shown in red and differential digital signals shown in pairs of the same color with different gray levels.\relax }{figure.caption.12}{}}
\newlabel{fig:timing_logic@cref}{{[figure][11][]11}{[1][14][]15}}
\@writefile{toc}{\contentsline {subsection}{\numberline {4.4}First Production Run of Logic Boards}{15}{subsection.4.4}\protected@file@percent }
\@writefile{lof}{\contentsline {figure}{\numberline {12}{\ignorespaces PCB design of logic board\relax }}{16}{figure.caption.13}\protected@file@percent }
\newlabel{fig:timing_logic_pcb_design}{{12}{16}{PCB design of logic board\relax }{figure.caption.13}{}}
\newlabel{fig:timing_logic_pcb_design@cref}{{[figure][12][]12}{[1][15][]16}}
\@writefile{lof}{\contentsline {figure}{\numberline {13}{\ignorespaces Logic board with cables attached\relax }}{16}{figure.caption.14}\protected@file@percent }
\newlabel{fig:timing_logic_cables}{{13}{16}{Logic board with cables attached\relax }{figure.caption.14}{}}
\newlabel{fig:timing_logic_cables@cref}{{[figure][13][]13}{[1][15][]16}}
\@setckpt{pcbs}{
\setcounter{page}{17}
\setcounter{equation}{1}
\setcounter{enumi}{0}
\setcounter{enumii}{0}
\setcounter{enumiii}{0}
\setcounter{enumiv}{0}
\setcounter{footnote}{0}
\setcounter{mpfootnote}{0}
\setcounter{part}{0}
\setcounter{section}{4}
\setcounter{subsection}{4}
\setcounter{subsubsection}{0}
\setcounter{paragraph}{0}
\setcounter{subparagraph}{0}
\setcounter{figure}{13}
\setcounter{table}{0}
\setcounter{parentequation}{0}
\setcounter{tabx@nest}{0}
\setcounter{listtotal}{0}
\setcounter{listcount}{0}
\setcounter{liststart}{0}
\setcounter{liststop}{0}
\setcounter{citecount}{0}
\setcounter{citetotal}{0}
\setcounter{multicitecount}{0}
\setcounter{multicitetotal}{0}
\setcounter{instcount}{6}
\setcounter{maxnames}{3}
\setcounter{minnames}{1}
\setcounter{maxitems}{3}
\setcounter{minitems}{1}
\setcounter{citecounter}{0}
\setcounter{maxcitecounter}{0}
\setcounter{savedcitecounter}{0}
\setcounter{uniquelist}{0}
\setcounter{uniquename}{0}
\setcounter{refsection}{0}
\setcounter{refsegment}{0}
\setcounter{maxextratitle}{0}
\setcounter{maxextratitleyear}{0}
\setcounter{maxextraname}{0}
\setcounter{maxextradate}{0}
\setcounter{maxextraalpha}{0}
\setcounter{abbrvpenalty}{50}
\setcounter{highnamepenalty}{50}
\setcounter{lownamepenalty}{25}
\setcounter{maxparens}{3}
\setcounter{parenlevel}{0}
\setcounter{blx@maxsection}{0}
\setcounter{mincomprange}{10}
\setcounter{maxcomprange}{100000}
\setcounter{mincompwidth}{1}
\setcounter{afterword}{0}
\setcounter{savedafterword}{0}
\setcounter{annotator}{0}
\setcounter{savedannotator}{0}
\setcounter{author}{0}
\setcounter{savedauthor}{0}
\setcounter{bookauthor}{0}
\setcounter{savedbookauthor}{0}
\setcounter{commentator}{0}
\setcounter{savedcommentator}{0}
\setcounter{editor}{0}
\setcounter{savededitor}{0}
\setcounter{editora}{0}
\setcounter{savededitora}{0}
\setcounter{editorb}{0}
\setcounter{savededitorb}{0}
\setcounter{editorc}{0}
\setcounter{savededitorc}{0}
\setcounter{foreword}{0}
\setcounter{savedforeword}{0}
\setcounter{holder}{0}
\setcounter{savedholder}{0}
\setcounter{introduction}{0}
\setcounter{savedintroduction}{0}
\setcounter{namea}{0}
\setcounter{savednamea}{0}
\setcounter{nameb}{0}
\setcounter{savednameb}{0}
\setcounter{namec}{0}
\setcounter{savednamec}{0}
\setcounter{translator}{0}
\setcounter{savedtranslator}{0}
\setcounter{shortauthor}{0}
\setcounter{savedshortauthor}{0}
\setcounter{shorteditor}{0}
\setcounter{savedshorteditor}{0}
\setcounter{labelname}{0}
\setcounter{savedlabelname}{0}
\setcounter{institution}{0}
\setcounter{savedinstitution}{0}
\setcounter{lista}{0}
\setcounter{savedlista}{0}
\setcounter{listb}{0}
\setcounter{savedlistb}{0}
\setcounter{listc}{0}
\setcounter{savedlistc}{0}
\setcounter{listd}{0}
\setcounter{savedlistd}{0}
\setcounter{liste}{0}
\setcounter{savedliste}{0}
\setcounter{listf}{0}
\setcounter{savedlistf}{0}
\setcounter{location}{0}
\setcounter{savedlocation}{0}
\setcounter{organization}{0}
\setcounter{savedorganization}{0}
\setcounter{origlocation}{0}
\setcounter{savedoriglocation}{0}
\setcounter{origpublisher}{0}
\setcounter{savedorigpublisher}{0}
\setcounter{publisher}{0}
\setcounter{savedpublisher}{0}
\setcounter{language}{0}
\setcounter{savedlanguage}{0}
\setcounter{origlanguage}{0}
\setcounter{savedoriglanguage}{0}
\setcounter{pageref}{0}
\setcounter{savedpageref}{0}
\setcounter{textcitecount}{0}
\setcounter{textcitetotal}{0}
\setcounter{textcitemaxnames}{0}
\setcounter{biburlbigbreakpenalty}{100}
\setcounter{biburlbreakpenalty}{200}
\setcounter{biburlnumpenalty}{0}
\setcounter{biburlucpenalty}{0}
\setcounter{biburllcpenalty}{0}
\setcounter{smartand}{1}
\setcounter{bbx:relatedcount}{0}
\setcounter{bbx:relatedtotal}{0}
\setcounter{section@level}{2}
\setcounter{Item}{0}
\setcounter{Hfootnote}{0}
\setcounter{bookmark@seq@number}{0}
\setcounter{AM@survey}{0}
\setcounter{float@type}{8}
\setcounter{lstnumber}{1}
\setcounter{caption@flags}{2}
\setcounter{continuedfloat}{0}
\setcounter{subfigure}{0}
\setcounter{subtable}{0}
\setcounter{lstlisting}{0}
}
