\relax 
\providecommand\hyper@newdestlabel[2]{}
\@writefile{toc}{\contentsline {section}{\numberline {9}Analysis of Setup Performance}{35}{section.9}\protected@file@percent }
\@writefile{lof}{\contentsline {figure}{\numberline {25}{\ignorespaces Sketch of setup used to measure the timing resolution of the timing layer\relax }}{35}{figure.caption.30}\protected@file@percent }
\newlabel{fig:timing_resolution_measurement_sketch}{{25}{35}{Sketch of setup used to measure the timing resolution of the timing layer\relax }{figure.caption.30}{}}
\newlabel{fig:timing_resolution_measurement_sketch@cref}{{[figure][25][]25}{[1][35][]35}}
\@writefile{toc}{\contentsline {subsection}{\numberline {9.1}Script for Data Tacking}{35}{subsection.9.1}\protected@file@percent }
\newlabel{sec:script}{{9.1}{35}{Script for Data Tacking}{subsection.9.1}{}}
\newlabel{sec:script@cref}{{[subsection][1][9]9.1}{[1][35][]35}}
\@writefile{toc}{\contentsline {subsection}{\numberline {9.2}Performance of Only the Logic Board}{36}{subsection.9.2}\protected@file@percent }
\@writefile{lof}{\contentsline {figure}{\numberline {26}{\ignorespaces Sketch of setup used to measure the timing performance of the logic board\relax }}{36}{figure.caption.31}\protected@file@percent }
\newlabel{fig:timing_resolution_only_logic_sketch}{{26}{36}{Sketch of setup used to measure the timing performance of the logic board\relax }{figure.caption.31}{}}
\newlabel{fig:timing_resolution_only_logic_sketch@cref}{{[figure][26][]26}{[1][36][]36}}
\@writefile{lof}{\contentsline {figure}{\numberline {27}{\ignorespaces Measurement of the timing performance of the logic board\relax }}{37}{figure.caption.32}\protected@file@percent }
\newlabel{fig:timing_resolution_only_logic}{{27}{37}{Measurement of the timing performance of the logic board\relax }{figure.caption.32}{}}
\newlabel{fig:timing_resolution_only_logic@cref}{{[figure][27][]27}{[1][36][]37}}
\@writefile{toc}{\contentsline {subsection}{\numberline {9.3}Data Analysis}{38}{subsection.9.3}\protected@file@percent }
\newlabel{sec:data_analysis}{{9.3}{38}{Data Analysis}{subsection.9.3}{}}
\newlabel{sec:data_analysis@cref}{{[subsection][3][9]9.3}{[1][38][]38}}
\@writefile{lof}{\contentsline {figure}{\numberline {28}{\ignorespaces Single Gaussian fitted to a measurement\relax }}{39}{figure.caption.33}\protected@file@percent }
\newlabel{fig:fit_single_gauss}{{28}{39}{Single Gaussian fitted to a measurement\relax }{figure.caption.33}{}}
\newlabel{fig:fit_single_gauss@cref}{{[figure][28][]28}{[1][38][]39}}
\@writefile{lof}{\contentsline {figure}{\numberline {29}{\ignorespaces Histogram of time difference versus time over threshold in top layer (top) and bottom layer (bottom) \relax }}{41}{figure.caption.34}\protected@file@percent }
\newlabel{fig:2d_histo}{{29}{41}{Histogram of time difference versus time over threshold in top layer (top) and bottom layer (bottom) \relax }{figure.caption.34}{}}
\newlabel{fig:2d_histo@cref}{{[figure][29][]29}{[1][40][]41}}
\@writefile{lof}{\contentsline {figure}{\numberline {30}{\ignorespaces Histogram of ToT in top layer (top) and bottom layer (bottom), layer B is the default top layer and layer A is the default bottom layer\relax }}{42}{figure.caption.35}\protected@file@percent }
\newlabel{fig:2d_histo_swapped}{{30}{42}{Histogram of ToT in top layer (top) and bottom layer (bottom), layer B is the default top layer and layer A is the default bottom layer\relax }{figure.caption.35}{}}
\newlabel{fig:2d_histo_swapped@cref}{{[figure][30][]30}{[1][40][]42}}
\@writefile{lof}{\contentsline {figure}{\numberline {31}{\ignorespaces Sum of two Gaussians fitted to a measurement\relax }}{43}{figure.caption.36}\protected@file@percent }
\newlabel{fig:fit_double_gauss}{{31}{43}{Sum of two Gaussians fitted to a measurement\relax }{figure.caption.36}{}}
\newlabel{fig:fit_double_gauss@cref}{{[figure][31][]31}{[1][40][]43}}
\newlabel{eq:gaussexp}{{3}{44}{Data Analysis}{equation.9.3}{}}
\newlabel{eq:gaussexp@cref}{{[equation][3][]3}{[1][44][]44}}
\@writefile{lof}{\contentsline {figure}{\numberline {32}{\ignorespaces GaussExp fitted to a measurement\relax }}{44}{figure.caption.37}\protected@file@percent }
\newlabel{fig:fit_gaussexp}{{32}{44}{GaussExp fitted to a measurement\relax }{figure.caption.37}{}}
\newlabel{fig:fit_gaussexp@cref}{{[figure][32][]32}{[1][44][]44}}
\@writefile{toc}{\contentsline {subsection}{\numberline {9.4}Optimizing Parameters}{45}{subsection.9.4}\protected@file@percent }
\@writefile{toc}{\contentsline {subsection}{\numberline {9.5}Additional Measurements}{45}{subsection.9.5}\protected@file@percent }
\@writefile{toc}{\contentsline {subsection}{\numberline {9.6}Time Walk Correction}{45}{subsection.9.6}\protected@file@percent }
\@writefile{lof}{\contentsline {figure}{\numberline {33}{\ignorespaces Timing resolution of a single layer, measured with a threshold of \SI {140}{mV} on the logic board, a SiPM bias of \SI {57.2}{V} and amplifier supply voltage of \SI {5}{V}. Systematic uncertainties are shown in blue closest to the data points and statistical errors are shown in red added to the systematic uncertainties.\relax }}{46}{figure.caption.38}\protected@file@percent }
\newlabel{fig:multiplot_counts}{{33}{46}{Timing resolution of a single layer, measured with a threshold of \SI {140}{mV} on the logic board, a SiPM bias of \SI {57.2}{V} and amplifier supply voltage of \SI {5}{V}. Systematic uncertainties are shown in blue closest to the data points and statistical errors are shown in red added to the systematic uncertainties.\relax }{figure.caption.38}{}}
\newlabel{fig:multiplot_counts@cref}{{[figure][33][]33}{[1][45][]46}}
\@setckpt{performance}{
\setcounter{page}{47}
\setcounter{equation}{3}
\setcounter{enumi}{0}
\setcounter{enumii}{0}
\setcounter{enumiii}{0}
\setcounter{enumiv}{0}
\setcounter{footnote}{0}
\setcounter{mpfootnote}{0}
\setcounter{part}{0}
\setcounter{section}{9}
\setcounter{subsection}{6}
\setcounter{subsubsection}{0}
\setcounter{paragraph}{0}
\setcounter{subparagraph}{0}
\setcounter{figure}{33}
\setcounter{table}{0}
\setcounter{parentequation}{0}
\setcounter{tabx@nest}{0}
\setcounter{listtotal}{0}
\setcounter{listcount}{0}
\setcounter{liststart}{0}
\setcounter{liststop}{0}
\setcounter{citecount}{0}
\setcounter{citetotal}{0}
\setcounter{multicitecount}{0}
\setcounter{multicitetotal}{0}
\setcounter{instcount}{10}
\setcounter{maxnames}{3}
\setcounter{minnames}{1}
\setcounter{maxitems}{3}
\setcounter{minitems}{1}
\setcounter{citecounter}{0}
\setcounter{maxcitecounter}{0}
\setcounter{savedcitecounter}{0}
\setcounter{uniquelist}{0}
\setcounter{uniquename}{0}
\setcounter{refsection}{0}
\setcounter{refsegment}{0}
\setcounter{maxextratitle}{0}
\setcounter{maxextratitleyear}{0}
\setcounter{maxextraname}{0}
\setcounter{maxextradate}{0}
\setcounter{maxextraalpha}{0}
\setcounter{abbrvpenalty}{50}
\setcounter{highnamepenalty}{50}
\setcounter{lownamepenalty}{25}
\setcounter{maxparens}{3}
\setcounter{parenlevel}{0}
\setcounter{blx@maxsection}{0}
\setcounter{mincomprange}{10}
\setcounter{maxcomprange}{100000}
\setcounter{mincompwidth}{1}
\setcounter{afterword}{0}
\setcounter{savedafterword}{0}
\setcounter{annotator}{0}
\setcounter{savedannotator}{0}
\setcounter{author}{0}
\setcounter{savedauthor}{0}
\setcounter{bookauthor}{0}
\setcounter{savedbookauthor}{0}
\setcounter{commentator}{0}
\setcounter{savedcommentator}{0}
\setcounter{editor}{0}
\setcounter{savededitor}{0}
\setcounter{editora}{0}
\setcounter{savededitora}{0}
\setcounter{editorb}{0}
\setcounter{savededitorb}{0}
\setcounter{editorc}{0}
\setcounter{savededitorc}{0}
\setcounter{foreword}{0}
\setcounter{savedforeword}{0}
\setcounter{holder}{0}
\setcounter{savedholder}{0}
\setcounter{introduction}{0}
\setcounter{savedintroduction}{0}
\setcounter{namea}{0}
\setcounter{savednamea}{0}
\setcounter{nameb}{0}
\setcounter{savednameb}{0}
\setcounter{namec}{0}
\setcounter{savednamec}{0}
\setcounter{translator}{0}
\setcounter{savedtranslator}{0}
\setcounter{shortauthor}{0}
\setcounter{savedshortauthor}{0}
\setcounter{shorteditor}{0}
\setcounter{savedshorteditor}{0}
\setcounter{labelname}{0}
\setcounter{savedlabelname}{0}
\setcounter{institution}{0}
\setcounter{savedinstitution}{0}
\setcounter{lista}{0}
\setcounter{savedlista}{0}
\setcounter{listb}{0}
\setcounter{savedlistb}{0}
\setcounter{listc}{0}
\setcounter{savedlistc}{0}
\setcounter{listd}{0}
\setcounter{savedlistd}{0}
\setcounter{liste}{0}
\setcounter{savedliste}{0}
\setcounter{listf}{0}
\setcounter{savedlistf}{0}
\setcounter{location}{0}
\setcounter{savedlocation}{0}
\setcounter{organization}{0}
\setcounter{savedorganization}{0}
\setcounter{origlocation}{0}
\setcounter{savedoriglocation}{0}
\setcounter{origpublisher}{0}
\setcounter{savedorigpublisher}{0}
\setcounter{publisher}{0}
\setcounter{savedpublisher}{0}
\setcounter{language}{0}
\setcounter{savedlanguage}{0}
\setcounter{origlanguage}{0}
\setcounter{savedoriglanguage}{0}
\setcounter{pageref}{0}
\setcounter{savedpageref}{0}
\setcounter{textcitecount}{0}
\setcounter{textcitetotal}{0}
\setcounter{textcitemaxnames}{0}
\setcounter{biburlbigbreakpenalty}{100}
\setcounter{biburlbreakpenalty}{200}
\setcounter{biburlnumpenalty}{0}
\setcounter{biburlucpenalty}{0}
\setcounter{biburllcpenalty}{0}
\setcounter{smartand}{1}
\setcounter{bbx:relatedcount}{0}
\setcounter{bbx:relatedtotal}{0}
\setcounter{section@level}{2}
\setcounter{Item}{0}
\setcounter{Hfootnote}{0}
\setcounter{bookmark@seq@number}{0}
\setcounter{AM@survey}{0}
\setcounter{float@type}{8}
\setcounter{lstnumber}{1}
\setcounter{caption@flags}{2}
\setcounter{continuedfloat}{0}
\setcounter{subfigure}{0}
\setcounter{subtable}{0}
\setcounter{lstlisting}{0}
}
