\relax 
\providecommand\hyper@newdestlabel[2]{}
\@writefile{toc}{\contentsline {section}{\numberline {5}Deciding on a Configuration of SiPM and Scintillator}{17}{section.5}\protected@file@percent }
\@writefile{toc}{\contentsline {subsection}{\numberline {5.1}Scintillator}{17}{subsection.5.1}\protected@file@percent }
\@writefile{toc}{\contentsline {subsection}{\numberline {5.2}Available SiPMs}{17}{subsection.5.2}\protected@file@percent }
\@writefile{toc}{\contentsline {subsection}{\numberline {5.3}How the Raytracing Algorithm Works}{17}{subsection.5.3}\protected@file@percent }
\newlabel{eq:tir}{{2}{18}{How the Raytracing Algorithm Works}{equation.5.2}{}}
\newlabel{eq:tir@cref}{{[equation][2][]2}{[1][18][]18}}
\@writefile{lof}{\contentsline {figure}{\numberline {14}{\ignorespaces Simulation example showing the propagation and detection of a single ray. The photon (red) is randomly initialized inside the allowed starting area (translucent green). The borders of the scintillator with dimensions \qtyproduct {1.5 x 35}{mm} is shown in black. The areas covered by two possible SiPM options (\qtyproduct {1.3 x 1.3}{mm} on the side, \qtyproduct {3 x 3}{mm} on top) are shown in blue. In this example the SiPM on the side is hit after 9 bounces under an angle that would not facilitate any further reflections. It should be noted that the X- and Y-axis are scaled differently for clarity.\relax }}{18}{figure.caption.15}\protected@file@percent }
\newlabel{fig:simulation_example}{{14}{18}{Simulation example showing the propagation and detection of a single ray. The photon (red) is randomly initialized inside the allowed starting area (translucent green). The borders of the scintillator with dimensions \qtyproduct {1.5 x 35}{mm} is shown in black. The areas covered by two possible SiPM options (\qtyproduct {1.3 x 1.3}{mm} on the side, \qtyproduct {3 x 3}{mm} on top) are shown in blue. In this example the SiPM on the side is hit after 9 bounces under an angle that would not facilitate any further reflections. It should be noted that the X- and Y-axis are scaled differently for clarity.\relax }{figure.caption.15}{}}
\newlabel{fig:simulation_example@cref}{{[figure][14][]14}{[1][18][]18}}
\@writefile{toc}{\contentsline {subsection}{\numberline {5.4}Testing the Influence of Different Parameters on Collection Efficiency}{18}{subsection.5.4}\protected@file@percent }
\@writefile{lof}{\contentsline {figure}{\numberline {15}{\ignorespaces Results of 9 Simulation runs using the same parameters. Each run simulates \si {10^6} produced photons. The left plot in blue shows the number of photons reaching the SiPM mounted on top of the scintillator, while the right plot in red shows the number of photons reaching the SiPM mounted on the edge of the scintillator. Both SiPMs have an active area of \qtyproduct {1.3 x 1.3}{mm}. The scintillatior is \SI {1}{mm} thick and \SI {35}{mm} long. The mean value for each distribution is shown. The error bars are determined as the square root of photons detected, which correspond to one $\sigma $.\relax }}{20}{figure.caption.20}\protected@file@percent }
\newlabel{fig:simulation_consistency}{{15}{20}{Results of 9 Simulation runs using the same parameters. Each run simulates \si {10^6} produced photons. The left plot in blue shows the number of photons reaching the SiPM mounted on top of the scintillator, while the right plot in red shows the number of photons reaching the SiPM mounted on the edge of the scintillator. Both SiPMs have an active area of \qtyproduct {1.3 x 1.3}{mm}. The scintillatior is \SI {1}{mm} thick and \SI {35}{mm} long. The mean value for each distribution is shown. The error bars are determined as the square root of photons detected, which correspond to one $\sigma $.\relax }{figure.caption.20}{}}
\newlabel{fig:simulation_consistency@cref}{{[figure][15][]15}{[1][20][]20}}
\@writefile{toc}{\contentsline {subsection}{\numberline {5.5}Choice of SiPM and Scintillator}{20}{subsection.5.5}\protected@file@percent }
\@writefile{lof}{\contentsline {figure}{\numberline {16}{\ignorespaces Results of different lengths of scintillator. Each run simulates \si {10^6} produced photons. The left plot in blue shows the number of photons reaching the SiPM mounted on top of the scintillator, while the right plot in red shows the number of photons reaching the SiPM mounted on the edge of the scintillator. Both SiPMs have an active area of \qtyproduct {1.3 x 1.3}{mm}. The scintillator is \SI {1.5}{mm} thick. The mean value for each distribution is shown. The error bars are determined as the square root of photons detected, which correspond to one $\sigma $.\relax }}{21}{figure.caption.21}\protected@file@percent }
\newlabel{fig:simulation_length}{{16}{21}{Results of different lengths of scintillator. Each run simulates \si {10^6} produced photons. The left plot in blue shows the number of photons reaching the SiPM mounted on top of the scintillator, while the right plot in red shows the number of photons reaching the SiPM mounted on the edge of the scintillator. Both SiPMs have an active area of \qtyproduct {1.3 x 1.3}{mm}. The scintillator is \SI {1.5}{mm} thick. The mean value for each distribution is shown. The error bars are determined as the square root of photons detected, which correspond to one $\sigma $.\relax }{figure.caption.21}{}}
\newlabel{fig:simulation_length@cref}{{[figure][16][]16}{[1][20][]21}}
\@writefile{lof}{\contentsline {figure}{\numberline {17}{\ignorespaces Results of different thicknesses of scintillator. Each run simulates \si {10^6} produced photons. The left plot in blue shows the number of photons reaching the SiPM mounted on top of the scintillator, while the right plot in red shows the number of photons reaching the SiPM mounted on the edge of the scintillator. Both SiPMs have an active area of \qtyproduct {1.3 x 1.3}{mm}. The scintillator is \SI {1.5}{mm} thick and \SI {35}{mm} long. The error bars are determined as the square root of photons detected, which correspond to one $\sigma $.\relax }}{21}{figure.caption.22}\protected@file@percent }
\newlabel{fig:simulation_thickness}{{17}{21}{Results of different thicknesses of scintillator. Each run simulates \si {10^6} produced photons. The left plot in blue shows the number of photons reaching the SiPM mounted on top of the scintillator, while the right plot in red shows the number of photons reaching the SiPM mounted on the edge of the scintillator. Both SiPMs have an active area of \qtyproduct {1.3 x 1.3}{mm}. The scintillator is \SI {1.5}{mm} thick and \SI {35}{mm} long. The error bars are determined as the square root of photons detected, which correspond to one $\sigma $.\relax }{figure.caption.22}{}}
\newlabel{fig:simulation_thickness@cref}{{[figure][17][]17}{[1][20][]21}}
\@writefile{lof}{\contentsline {figure}{\numberline {18}{\ignorespaces Results of different sizes of SiPM. Each run simulates \si {10^6} produced photons. The plot in shows the number of photons reaching the SiPM mounted on top of the scintillator. The scintillator is \SI {35}{mm} long. The error bars are determined as the square root of photons detected, which correspond to one $\sigma $.\relax }}{22}{figure.caption.23}\protected@file@percent }
\newlabel{fig:simulation_sipm_size}{{18}{22}{Results of different sizes of SiPM. Each run simulates \si {10^6} produced photons. The plot in shows the number of photons reaching the SiPM mounted on top of the scintillator. The scintillator is \SI {35}{mm} long. The error bars are determined as the square root of photons detected, which correspond to one $\sigma $.\relax }{figure.caption.23}{}}
\newlabel{fig:simulation_sipm_size@cref}{{[figure][18][]18}{[1][20][]22}}
\@writefile{lof}{\contentsline {figure}{\numberline {19}{\ignorespaces Results of different sizes of SiPM corrected for their widths. Each run simulates \si {10^6} produced photons. The plot in shows the number of photons reaching the SiPM mounted on top of the scintillator. The scintillator is \SI {35}{mm} long. The error bars are determined as the square root of photons detected, which correspond to one $\sigma $.\relax }}{23}{figure.caption.24}\protected@file@percent }
\newlabel{fig:simulation_sipm_size_corr}{{19}{23}{Results of different sizes of SiPM corrected for their widths. Each run simulates \si {10^6} produced photons. The plot in shows the number of photons reaching the SiPM mounted on top of the scintillator. The scintillator is \SI {35}{mm} long. The error bars are determined as the square root of photons detected, which correspond to one $\sigma $.\relax }{figure.caption.24}{}}
\newlabel{fig:simulation_sipm_size_corr@cref}{{[figure][19][]19}{[1][20][]23}}
\@setckpt{simulation}{
\setcounter{page}{25}
\setcounter{equation}{2}
\setcounter{enumi}{0}
\setcounter{enumii}{0}
\setcounter{enumiii}{0}
\setcounter{enumiv}{0}
\setcounter{footnote}{0}
\setcounter{mpfootnote}{0}
\setcounter{part}{0}
\setcounter{section}{5}
\setcounter{subsection}{5}
\setcounter{subsubsection}{0}
\setcounter{paragraph}{0}
\setcounter{subparagraph}{0}
\setcounter{figure}{19}
\setcounter{table}{0}
\setcounter{parentequation}{0}
\setcounter{tabx@nest}{0}
\setcounter{listtotal}{0}
\setcounter{listcount}{0}
\setcounter{liststart}{0}
\setcounter{liststop}{0}
\setcounter{citecount}{0}
\setcounter{citetotal}{0}
\setcounter{multicitecount}{0}
\setcounter{multicitetotal}{0}
\setcounter{instcount}{6}
\setcounter{maxnames}{3}
\setcounter{minnames}{1}
\setcounter{maxitems}{3}
\setcounter{minitems}{1}
\setcounter{citecounter}{0}
\setcounter{maxcitecounter}{0}
\setcounter{savedcitecounter}{0}
\setcounter{uniquelist}{0}
\setcounter{uniquename}{0}
\setcounter{refsection}{0}
\setcounter{refsegment}{0}
\setcounter{maxextratitle}{0}
\setcounter{maxextratitleyear}{0}
\setcounter{maxextraname}{0}
\setcounter{maxextradate}{0}
\setcounter{maxextraalpha}{0}
\setcounter{abbrvpenalty}{50}
\setcounter{highnamepenalty}{50}
\setcounter{lownamepenalty}{25}
\setcounter{maxparens}{3}
\setcounter{parenlevel}{0}
\setcounter{blx@maxsection}{0}
\setcounter{mincomprange}{10}
\setcounter{maxcomprange}{100000}
\setcounter{mincompwidth}{1}
\setcounter{afterword}{0}
\setcounter{savedafterword}{0}
\setcounter{annotator}{0}
\setcounter{savedannotator}{0}
\setcounter{author}{0}
\setcounter{savedauthor}{0}
\setcounter{bookauthor}{0}
\setcounter{savedbookauthor}{0}
\setcounter{commentator}{0}
\setcounter{savedcommentator}{0}
\setcounter{editor}{0}
\setcounter{savededitor}{0}
\setcounter{editora}{0}
\setcounter{savededitora}{0}
\setcounter{editorb}{0}
\setcounter{savededitorb}{0}
\setcounter{editorc}{0}
\setcounter{savededitorc}{0}
\setcounter{foreword}{0}
\setcounter{savedforeword}{0}
\setcounter{holder}{0}
\setcounter{savedholder}{0}
\setcounter{introduction}{0}
\setcounter{savedintroduction}{0}
\setcounter{namea}{0}
\setcounter{savednamea}{0}
\setcounter{nameb}{0}
\setcounter{savednameb}{0}
\setcounter{namec}{0}
\setcounter{savednamec}{0}
\setcounter{translator}{0}
\setcounter{savedtranslator}{0}
\setcounter{shortauthor}{0}
\setcounter{savedshortauthor}{0}
\setcounter{shorteditor}{0}
\setcounter{savedshorteditor}{0}
\setcounter{labelname}{0}
\setcounter{savedlabelname}{0}
\setcounter{institution}{0}
\setcounter{savedinstitution}{0}
\setcounter{lista}{0}
\setcounter{savedlista}{0}
\setcounter{listb}{0}
\setcounter{savedlistb}{0}
\setcounter{listc}{0}
\setcounter{savedlistc}{0}
\setcounter{listd}{0}
\setcounter{savedlistd}{0}
\setcounter{liste}{0}
\setcounter{savedliste}{0}
\setcounter{listf}{0}
\setcounter{savedlistf}{0}
\setcounter{location}{0}
\setcounter{savedlocation}{0}
\setcounter{organization}{0}
\setcounter{savedorganization}{0}
\setcounter{origlocation}{0}
\setcounter{savedoriglocation}{0}
\setcounter{origpublisher}{0}
\setcounter{savedorigpublisher}{0}
\setcounter{publisher}{0}
\setcounter{savedpublisher}{0}
\setcounter{language}{0}
\setcounter{savedlanguage}{0}
\setcounter{origlanguage}{0}
\setcounter{savedoriglanguage}{0}
\setcounter{pageref}{0}
\setcounter{savedpageref}{0}
\setcounter{textcitecount}{0}
\setcounter{textcitetotal}{0}
\setcounter{textcitemaxnames}{0}
\setcounter{biburlbigbreakpenalty}{100}
\setcounter{biburlbreakpenalty}{200}
\setcounter{biburlnumpenalty}{0}
\setcounter{biburlucpenalty}{0}
\setcounter{biburllcpenalty}{0}
\setcounter{smartand}{1}
\setcounter{bbx:relatedcount}{0}
\setcounter{bbx:relatedtotal}{0}
\setcounter{section@level}{2}
\setcounter{Item}{0}
\setcounter{Hfootnote}{0}
\setcounter{bookmark@seq@number}{0}
\setcounter{AM@survey}{0}
\setcounter{float@type}{8}
\setcounter{lstnumber}{1}
\setcounter{caption@flags}{2}
\setcounter{continuedfloat}{0}
\setcounter{subfigure}{0}
\setcounter{subtable}{0}
\setcounter{lstlisting}{0}
}
