\babel@toc {american}{}\relax 
\contentsline {section}{\numberline {1}What is the timing Layer?}{1}{section.1}%
\contentsline {section}{\numberline {2}Building a Timing Setup}{1}{section.2}%
\contentsline {section}{\numberline {3}Operating the Timing Setup}{1}{section.3}%
\providecommand \tocbasic@end@toc@file {}\tocbasic@end@toc@file 
