\relax 
\providecommand\hyper@newdestlabel[2]{}
\providecommand*\new@tpo@label[2]{}
\providecommand\babel@aux[2]{}
\@nameuse{bbl@beforestart}
\abx@aux@refcontext{nty/global//global/global}
\providecommand\HyperFirstAtBeginDocument{\AtBeginDocument}
\HyperFirstAtBeginDocument{\ifx\hyper@anchor\@undefined
\global\let\oldnewlabel\newlabel
\gdef\newlabel#1#2{\newlabelxx{#1}#2}
\gdef\newlabelxx#1#2#3#4#5#6{\oldnewlabel{#1}{{#2}{#3}}}
\AtEndDocument{\ifx\hyper@anchor\@undefined
\let\newlabel\oldnewlabel
\fi}
\fi}
\global\let\hyper@last\relax 
\gdef\HyperFirstAtBeginDocument#1{#1}
\providecommand\HyField@AuxAddToFields[1]{}
\providecommand\HyField@AuxAddToCoFields[2]{}
\providecommand\BKM@entry[2]{}
\babel@aux{american}{}
\BKM@entry{id=1,dest={73656374696F6E2E31},srcline={21}}{5C3337365C3337375C303030575C303030685C303030615C303030745C3030305C3034305C303030695C303030735C3030305C3034305C303030745C303030685C303030655C3030305C3034305C303030745C303030695C3030306D5C303030695C3030306E5C303030675C3030305C3034305C3030304C5C303030615C303030795C303030655C303030725C3030303F}
\BKM@entry{id=2,dest={73656374696F6E2E32},srcline={23}}{5C3337365C3337375C303030425C303030755C303030695C3030306C5C303030645C303030695C3030306E5C303030675C3030305C3034305C303030615C3030305C3034305C303030545C303030695C3030306D5C303030695C3030306E5C303030675C3030305C3034305C303030535C303030655C303030745C303030755C30303070}
\BKM@entry{id=3,dest={73656374696F6E2E33},srcline={25}}{5C3337365C3337375C3030304F5C303030705C303030655C303030725C303030615C303030745C303030695C3030306E5C303030675C3030305C3034305C303030745C303030685C303030655C3030305C3034305C303030545C303030695C3030306D5C303030695C3030306E5C303030675C3030305C3034305C303030535C303030655C303030745C303030755C30303070}
\@writefile{toc}{\contentsline {section}{\numberline {1}What is the timing Layer?}{1}{section.1}\protected@file@percent }
\@writefile{toc}{\contentsline {section}{\numberline {2}Building a Timing Setup}{1}{section.2}\protected@file@percent }
\@writefile{toc}{\contentsline {section}{\numberline {3}Operating the Timing Setup}{1}{section.3}\protected@file@percent }
\abx@aux@read@bbl@mdfivesum{nobblfile}
\global\@namedef{scr@dte@section@lastmaxnumwidth}{9.94466pt}
\@writefile{toc}{\providecommand\tocbasic@end@toc@file{}\tocbasic@end@toc@file}
\gdef \@abspage@last{2}
