Source:,/home/lhcb/TimingSetup/pcbs/sipm_amp/ufl/timing_sipm_amp_ufl.kicad_sch,,,,,
Date:,Fr 24 Feb 2023 14:28:59 CET,,,,,
Tool:,Eeschema 6.0.10-86aedd382b~118~ubuntu22.04.1,,,,,
Generator:,/usr/share/kicad/plugins/bom_csv_grouped_by_value_with_fp.py,,,,,
Component Count:,20,,,,,
Ref,Qnty,Value,Cmp name,Footprint,Description,Vendor
"C1, C2, C3, ",3,10nF,C,Capacitor_SMD:C_0402_1005Metric,Unpolarized capacitor,
"C4, ",1,2.2uF,C,Capacitor_SMD:C_0402_1005Metric,Unpolarized capacitor,
"C5, ",1,1.5uF,C,Capacitor_SMD:C_0402_1005Metric,Unpolarized capacitor,
"D1, ",1,SiPM,DIODE,Connector_PinHeader_2.54mm:PinHeader_1x02_P2.54mm_Vertical,Diode symbol for simulation only. Pin order incompatible with official kicad footprints,
"H1, H2, ",2,MountingHole,MountingHole,MountingHole:MountingHole_3.2mm_M3_DIN965_Pad,Mounting Hole without connection,
"J1, ",1,HV,Conn_Coaxial_Power,sipm_amp_footprints:MOLEX_sma_smd_73251-1350,"coaxial connector (BNC, SMA, SMB, SMC, Cinch/RCA, LEMO, ...)",
"J2, ",1,Amp,Conn_Coaxial_Power,Connector_Coaxial:U.FL_Hirose_U.FL-R-SMT-1_Vertical,"coaxial connector (BNC, SMA, SMB, SMC, Cinch/RCA, LEMO, ...)",
"J3, ",1,Signal,Conn_Coaxial_Power,Connector_Coaxial:U.FL_Hirose_U.FL-R-SMT-1_Vertical,"coaxial connector (BNC, SMA, SMB, SMC, Cinch/RCA, LEMO, ...)",
"Q1, ",1,BFR92,Q_NPN_BCE,Package_TO_SOT_SMD:SOT-23,"NPN transistor, base/collector/emitter",
"Q2, ",1,PNP,Q_NPN_BCE,Package_TO_SOT_SMD:SOT-23,"NPN transistor, base/collector/emitter",
"R1, ",1,100k,R,Resistor_SMD:R_0805_2012Metric,Resistor,
"R2, ",1,10k,R,Resistor_SMD:R_0805_2012Metric,Resistor,
"R3, ",1,2k,R,Resistor_SMD:R_0402_1005Metric,Resistor,
"R4, ",1,5.6k,R,Resistor_SMD:R_0402_1005Metric,Resistor,
"R5, ",1,1k,R,Resistor_SMD:R_0402_1005Metric,Resistor,
"R6, ",1,51,R,Resistor_SMD:R_0402_1005Metric,Resistor,
"R7, ",1,241,R,Resistor_SMD:R_0402_1005Metric,Resistor,
