<?xml version="1.0" encoding="UTF-8" standalone="no"?>
<!-- Created with Inkscape (http://www.inkscape.org/) -->

<svg
   width="453.5433"
   height="340.15747"
   id="svg2"
   sodipodi:version="0.32"
   inkscape:version="1.2.2 (732a01da63, 2022-12-09)"
   sodipodi:docname="timing_amp.svg"
   version="1.0"
   viewBox="0 0 453.5433 340.15747"
   inkscape:export-filename="timing_amp.png"
   inkscape:export-xdpi="200"
   inkscape:export-ydpi="200"
   xmlns:inkscape="http://www.inkscape.org/namespaces/inkscape"
   xmlns:sodipodi="http://sodipodi.sourceforge.net/DTD/sodipodi-0.dtd"
   xmlns="http://www.w3.org/2000/svg"
   xmlns:svg="http://www.w3.org/2000/svg"
   xmlns:rdf="http://www.w3.org/1999/02/22-rdf-syntax-ns#"
   xmlns:cc="http://creativecommons.org/ns#"
   xmlns:dc="http://purl.org/dc/elements/1.1/">
  <defs
     id="defs4">
    <inkscape:path-effect
       effect="dashed_stroke"
       id="path-effect1036"
       is_visible="true"
       lpeversion="1"
       numberdashes="9"
       holefactor="0"
       splitsegments="true"
       halfextreme="true"
       unifysegment="true"
       message="Eine Füllung kann mit dem &lt;b&gt;Zwischen vielen füllen&lt;/b&gt;-Pfadeffekt hinzugefügt werden." />
  </defs>
  <sodipodi:namedview
     id="base"
     pagecolor="#ffffff"
     bordercolor="#666666"
     borderopacity="1.0"
     inkscape:pageopacity="0.0"
     inkscape:pageshadow="2"
     inkscape:zoom="2.1785437"
     inkscape:cx="153.77245"
     inkscape:cy="187.7401"
     inkscape:document-units="mm"
     inkscape:current-layer="layer1"
     inkscape:window-width="1920"
     inkscape:window-height="1017"
     inkscape:window-x="-8"
     inkscape:window-y="-8"
     width="12.8cm"
     height="9.6cm"
     units="cm"
     showgrid="true"
     grid_units="mm"
     inkscape:object-paths="false"
     inkscape:grid-points="true"
     inkscape:grid-bbox="true"
     inkscape:guide-points="true"
     showguides="true"
     inkscape:guide-bbox="true"
     inkscape:pagecheckerboard="0"
     inkscape:snap-grids="true"
     inkscape:window-maximized="1"
     inkscape:showpageshadow="2"
     inkscape:deskcolor="#d1d1d1">
    <sodipodi:guide
       orientation="vertical"
       position="56.476527"
       id="guide3573"
       inkscape:locked="false" />
    <sodipodi:guide
       orientation="horizontal"
       position="11.035643"
       id="guide3579"
       inkscape:locked="false" />
    <sodipodi:guide
       orientation="horizontal"
       position="24.018753"
       id="guide3886"
       inkscape:locked="false" />
    <sodipodi:guide
       orientation="horizontal"
       position="285.62841"
       id="guide3988"
       inkscape:locked="false" />
    <sodipodi:guide
       orientation="horizontal"
       position="303.15561"
       id="guide4081"
       inkscape:locked="false" />
    <inkscape:grid
       id="GridFromPre046Settings"
       type="xygrid"
       originx="0"
       originy="0"
       spacingx="7.5590551"
       spacingy="7.5590551"
       color="#3f3fff"
       empcolor="#3f3fff"
       opacity="0.15"
       empopacity="0.38"
       empspacing="5" />
  </sodipodi:namedview>
  <metadata
     id="metadata7">
    <rdf:RDF>
      <cc:Work
         rdf:about="">
        <dc:format>image/svg+xml</dc:format>
        <dc:type
           rdf:resource="http://purl.org/dc/dcmitype/StillImage" />
      </cc:Work>
    </rdf:RDF>
  </metadata>
  <g
     inkscape:label="Layer 1"
     inkscape:groupmode="layer"
     id="layer1">
    <path
       style="fill:#000000;stroke:#000000;stroke-width:1px;stroke-linecap:butt;stroke-linejoin:miter;stroke-opacity:1"
       d="m 181.91947,93.410705 h 15.11811"
       id="path168394"
       inkscape:export-filename="/home/lhcb/timing_amp.png"
       inkscape:export-xdpi="600"
       inkscape:export-ydpi="600" />
    <rect
       style="fill:#000000;stroke:#000000;stroke-width:1.422;stroke-opacity:1"
       id="rect168420"
       width="15.118114"
       height="30.236214"
       x="181.91946"
       y="116.08788"
       inkscape:export-filename="/home/lhcb/timing_amp.png"
       inkscape:export-xdpi="600"
       inkscape:export-ydpi="600" />
    <rect
       style="fill:#000000;stroke:#000000;stroke-width:1.422;stroke-opacity:1"
       id="rect168420-2"
       width="15.118114"
       height="30.236214"
       x="181.91946"
       y="214.35559"
       inkscape:export-filename="/home/lhcb/timing_amp.png"
       inkscape:export-xdpi="600"
       inkscape:export-ydpi="600" />
    <path
       style="fill:none;stroke:#000000;stroke-width:1px;stroke-linecap:butt;stroke-linejoin:miter;stroke-opacity:1"
       d="m 189.47853,146.32409 v 15.11811 h -15.11811 v -7.55906 15.11811 -7.55905"
       id="path168556"
       inkscape:export-filename="/home/lhcb/timing_amp.png"
       inkscape:export-xdpi="600"
       inkscape:export-ydpi="600" />
    <path
       style="fill:none;stroke:#000000;stroke-width:1px;stroke-linecap:butt;stroke-linejoin:miter;stroke-opacity:1"
       d="m 166.80136,153.88314 v 15.11811 -7.55905 h -15.11811 v -7.55906 15.11811"
       id="path168558"
       inkscape:export-filename="/home/lhcb/timing_amp.png"
       inkscape:export-xdpi="600"
       inkscape:export-ydpi="600" />
    <path
       style="fill:none;stroke:#000000;stroke-width:1px;stroke-linecap:butt;stroke-linejoin:miter;stroke-opacity:1"
       d="m 149.19021,156.0235 -0.0415,10.74609"
       id="path168627"
       inkscape:export-filename="/home/lhcb/timing_amp.png"
       inkscape:export-xdpi="600"
       inkscape:export-ydpi="600" />
    <path
       style="fill:none;stroke:#000000;stroke-width:1px;stroke-linecap:butt;stroke-linejoin:miter;stroke-opacity:1"
       d="m 146.37044,158.39063 0.0122,5.4828"
       id="path168629"
       inkscape:export-filename="/home/lhcb/timing_amp.png"
       inkscape:export-xdpi="600"
       inkscape:export-ydpi="600" />
    <path
       style="fill:none;stroke:#000000;stroke-width:1px;stroke-linecap:butt;stroke-linejoin:miter;stroke-opacity:1"
       d="m 181.91947,244.5918 h 15.11811 -7.55905 v 15.11811 h -7.55906 15.11811"
       id="path168558-1"
       inkscape:export-filename="/home/lhcb/timing_amp.png"
       inkscape:export-xdpi="600"
       inkscape:export-ydpi="600" />
    <path
       style="fill:none;stroke:#000000;stroke-width:1px;stroke-linecap:butt;stroke-linejoin:miter;stroke-opacity:1"
       d="m 184.05983,262.20295 10.74609,0.0415"
       id="path168627-7"
       inkscape:export-filename="/home/lhcb/timing_amp.png"
       inkscape:export-xdpi="600"
       inkscape:export-ydpi="600" />
    <path
       style="fill:none;stroke:#000000;stroke-width:1px;stroke-linecap:butt;stroke-linejoin:miter;stroke-opacity:1"
       d="m 186.42696,265.02272 5.4828,-0.0122"
       id="path168629-5"
       inkscape:export-filename="/home/lhcb/timing_amp.png"
       inkscape:export-xdpi="600"
       inkscape:export-ydpi="600" />
    <path
       style="fill:none;stroke:#000000;stroke-width:1px;stroke-linecap:butt;stroke-linejoin:miter;stroke-opacity:1"
       d="m 189.47853,161.4422 v 22.67716 h -7.55906 15.11811"
       id="path168698"
       inkscape:export-filename="/home/lhcb/timing_amp.png"
       inkscape:export-xdpi="600"
       inkscape:export-ydpi="600" />
    <path
       sodipodi:type="star"
       style="fill:#ff0000;stroke:#ff0000;stroke-width:1.422"
       id="path168722"
       inkscape:flatsided="true"
       sodipodi:sides="3"
       sodipodi:cx="113.38583"
       sodipodi:cy="188.97638"
       sodipodi:r1="7.5590553"
       sodipodi:r2="3.7795274"
       sodipodi:arg1="-1.5707963"
       sodipodi:arg2="-0.52359878"
       inkscape:rounded="0"
       inkscape:randomized="0"
       d="m 113.38583,181.41732 6.54634,11.33859 -13.09267,0 z"
       inkscape:transform-center-y="-1.8897638"
       inkscape:export-filename="/home/lhcb/timing_amp.png"
       inkscape:export-xdpi="600"
       inkscape:export-ydpi="600"
       transform="translate(76.092702,2.702044)" />
    <path
       style="fill:none;stroke:#ff0000;stroke-width:0.866025px;stroke-linecap:butt;stroke-linejoin:miter;stroke-opacity:1"
       d="m 189.47853,191.67842 c 0,17.00787 0,22.67716 0,22.67716"
       id="path168839"
       inkscape:export-filename="/home/lhcb/timing_amp.png"
       inkscape:export-xdpi="600"
       inkscape:export-ydpi="600" />
    <path
       style="fill:#000000;stroke:#000000;stroke-width:1px;stroke-linecap:butt;stroke-linejoin:miter;stroke-opacity:1"
       d="M 189.47853,116.08787 V 93.410705"
       id="path169261"
       inkscape:export-filename="/home/lhcb/timing_amp.png"
       inkscape:export-xdpi="600"
       inkscape:export-ydpi="600" />
    <path
       style="fill:none;stroke:#ff0000;stroke-width:1px;stroke-linecap:butt;stroke-linejoin:miter;stroke-opacity:1"
       d="m 189.47853,206.79653 h 22.67716 v -7.55906 15.11811"
       id="path169263"
       inkscape:export-filename="/home/lhcb/timing_amp.png"
       inkscape:export-xdpi="600"
       inkscape:export-ydpi="600" />
    <path
       style="fill:none;stroke:#ff0000;stroke-width:1px;stroke-linecap:butt;stroke-linejoin:miter;stroke-opacity:1"
       d="m 219.71475,199.23747 v 15.11811 -7.55905 h 15.11811"
       id="path169265"
       inkscape:export-filename="/home/lhcb/timing_amp.png"
       inkscape:export-xdpi="600"
       inkscape:export-ydpi="600" />
    <rect
       style="fill:#808080;stroke:#000000;stroke-width:1.60423;stroke-opacity:1"
       id="rect169289"
       width="105.82676"
       height="60.472443"
       x="234.83286"
       y="176.5603"
       inkscape:export-filename="/home/lhcb/timing_amp.png"
       inkscape:export-xdpi="600"
       inkscape:export-ydpi="600" />
    <text
       xml:space="preserve"
       style="font-size:21.3333px;line-height:1.25;font-family:sans-serif;text-align:center;text-anchor:middle"
       x="287.22253"
       y="199.89169"
       id="text184691"
       inkscape:export-filename="/home/lhcb/timing_amp.png"
       inkscape:export-xdpi="600"
       inkscape:export-ydpi="600"><tspan
         sodipodi:role="line"
         id="tspan184689"
         x="287.22253"
         y="199.89169">Amplifier</tspan><tspan
         sodipodi:role="line"
         x="287.22253"
         y="226.55832"
         id="tspan184693">Circuit</tspan></text>
    <text
       xml:space="preserve"
       style="font-size:21.3333px;line-height:1.25;font-family:sans-serif;fill:#000000;stroke:#000000"
       x="173.68326"
       y="90.980225"
       id="text192153"
       inkscape:export-filename="/home/lhcb/timing_amp.png"
       inkscape:export-xdpi="600"
       inkscape:export-ydpi="600"><tspan
         sodipodi:role="line"
         id="tspan192151"
         x="173.68326"
         y="90.980225">HV</tspan></text>
    <path
       style="fill:none;stroke:#000000;stroke-width:1px;stroke-linecap:butt;stroke-linejoin:miter;stroke-opacity:1"
       d="m 340.65963,191.67842 h 22.67716 v -7.55906 15.11811"
       id="path204352"
       inkscape:export-filename="/home/lhcb/timing_amp.png"
       inkscape:export-xdpi="600"
       inkscape:export-ydpi="600" />
    <path
       style="fill:none;stroke:#ff0000;stroke-width:1px;stroke-linecap:butt;stroke-linejoin:miter;stroke-opacity:1"
       d="m 340.65963,221.91464 h 22.67716 v -7.55906 15.11811"
       id="path204354"
       inkscape:export-filename="/home/lhcb/timing_amp.png"
       inkscape:export-xdpi="600"
       inkscape:export-ydpi="600" />
    <text
       xml:space="preserve"
       style="font-size:21.3333px;line-height:1.25;font-family:sans-serif;fill:#ff0000"
       x="365.40723"
       y="229.63478"
       id="text209912"
       inkscape:export-filename="/home/lhcb/timing_amp.png"
       inkscape:export-xdpi="600"
       inkscape:export-ydpi="600"><tspan
         sodipodi:role="line"
         id="tspan209910"
         x="365.40723"
         y="229.63478">Signal</tspan></text>
    <text
       xml:space="preserve"
       style="font-size:21.3333px;line-height:1.25;font-family:sans-serif"
       x="365.54535"
       y="198.53391"
       id="text214662"
       inkscape:export-filename="/home/lhcb/timing_amp.png"
       inkscape:export-xdpi="600"
       inkscape:export-ydpi="600"><tspan
         sodipodi:role="line"
         id="tspan214660"
         x="365.54535"
         y="198.53391">Supply</tspan></text>
    <path
       style="fill:#ff0000;stroke:#ff0000;stroke-width:1px;stroke-linecap:butt;stroke-linejoin:miter;stroke-opacity:1"
       d="m 181.91947,184.11936 h 15.11811"
       id="path752" />
    <path
       style="fill:none;stroke:#000000;stroke-width:1.38709;stroke-dasharray:none"
       id="rect375"
       width="45.354332"
       height="68.031494"
       x="159.24231"
       y="108.52881"
       inkscape:path-effect="#path-effect1036"
       d="m 159.24231,110.07498 v -1.54617 h 1.41732 m 2.83465,0 h 2.83464 m 2.83465,0 h 2.83465 m 2.83464,0 h 2.83465 m 2.83464,0 h 2.83465 m 2.83464,0 h 2.83465 m 2.83465,0 h 2.83464 m 2.83465,0 h 2.83464 m 2.83465,0 h 1.41732 l 0,1.54617 m 0,3.09234 0,3.09234 m 0,3.09234 v 3.09234 m 0,3.09234 v 3.09234 m 0,3.09234 v 3.09234 m 0,3.09234 v 3.09235 m 0,3.09234 v 3.09234 m 0,3.09234 v 3.09234 m 0,3.09234 v 3.09234 m 0,3.09234 v 3.09234 m 0,3.09234 v 3.09234 m 0,3.09234 v 1.54617 h -1.41732 m -2.83465,0 h -2.83464 m -2.83465,0 h -2.83464 m -2.83465,0 h -2.83465 m -2.83464,0 h -2.83465 m -2.83464,0 h -2.83465 m -2.83464,0 h -2.83465 m -2.83465,0 h -2.83464 m -2.83465,0 h -1.41732 v -1.54617 m 0,-3.09234 0,-3.09234 m 0,-3.09234 0,-3.09234 m 0,-3.09234 v -3.09234 m 0,-3.09234 v -3.09234 m 0,-3.09234 v -3.09234 m 0,-3.09234 v -3.09235 m 0,-3.09234 v -3.09234 m 0,-3.09234 v -3.09234 m 0,-3.09234 V 119.352 m 0,-3.09234 v -3.09234 m 0,-3.09234 v -1.54617"
       sodipodi:type="rect" />
    <text
       xml:space="preserve"
       style="font-size:24px;fill:#000000;stroke:none;stroke-width:1.38709;stroke-dasharray:none;-inkscape-font-specification:'sans-serif, Normal';font-family:sans-serif;font-weight:normal;font-style:normal;font-stretch:normal;font-variant:normal;font-variant-ligatures:normal;font-variant-caps:normal;font-variant-numeric:normal;font-variant-east-asian:normal"
       x="214.27849"
       y="133.00504"
       id="text1092"><tspan
         sodipodi:role="line"
         id="tspan209">Lowpass</tspan></text>
    <text
       xml:space="preserve"
       style="font-size:24px;fill:#ff0000;stroke:none;stroke-width:1.38709;stroke-dasharray:none"
       x="112.97124"
       y="203.85449"
       id="text1198"><tspan
         sodipodi:role="line"
         x="112.97124"
         y="203.85449"
         id="tspan1258">SiPM</tspan></text>
    <text
       xml:space="preserve"
       style="font-size:24px;fill:#000000;stroke:none;stroke-width:1.38709;stroke-dasharray:none"
       x="90.708664"
       y="234.3307"
       id="text1252"><tspan
         sodipodi:role="line"
         id="tspan1250"
         x="90.708664"
         y="234.3307">Current </tspan><tspan
         sodipodi:role="line"
         x="90.708664"
         y="264.33072"
         id="tspan1254">Limit</tspan></text>
  </g>
</svg>
