<?xml version="1.0" encoding="UTF-8" standalone="no"?>
<!-- Created with Inkscape (http://www.inkscape.org/) -->

<svg
   version="1.1"
   id="svg2"
   width="1024"
   height="600"
   viewBox="0 0 1024 600"
   sodipodi:docname="timing_amp_oszi.svg"
   inkscape:version="1.1.2 (0a00cf5339, 2022-02-04)"
   inkscape:export-filename="timing_amp_oszi_arrow.png"
   inkscape:export-xdpi="96"
   inkscape:export-ydpi="96"
   xmlns:inkscape="http://www.inkscape.org/namespaces/inkscape"
   xmlns:sodipodi="http://sodipodi.sourceforge.net/DTD/sodipodi-0.dtd"
   xmlns:xlink="http://www.w3.org/1999/xlink"
   xmlns="http://www.w3.org/2000/svg"
   xmlns:svg="http://www.w3.org/2000/svg">
  <defs
     id="defs6" />
  <sodipodi:namedview
     id="namedview4"
     pagecolor="#ffffff"
     bordercolor="#000000"
     borderopacity="0.25"
     inkscape:showpageshadow="2"
     inkscape:pageopacity="0.0"
     inkscape:pagecheckerboard="0"
     inkscape:deskcolor="#d1d1d1"
     showgrid="false"
     inkscape:zoom="1.1777344"
     inkscape:cx="456.38473"
     inkscape:cy="299.30348"
     inkscape:window-width="1850"
     inkscape:window-height="1016"
     inkscape:window-x="70"
     inkscape:window-y="27"
     inkscape:window-maximized="1"
     inkscape:current-layer="g8"
     inkscape:pageshadow="2" />
  <g
     inkscape:groupmode="layer"
     inkscape:label="Image"
     id="g8">
    <image
       width="1024"
       height="600"
       preserveAspectRatio="none"
       xlink:href="data:image/png;base64,iVBORw0KGgoAAAANSUhEUgAABAAAAAJYCAYAAAD8EJQjAAAgAElEQVR4XuydLXAcR7eG+6sKWGAg YCAgsCBAIEAgwCBAwEDAYEGAQIBAgECAQIBAgICBQIBAgICBQICAwQIDgQCBAAGDBQECAQsEBAwE DBak6t5zZjXWaL2789fdc2bmmXtTX2LPdJ9+3p7Z7rf//rfxcuP/nFyDwUD/hysggdlsBueAfNOk 4RwBsmQBZzjHIRA+F+pyeMaaA5zhHIdAnFy0Ppe9NjY2yj7C/T0m8PDw0OPSU/SQBP6HARAS7/O0 afzEYQ1nOMchECcX6nN4zjAOzxgDIA5jOMflXDY3NQBmn8sbB2Xz6eL9gxfzgcq+8NPyqgGAadTF 2txsmbReYQBE1IBGZhzYcIZzHAJxcqE+h+cM4/CM6ZjGYQznuJzL5oYBUJbY0/0YANXZ8SQEsgQw ACLXBxqZcYDDGc5xCMTJhfocnjOMwzOmYxqHMZzjci6bGwZAWWIYAMwAqF5neHI5AQyAyDWDRmYc 4HCGcxwCcXKhPofnDOPwjOmYxmEM57icy+a2ygDY/m7bvfr+VTLdOx3pXkz77PczNxwO3dHRUfJX Nzc37uLiIvl33cdrd3fX7Xy/4zY3N93gm6/39br999ad/3Huzs7Okmf0vzXNVderV6+c/qN5Ltsn TPOWZcRu9GaUJDG9m7rz83P38Olp3fru6123/+N+8vf6d8Nvh27v9V4hbIeHh8/uYwZAIWzcBIFc AhgAuYj83kAj0y/PVanBGc5xCMTJhfocnjOMwzPWHOAM5zgE4uRSdRPAxTXse3t7bjSad6LXXdrx X2YAaOf86Ff5u63hl8fvP90n71v2mk6nbvx+XMgAOPj5IDEkkvf2v5m7v5P05H+z19XVVRJPagDo 3y2aCosGgBocalKkl8acmgsaXzaPRXMCAyCvhvD3EChGAAOgGCdvd9H48YZybUJwhnMcAnFyoT6H 5wzj8IyTjgQn4UQBDecomL/qYBfJddkMgNPfT93Gi/npADo6f3t7uzKp7e3tr2YAjH4cfRlVv7+/ d+fvzpMO+7JLO9t5MwC0g37483z0PRnVl1kDq3aj33sj5sXjDICHz7JhnZRD8598nCTPLxoAk8n8 z9Pr+LfjL8bFyduTlXHr/aYNgK0z97A7cIP3h27gaY9HNgEs8kZxTxUCGABVqNV4hh/lGvBKPArn ErBq3ArnGvBKPArnErAq3grjiuBKPgbnksAq3g7niuBKPuZrBoBOjddLR7+T6f3/rQ5kmQGQNRBO T0+djqSvuooYABqD5qNXXnpZA+Dy8tLt7+8nZoF27LUcjRoA3+y42Y+X7uHx9AAh7AYPEzeYnLiB LH/wemEAeMVJYmEJYACE5ftV6vwoxwEOZzjHIRAnF+pzeM4wDs846eAwAyAKaDhHwextBkB2FPzm 4427/eepc6pa6qi+/qPXogEw/jB2p29Pk7/Taf8nv50k+whox3vx0rX5um9A3gyArKFw+f5yJUyN U2cLpDMAdARf/31nZ8dpXFcfrgwYABduNhm5jdupc99su9nOqZt9J7MJ3o/c4LPHeoIB4BEmSYUm gAEQmvBC+vwoxwEOZzjHIRAnF+pzeM4wDs8YAyAOYzjH5Vw2t2VLAHQdvW54t26398k/k2QTve1v ny8BuPrrKun065Wuv9/c2vzyZ9n4im4CmM5IyCvb4iaAagDot/TkZB6P/q+aAdlNAKMuAUhmAGQM AA3qxYF7+FGm6X/YdYNPMld/88g9/HAgfy5/N7uX2QFHbpAswdgQs+DMzbZlv4JvdO7AQ/J3G6JD cm0ey3P7bibPDeQ5p0suhjLDYHzh3BvJ8999t/G4DELucLPvr9zs22sxHmT2wZoZHlnmLAHIq4H8 fVUCGABVyVV8jkZmRXAlH4NzSWAVb4dzRXAlH4NzSWAVbodxBWgVHoFzBWgVHoFzBWgVHvG1BCDJ WjqZuiFesoP/45R13cn/1Q+v3ObLzeQWnWKvMwGypwBkZwAkU++Pj5NN9dRUSNM9+mV+akBRA0Bn CKQb86WnDCzDo+npKQHZGQC694BuaKgbG+psBl2OYMYAePFKOvViUmzJMoD3wsntikEgnfx/xXyR WN1Q1vH/IJsSfpDZAXqQwaZ08GdX8u9iFGxfuIfvpYP//iB57mEkpydMj93GzZX07yWdPdkn4cW1 23gvBsL2lbv/buI2LuXftbP/jeT747mb3YopMCm+9AADoMJLySOFCGAAFMLk7yZ+lP2xXJcSnOEc h0CcXKjP4TnDODxjzQHOcI5DIE4uXg2AFSHr8YBpB/76+trpCPqzYwD/vEiO8ks77Dp9f/rv9Etq y9b8pyP8qWGwmLWeKKAzDfTSUfx0+cGyELN7AKSb+Gme+u+6IaDGq7MA9NJ8488A0D0AJPOkIy6b 9N2du8HfwuuzdOqTafty7KJ26nXjvm8eDYGbPbcxXdhEcUNmCsiGh4Ox/PNCnnstRsE4s4xgKPn8 ILMEdBPAb3SWgZgu14/pbIk5sCvGTvb+AlUUA6AAJG6pRAADoBK26g/R+KnOrsyTcC5Dq/q9cK7O rsyTcC5Dq9q9MK7GrexTcC5LrNr9cK7GrexTwQ0AmRWgo+e7u7tJaDrar537ZwbAxYXb/0nu+WF+ jzbsdd2+niSgxw0uMwCyHfyzP+TUgcyeA5qGjuofHBwk6Wk62nFfVdZlBkCShsxcOPhpnkZ6NWMA pEsA5BhDnYY/lGn448dp+MOxu3+9LZ3/7Lb98u83smfAVKfty2wBnUnxaB7MZFrAxnsxAF5qZ1+W C6Qj/FrAZ3sAbMqMAMlrcO42RLPZa/n3/2S2gCzXKHNhAJShxb1lCGAAlKHl4V5+lD1ALJAEnAtA 8nALnD1ALJAEnAtAqnkLjGsCLPg4nAuCqnkbnGsCLPi4LwMge4zfqqz1iD3d7E+XCCwaANpR1D/T JQTrrnSPAN1I8PAXHakeJLfr5oHZY/50Gr+m+er7V8nf6+kEy04WuLq6SpYaLC4BSGPQ5QhfliLI HzZrAExlqv6ejMzLhokTmYqvpkcyMq9H9z3OAMjC+3bsHl7JiP4H4aRLAF7Kmv892TdAZwBs6MwB HdHff9pIMDsDQP0ENQRe77jBX2JA7Eoaf8lz97quoPiFAVCcFXeWI1DaAFAnUdci6YP6MdL1SMnL Le6Yun063Uc3MUn/vlw43b+bH+U4GtflrPVYP7zpjyP1ebluRTnrN0O/DzqSoVMB9TnduEjXGaZT C/UebQTp/+rUQa4nAkU5p09oQ1CnjOqokO74rJeO6Oj3WpmnO0DDuBxjHSXTI7F0dK1Kwx/exZYA 6HdXOzl6rfv2pu0NvU+/I9pJ4ZoTKPLNWNVZhGXxWlTlO7BsE0Ad4dfd9JddOoo/vZu6m79vkvdh 2TGAyXMyW2Dv9V6STrKPwGPnPptmagDon2nbXdfp6/8u23wwOY1ARv/VBNB70iUG2fSWbQKo5kF6 abr6O6QxazyNGwCyet99J6P3O9KxH0un/790Lb8sV/g4lrBl47/NXfmgyLp/Xce/I+v4dU3/f0M3 +0GeGz7OAEif+1c2Bfx4PV/jvyd7BGzoHgDS2U+WE8yPIJxJX0kyk/8/Lbz5X8ovpAGg309ta6mJ o79tF7KURGds6OkRWn+0nVClfhd/e7izSQKlDAB9+dXlU9dwIjtbaiNI1wYd/nzoxuNx8uc6BUmn A13+eZk0NtUk4HoiUORHWRvqVa60oV/l2a49U4TzsjLrD9Tw27mbnW68oz9g+oHUj6H+CHOVq896 t34PtFGy2IDQEYV0VEHXG+qPjq4PVCOAqzzn9InEAJB/9DxmDIBiNanIN0On3mqDWH/b9DeP37di bLN3FeGsHdPrv6VRLdf4vRxxJqaLjlBmLzUKdXQx/VZo24Pvc7lvhtZn7eRlr53vdpxOD9ffPK58 AlU6SMsMgPycuEMJpJsjqilS6Fp2CkCyIZ+Myt/Jxn/6nXl5mJwCMJO2npoog0+yROAv6cS7kUzd l1H/DRkMUnPxTgwCMQcGH2QkX48P3JK/e5U5BeBfeZe+1VkBjwZAYjbIEoNXYp7okoKFZRZF4g9l AOj3U9sHaX9DzdNFw0gHafT7y+9cEaXad08pA0B/lNUh+jLqry+jdJjUQUqPIFEE+iOsP8a6EUmw TumLbTfa33FTMSEmG/vuSl64q5/23NlUOm/pnxv0Hoo0frSBqWenfnXJh2nVpS6uOqy1rizTquyG GS3+KfiBrhX08oeLcM4+mYw4ybE5yW62snutnpWrHz9NRxtE+ufaMdX6v2waXIAilEvSh3blckzu LspZ67NuZFTkUr5qwHj90WmIT5HyFrmnKOc0Lf0e6EiQjrboiI9eydFR0rC//us6MW+5nhMowliN b10vq3y1Tut63Oy0WZjmEyjCOWsAaIrJzBXZ5Cw1AbTxqnVZG7Dp1bgBsLnnLmRd8cPxyB1dL2we lo/F+x1FOOuIshrd2UuPotN/1EDUDedMXXXbFwF+BzAA4taQ0gZA3PAWcpM9BHauZLbBvcwKyCwV KBFTKANA27n6ndXfs1WXGq9qACyahCXC51bDBEoZAOpaaoXQSqOd/mWde+2EqhmgbpLODsjtLD3+ aM5+k5kFfz39aG6+Pnfjt2IujA7c1f2G2/n10p1+OnKjC9nURIAOvj2QUUUZ3Trcd6cP0hh7NADO Z/tPfy5HdS4+17QWVX+UNe5l07nS8ugP9eIP+bOyytEnJ1eX7mBzJtrM/+bhbuJuLs/c6cWNu5c/ e8Z0UtEBqPsD7UmgIpx1+pPWUx111g6+TsHT55INdGTEWo0s/W+9L5kqJzNb1Bg4f3eeH+U32+5A Gq3H35zJCNWFuy145mt+wsvv8KJdhcyLcNZkL95dJNPKilw6/VQb9uu+Hec3t27v5Xztojr2yQY9 cs0+XbmjN2IGfnqeU1N8ipS3yD1FOKdrQtVA1DqsdVp/vLWzqpeO6B38fJDM3tJ6nxqG+csBNty2 7GZ8/POeezXUaaXyDfkkI4d/HrujPyZyMnI3riKMtcOk3wHtbOr3Qk3B2jMB5Ftx+NfYHW/Jd0dM 7OOb50Q3XskUzT8P3MbdqRvJ72Lob0loNYtwTg2AxbqcPVtcR/61DaLtEq3LuQaAV85ft0lcRwwA 1V9ndeoGcKuMwvxvhn6XA/wG1mxfhPgdwAAI/cVY+C1/PB6x8AyAuOE9z21DTgJ4cyyjovL9lt+O KldIA0DbvulpEMtiwwCoolh7nillAGixtNGj7rD+EOuPs/67jixpQmoKaEdJp+Vph1Qbn7lr8goY ANezV+7o/bnbkw7/3qMB8Azxih+FwUbOcw3oVKTxs8yVzws195nEADh3O2cjN3o/lQ1MpMG0Ly7/ L9LpvThwB797asjX/IHOK2fRvy/CWRs4aScoOarmn0kyOprWZV0Tlbqj+ve6dl2nsOvMgLxrsH3k xhePHa+fR+6swdkQebHW+fsinDX941+PkyVCRS7lr9+VIrOHBt9KZ1+c9ct9Ge2+bW7GSZFy1bmn COfUMNHvrppX6RKA5HgoaTTpn6sBoI137WClU6ezGzR9HePAbR+cu8vjbXf7p+wd8G7sJp833Y7M Ltj+99Jd/NOV7n+x2SzZ72yyiZbU03Q5XJWOQMJbO6ZizupY9uBfmdJ+KOtOvwix6fb+kCnwW2J2 vTh3+3LOdJ8MAK2zarjqxme6hCidlq6mlnI//k2+K9JZ1bpcyADwxHlp26LlBkA6ayitequ+v8o8 PdJt3TctyG+gkfZFttxV3nuWAFT/NWzFDICBtKvfyPp5PXrw7sINruU3uOIgUEgDQNsBOuCybO8J bQvroI3XGQAvdtzx+PlA5EwGIq/fy0Dkn9IHSRjJb96FGOJ3MuD7m+x5IXsy7Pwss8x/2nXbMugz m8n+c/9eu9MjMcY/Dd3BBxlo29JNKud16mE6cVfvTtzZBxnAc0O3L39/cHXgRn/MB4+/ur6Rey4e B+t+koE/TUfiPLqUPqcsAxmdyYBJ8tDA7fxy6c73ZLBVtO3CVcoA0Gl4+uHSjpFOv9PGTzIKIj/E yRRp6UCpMaANT51eohVLN6JaXLv3DFyeASC7dQ5Pz92hrKHZeLh396LE7PbE7b/dkOl2j9P+P4+e lgCk/35w5Ga/nj1/7t8Ld/PtkXulleGtViy9pHIdj93lm2u3/cNJcE2LNORzO/MLUerMgGIzAJ4M gHkS2riXvRp+kdkab/bdeJCZvn8vL6rM9hh9L5vhJW+VbBAiHbizT6/cxftjN/0gG8O8eeU2ZW2U +3TjLk+O3ZlMe5w9+4GWF0Y0OP1RNqSR2wb/PbibC1mb/KfsVvtBRoQD6lCEszYYtfOjnSWtq9qB Sp4TnjrlSTutaWdf67Q2kNQt1RG/9deGe/Xb2J3JDrCncuzLkc5cOUnrmyw1eHXoTk9k7dVQ1psJ k9t3MtpydusGPxzN//yl1PHP9+7mw43bfjMUfjIL5puR5HvsJod77uTjvOZu7p658als4qKzZLLa yYyY8aX82YVMpZf7hw9yRNBI1tB+J+m/PXA7kr6b3bvrP2RU988VH8WCb0IRzpqUTulfN9XsWXby AdbvSz5nnbWyxADYElaL5T+culPZmCdZJvSvbDb426k72h3OOepmSZ+nbvL3qTv8Ver1qr/7RYyf VysYLslz+7XsNOzpKsI5Xcuns1T0fl3Sot9q3dNC67QuqdDvd7K7sxhZGy+l/sm11mh5uevOP5y7 7Q/Zb2amUFrudfVS6+2iFj9duz3p0H31bREzYWP7QIxk+V35dj674+H2yp2LHpf/Sp1fpuuatMqi L8J48dus5rd2iLSxpMuDKl2JAXDh9q4mbnN/w53J+345fWxyyPf0QvjdjmU16p6YBI8zADZX1UP9 PVv2zdWZGi9fLf+mP0gjr6yGNb4nRTinMwC08ZkeV6bfj9Sw1cEHbVukG5oVNwDKcF7B8t3M7Ysp 8VWb5DfnTmUJgPtLdNyV30Ydqfwsy/l+P3InY22Mxr2KcE7rs7bj1GTRJS3aljj/4zz5LiwzbYu1 T9b8Bmqbb7ENIe2LJ05r6nDavjiQDdskxlVtiIP9K7d7suQb8/lptujZqjZOSVMTAyBuvW6FAeAR SWgDQN95XVK1eGmbWN9//wbAuXulA5Ef9JSJbfdq/8AdHepApCw9SmYUPjcAZtJuHV+M3K1+R9/r qQ07YvbKXlHSDp/OZJaR9CX25TdSZ4dLA8LtHZ644x9ls0mZRXohbb08A0DbkJfvHgfrZEZ5OpC0 +fpM+jXyeywDpeM76RdsShtWNoOcSRv9KDNb3aPU0ZMqZQDoD4Lu4q0NSX1QR5a006TGgDpF2unX qbvpzrz6g60/0ms35skzALRz80mnSErj5yIzAyDb0VxmAGhD/3a48Jx0SI+uZLRw4g7fyPo2nSa8 IT98H87cjhwBsidOT+ir6I9yMh294I7G1Q0AKW3CURpSR7Jucbr7xUgZfyubXP2qnGSpx4NMsfxB djOdXLvpC/nxlg7BqztpAB2euesH7UxduNPXj0xfZPcAkM7Vq5Hbebhy1zI6O/xZ9o84nLljmaJ9 Lz/QIXUowllHMXTH07TRk9Ve63q6JED/XO/VBpIaAema6pV1RerU2Qfp/B1LZ92JiXA6kDJLfdN+ +0upl7IT7Pa1GGWnV24qH6yd/27dzX+v5M+lgfvXsTt4K2vG5L7jd2eyZEMaYW8qGACS/6bsYnv+ 60nSeZq9kJgk/eEHMe5+v3GDN9KpOhm6c3mfL/6t3jQtwlk5pTvQF3q/xADQTpV+V/KulQbAYvk3 n+rlxQtxjv+QsssPz8W/sjZeTbCDeV2//e505d/diKu/kuFMTJfFPKtj/arYRTmnD6ZTeJMNW2Wa elqHtWGvuzYXWsain8dXwuOdnB7wo35PlxSoiAGwwGVzb7z82yIbM53ITK/diRgxv8kZ1tIx3n97 7o63r93hj/Id2hAzoWhaukFTyasI47Tzk4yWqiEoPJMlQ7pGXX7viphWX4X1OANg7/zI3fxy5nYv 993oXI05MWgPx+7itYxO/CUzN/YfDQD9vqx8l1d9c8VEeLWCu3LNMwA8fk+KcF40AJSZNlL1W62X GorpwIK2Q4obAJeuMOf/1Kxd9vu1ok2ibZnsb+OnDbf764U7e6PflmP5HS1ZIWveXoSz1mf9RiQ7 uT+e3qQz47Txr3+nMy4WTYBCBsC638CU0/2FO/pZvi/K6Vjenz39rVNOa7h/MbpH7vq1DNysaMsd Tk+Wf2NePv0OrGzjlPx2VDUAasrL4z0ioL8xy05pqIOgkT0AkhkATwbAPH7ZeHtf+gY6EKmDXffP DQD3w3ygKxkIW9xaRZcZZQyApIXy+O3ZPJX+6IdBjgEwX8p1JkdBSuveHd3LvjKnj7OhB5K2fBf3 /5E/e3vrtqVNcianRxwcyJJej227OhrWfbaUAaAj/breVkc71JXXtf46uqQ/HtqR0g+h/lhoJ0kb oPrful4yPeZrabBRDYDHde6JiyOVQ1z5ZK+B32UdTM2OUFEhiv4or13Pv5BZLQNAXK3LD7Jnw297 7uD2yQC42JDRgD92ZHT61J1dyBEh6Y9i8uMtR5mc7MmL9fg2bsnsAelYThdMhMVp7wNx8q7+lEbz SDpL3+j6wnA6FOGcbpKm9Xfx2LlFA0A/vtrY1+UteTtNb8pRMGMZST6SUTLZYkk+eNKxF8fzQHht 7mp9k4+ZzrjIfMw2ZDT/6kw2ZJGG7eXdXODhSBrsvz2IeVDFANDNqETTxy/mPF/ZU0PT0nz1I3kl hoB8JEfyHlS9inDWtHUjxXQDRW1AaqdUjRQ1WbQjpaahGov659roTDuteXGtNgCel39udM1nAKQG wHykVQwAmfZ1eSjLmaTxebs9NwCW/d10Zw3DjzvyDizkmRd8ib8vyjlNcpkBoEc5acdfZ7GsW/eX DUu/j1fyfTyRejl+rJfPwi5kADznsqE/6Eu+LYnZcL7tzsRIVl3mL4G8J2pQykyW4zsZqV5gvCqt Emi/3FqEcdr5USNcvxk6WqpLKnREOpkFIN+S0kcEpgbAHyN3/FKWW/ykHSExPOTbcSLm9PB32edm S9J9NAAefij+Lme/uVcyI2npN72ChnW+J0U46/dAjw5LuD5uRKd/po1WvbL7Lug3RGcG6L4tazcO Lcl5calFluXl3ZJBifS38a38Nj5+3JP9G6Sun0rcS9+fKhW14DNFOGt9TjZTlPqsrPW3LV1moSaM buSc3WhRsy5iAKz7DUz2StA2REFOz7jLQpln+z2taEOMN1e0X7K/A6vaOAX5prdVNQBasYa9JAtu 908g9AwAnQ2Y7hOUjV5/y3Tj5pAzAL7kp30ImaGpA5HHNxJPdgmAzEI8k73KdqYy/f4PaVtPZKZx +uAyA0BnLcogm0yNlQHgHANAlomfvpd7ZQ86NQB037njH5/MWv1+j3/fdhe/Xrm938VE/3XkTmI7 uf6r1JcUSxkAOt1RK4T+CGvnX38sdMq//vjqtFPt/KdH82jjXhtEybTqdSPZMtJ5Lo06FeDrTQBF Q93Q68HXDAAtt4xYS4f2ZEPWU+6P3fa5/Lv8396BHNUREHT2x2LZWarZrIv8wC6GmvvMwh4A6fO6 KY6+eJNftIGdmR73j3SMRuKIHchxeMOZTEE9dyenMiq3sWSnY31BpaG6qT/o/zyZCGf/ytoa6TAf yFTr+YRecfZfyl4RekzkNKwORRo/yQ6o0njXEY/FhuOiAaD1Wkf4dFnAWgNA1xP9KWt2ZelE9nr4 KGt7paPp3ugonJgD0tlMZgQ8XptvLt3Vb7JkJp2ZojU1O8W/7BIA6TTdyN4Dp4+bOaqZcCUfstlD 1roUXd/uJ0ZY1asIZ007Za2NzcXN/dRcURNLvxNld1RfaQAslD9rAOgSgP1TMX12BzKKqDxktOvs WDpb8q0aiH4r/m5zHUM1ABbzrAp1yXNFOC9bAqDT/dPz1JWvjpzq8Wr657oEQNNdZ7akMwAuZAbA 0j0WinQev+IiI9tLvi0Pu/IOnKjhldnEMfl9mBuOB//IpoYF06ri0BdhnDUAvmxqKTNW9Nugv4Ha YdLfvVIbA2Y6pvsfZYmVlPFeGhqn30jj40RnTB0/zpiazwCYyTdk5bt8JQ2eld/c5dxvXxaYAeDx e1KE86IBoN8INWzTZSvpKS36vahiABThnMxAWcVylQGwcArAxvdiAJzbNwCSfZ0e23Tp50e/FWrC lDYAcn4Dp/JOL56W8IyTzPhcyT1jAJz9I4bQyrbcirqemQl2tqqNU3J0DwPA4w8dSX1FILQBEPUU gKUzAKTIj98EHZg9/Mst7AEgPYetPVmeKdP8f9h2gztZcnx+6s6vpL2WNQD+lDbNtpziJcu/D3Zu 3fG+zvJevweADnBcHsl+SfunbvKfzE6QvQiGZ/tPfVH5lo3O5bh7WZI4+1fM0MPHPQI6Uk9LGQBa Zv2x1U6/NnD0n2xjXjtJOhVPfzh0pKnQdMi0YyqjH/sy7JNutjCU0Y7xLzJ1bk9GQmSdR7IEQDcB fPe4ZrnMEoDsc2nHSlz58dGFe3V66Ka/7smxPXHm5xVp/GiDXHff/HIV2Dwkd2OepQaAbmohU0wP 7uejzNl15F82rZNO+w+yZv1MdjGVF2P/L5k6nbj38xkUyfU4Sjc9Eo7T1ESQRuV3OhIuS0XkRbyQ aegbOzId/kLMApkBoCN8SQc3kA5FOKdHoOho6eI+FVUNgMG2rBeSzf8upeGUTq3XEQz9s/FPwkRH 4XQ608IMgISFjLSejsQJfRxp3RypKaAdgMwMADFqUgfy2d8v7gGw0GBPZrrIUoQvMwA8fcCKcNas tEGvnSOdRaF7hfi6qhkA8qMg36fRtey9kH5P0oBk2teqv1vLMOkIPzddfJVR0ynCOf0W6wiedpC0 8Z7sySLLsPTSH3r97+wmgHrfsg2AvsSejDbc1XUAACAASURBVNaJuSff0H1ZIvXVVzI1AFbVy8S4 WsXl+bfl4F+p53kzAAqmNZK9LcpeRRhnDQDdY0FZp6cv6FR0vZJlFzJbrvARgRkDYDSWWXPnYiDK hn/n3xy6/YlsQnR66zZlY8AvMwB0Ns/Sd1mnUurSrdXf3DmThW/6tYye6xKAEhrW+Z4U4Zw1AHQf C50Rp0aWnluf/OTIzMN0mroOSpSdAZDPWc4I/3ENy9QAyLYtlmwC2AYDQA1wbW+km9/qdyTd70b/ Pf1m6wwBvfIGG/J+A89lz4nVBsC+m/ywhvszA0D2OcltQyzU9b/VqH3cC2ZFG6fstwMDoOyXlvvL EAhtAOiAwLKNgPV9129DjBkAA+lDXF6umAGQhaXHeP5yLKP08tsr6/VPJpvzTQBlCwPdBFD3zpr+ I8ccy2/xONlHZ40BoJ37d3K63OJg3UT2mJNloclmgHJpv0Xb79cyoJbuv1VGP8v3ljIAvhwDKBun acNRR021kugRX7q7tHao9MdYE9XpTckxgDJLYP0lm8WcyE6/r2/d+fGJu/hbOoo/yEZQ0jHf1h0Y k83TREQxG47vZVMX2YUxEaaIAfCPjPQtPqfBaGdY1o2M7qU5uzmW6ZYyVbvkuq+qohZp/KQNysU8 tKOq16r1u2uP5lk8BWBzx+39pCP8O+7+D3G8ZM3pw6oddmWazLGuzZXGzuhKDYDHPQB+lj0AZEfw 5XsAyMaMP4hJJGurj0bS8X94HFndkxkAMuU7meIbUIcinEMYADu/yjTgV7JuSNY0fZlCKp3KQzl3 ff9aHMw/pZMv05OGV7J7tewBcC9/tyPHf01kQyLdN2AoHZyD3+UkAj3B4vzCHQ4f9wCYPe5V8UE6 Bac3bra5K38v+zBsPf59jgHgdJZGsseAdAh/H0tsspO7bFTlPsp0+2QUvNpVhHOasjYydTpvOsW0 Wo7Pn6pkANzJfgtqYsnU6qPFzbke148t/bt1DAdi8DRsAKTfDe0YqS76o754DODi0WlKc/2RXrpG Tqaf/7zhrsV1P7u4luVAMrq2Ix2y+2t5/2UKne6hsqperjUA9Nc18215vzH/zvzzuAeAe9wDYOdx D4AXOSZLJi09LabsVaQuZw2AlGVyBJ0Y46kZkJwOIN/qwkcEPjMApvN9F2TTo43ZVMxTMdOlKNsZ A+D2cQ+AZe/y7Mer9d/cFEqW+1iWeJTVsMb3pAjn1AB4tqGltDXSDSt1totyzm5oWWYJgC57Ws/5 wrmf17Fc0iZpqQGg5kpyfLO017Tdpgat1l9tZ6SnhSj39OSnPAOgyG/g2cqZErIU4c0a7gsGQKE2 RLauXy8zAJ5/h8p+OzAAyn5pub8MgdAGgPbh0s1Vs3HpO6+/ceENAGlP/CwnCulA5OhQRu0XTwFY oCVtZt1EXE+FG8mG4vuLewA8u321AZAcCfpOyncgg3XpprsygKcbAiZ/9rg31mAoJojsyzOW2dBd O2mqlAGgPwa6jlenOGql1FEOHe1IN1JLjuqRzdJ0mp7OBtARvyJHeTlxdQ5kx9aD19uyc66oJ7v9 T/6SKedvZcp50jEXF3f32J3LdOXtFzJN+FbuPZaG67pTAHQTQJni9dVzMg37Vjb32ZaR7/GvsgO8 roFONlyKcxVp/KyKRH949SqzP8CXtBIDIHv8hnCU4zKu5Wiv5PgNvTFjAFzKSPXFiTTy53P33cNE psH8Kh24b+bT99zfMiolGwNuyvqh5BSAt1+fAnAuu9Gf/CFT33X6jHRIpn9fuZmsQx6LNvM1vuF0 KMK5rAGg66a1k7XO1Dr9eyJTiGR2hBy1+HRJOR/XmR/pRnM7spP8b7Lbvx7tJeRvzx9PAdg9cmey w+iOrB5QJ3Mipypsv9alTLpuX9KQEzFOf5X1rvJYckqA7Bq+vSfvmW6OkmcAaBvnez194EB2WJ8v T5hNr93JzzI7QXY4rXoV4Zymrez0g6Nry3xdlQyAqXTQxFw5/kFPYUhIuAc5iubyWHQR03Dl393I FLNVDF3zBkCWaXqkl9bZdNNKXcKlU331ZItSJsw3m273UE6z+FHq3paeCjJzs09T+X4euGMxbNfW yyUGwKYcZbf02yKbsm58u++O5RSAve15HdXjfi5kavLF7eMpAIszW9akVbaOFanLaedHzRXdUyF7 qSGeck2nT199kJF7Mf/WdhIWDAA3kCOI9Oii+xOZzqiGt24G+DQDQI3FVfVQViqu/OZeb6/invNt WWHiVP2eFOGcGgApX22kansjXaqVHMsqxwJmG65lDYA8zlPZH2f179eSNsmRLF9p4RKAtD2hLHWv lvTSeqvtuGSPANncWZe/6Z/lGQC5v4FycsfBpe4LIhsPy2+cXtmZElduDfdFA2BFG2LlNyazSfHK No5uDl3iwgAoAYtbSxMIbQA0uQRg8FIHImX3/59kIPL8wB0mMzIXNgHclpnfQzV/ZY8SHXzY0/bz 7ny/gI86A+DpFICvW7KrDADdEF4GnnWwLj36T5XRJQWX8md/Px3/hwHwWGV17bo2bHS0X6f3a+NS dz/WP9cfCv0h0c1ktKGfbIYkf7d2U57Sr4KvB3RUS3aQ/ek+6VylRy75Sn1dOkUaP4vPp8ctpg1O PaIuOapH+Ee/vJ51HE6HIpxTAyDZA0A6ptlLGznZkxh09ovW6dxTLTwK8mwPgBgbVFSIvQjnNFn9 NujU3WfLWyrkWe8RmbEiZ9kff5a9H3SneTUYddr/mRgCAz22UWbFLP073Sckez57vSjKPl2Gs6at 32D9Rxvu2VHTZLd62fdi/ah/2ei6cX8Rxnmdn5REumGd8lfmlY8I7AbaZ6UowjlrACx2/rOMsyZA rgHQQZZ12xpF6rO27fS7rcsvdKlckWfioQ7Xhihahj4ZAIPvZGbIH4fJUcUP03N3MBKDucAS1aIs ue9rAt0zAJYPRJ7JEX/zVvhzA2Agy3zOT+TI7peDZPDh4X7qbmTjvpN3Ojt8ySkAzxCqATBO1vBn r9m/srmxDJptytLzg+xu3OmJBD/rJt6y/FzahxgAGXJpZ187TNq51x8H/TPdYEqnnqZHAKZ/b/GF 1rOmz/48TpYY7B3LdOuIQRZp/CyGo51P5Zq90qMYI4Y+z8qjARBShyKcdeO59OijxY0qdb3p4ukV WteT5S0Fj2esq03XDAAdXdINRNUAiMXwKw10tFVGV/d1eZEch6jv/iBZTnHm9v6RIxNl066lf6dr sZPlSM1cRepzNrLUAFBzK91FPT2KEQNguYZFGCedIPmdK3Lp76J+XzRdXRrHNSdQhLN+m9PNcvVb saqTpffovWm6jX1XDIpbhHOZ+pwWUX8b1RCwcIVsQxQtX38MAO2YXcnmpLIUV2cm6WtXdulsMtv3 RGb76uxR+RZ8kr1S3sqJYl+d76ZNTdmvRjaF25GO30w3fvtNRn5lxlmyrvtalu5+kKO7f59kZu/K qK7s1n7xRvb3kQ1lp0UFNH5fKANAv5261Een+a+6dJBRlwDwXTVeSSqGV2oJQMU87Dz2eJyEzJp2 9zcy4vfrmcmzee0AWxKJDwMggg5FGj+mOUtwXTMAbPDWqbs6hWwky4kkosclAPcfZTOYtxduKhs2 Lv+7c3dTcmqoz/J2oT775BEiLRiHoPp1mnCGc20CEdoQRWPsjQGg06NlM+4DWQ+9qxuTrLk2dmRf qSNZzngls9C+nOmqk+1kw8lfNmU/GelY3spxbycyI+31jTvYezp6LUlW2pm62fSmbAx3cCZr1GXD 7vMfZbd2mf59rftJYQAUrZ7cB4GVBPplABioCDR+4ogAZzjHIRAnF+pzeM4wDs9Yc4AznOMQiJNL LwwAWSZ3cCabs+rIvew/dC//XP6y784mz1ddJx3/X2Rkfvgg07TP3dk7OXJ2zRKBZCNOOfnlVJYW p6cfqWobcmrRVfakk+Q0Gtk3Ijmxa6OQAfDw+kz2pnrl0rmzG5sb7l5OstqT02yq73oUp05lcwk1 AyB+ScjRGgEMgMiK0PiJAxzOcI5DIE4u1OfwnGEcnjEGQBzGcI7LuWxuydIgOXGhVZcun3s8jntX Nmt71kndlg0dZVPYXTnR6OZS9pjRjaUL7A0w39xUNoWUk7gmmeUEQ9lvZyyncBxIJz7xGHRj1L9k 5/fzkez+7goZANNMgJs/yoyD3zbcuezJUuGAmEZlwgBoFH+nM8cAiCwvjcw4wOEM5zgE4uRCfQ7P GcbhGdMxjcMYznE5l82tawbA5p5u1CYnSEykQ38hm4Pf5O+WM5Aj187lKLcHOfno6MPzfVW2f5Gz 3H+U3dhfPx6nnC4/eC/LD/6YiQEgexHoxm6LJsM3MsPo32O3l90DQE63unh/JMeG7buDP7O2QFnV mrkfA6AZ7n3IFQMgsso0MuMAhzOc4xCIkwv1OTxnGIdnTMc0DmM4x+VcNreuGQBJ+QdyXOzBkZwM IDu2/ydHTL+Xdft/3ixfAiCd8rOLI7f5QY6Ak438Fu2ClTMA5Nz2vYsSMwC+kf0C3l06OWDZ7ctZ 89MCsxLKahn6fgyA0IT7mz4GQGTtaWTGAQ5nOMchECcX6nN4zjAOz5iOaRzGcI7LuWxunTQAvkAY uOEbOdP9p5EbSgd/f3HUfWsknf9jN7wWs+BUTtZZ0infkKn/V6cb7kTSSQ4IeNwDYHa8J8sQiu0B MJXHhgdyHPkvM3c6Ony2x0BZvZq8HwOgSfrdzhsDILK+NDLjAIcznOMQiJML9Tk8ZxiHZ0zHNA5j OMflXDa3bhsAa2hs7bnTdydu++bYHbyVI7iznX81Bn4fyUZ9chLPvzvu7MOZG14euIM/pm74y4W7 +OneHb85FEOg4CkAcuLApZwi8CBHCR4+O+u9rFrN3o8B0Cz/LueOARBZXRqZcYDDGc5xCMTJhfoc njOMwzOmYxqHMZzjci6bWz8NgIHbOZI9An4dOlm9n7lm7lZG9kf/yEkAfx64h9/23L502Dd3j93Z WzlK8OXAzR4mbnxy5E6S6QBFDIArt/lW8vpp4O7v080WZ+7+SoyHE5l1UFawBu/HAGgQfsezxgCI LDCNzDjA4QznOATi5EJ9Ds8ZxuEZ0zGNwxjOcTmXza2VBkDZQnK/FwIYAF4wksgSAhgAkasFjcw4 wOEM5zgE4uRCfQ7PGcbhGdMxjcMYznE5l80NA6Assf7ejwHQX+1DlxwDIDThhfRpZMYBDmc4xyEQ Jxfqc3jOMA7PmI5pHMZwjsu5bG4YAGWJ9fd+DID+ah+65BgAoQljAEQmPM+Oxnwc7HCGcxwC4XOh LodnzLc5DmM4x+VcNjcMgLLE+ns/BkB/tQ9dcgyA0IQxACITxgCICZxOUxzacA7PGcbhGdMxjcMY znE5l81NDQAuCBQloB016kxRWtxXlAAGQFFSnu6jkekJZE4ycIZzHAJxcqE+h+cM4/CM6ZjGYQzn uJzj5UZOfSWAAdBX5cOV+5kBsPECVzIc6nnKD5/FyYNzaMxwDk6Y+hwJMd+NSKD5NscBDWc4xyEQ Jxetz1wQCE2AfkNowv1LX79d/9t4ufF//Ss6JYYABCAAAQhAAAIQgAAEIAABCPSLwP+kuBgA/dKc 0kIAAhCAAAQgAAEIQAACEIBADwlgAPRQdIoMAQhAAAIQgAAEIAABCEAAAv0jgAHQP80pMQQgAAEI QAACEIAABCAAAQj0kAAGQA9Fp8gQgAAEIAABCEAAAhCAAAQg0D8CGAD905wSQwACEIAABCAAAQhA AAIQgEAPCXgzAGb/OTcc5h8lOPv8nPLgRTHqvX5Oma3gFJPLdPogGm8+E2w6vS8kIM8txwQXuCgB 3qN5PeB94H3gfXiqA7wPvA+8D7wPeY1svhN8J4p8JwbfPOfkzQDY3Np0s8+zvHrK35ckMMjc3zTd hwfOvC0p37Pbd77fcZOPk1JJDF4ducEPh6WeWbx59ve5m92c1Uqjiw9X0aNLHGb/Ff+iDL7JfonC UOi7HmGofp3qycnMXV+feslud/fYnZyErxtegm15IrwftgRED/SwRcBWNLwftvTQPvr93fMBWwwA Wxo9i2ZZs6p4k91/wTAA/DMtkmIdE4DOfxHC/bzHmgHQTxWaKXVqAlxfn6wMYF0Dbnf3xNH5b0Y7 coUABCAAAQiUIYABUIZWw/euG1NpygTAAGiuUlQxAej8N6dXW3IuYgLEGP1vC68uxZlnAqwyAOj8 d6kWUBYIQAACEOg6AQyAlihcZEJlEyYABkC9ClR3SlQZE4DOf75WdfXIz8H+HZYMAPSIX1/WmQDL 9KDzH1+jNEfej+bYL8sZPdDDFgFb0fB+2NIDA8CWHkujKdL5Tx+MbQJgADRfgYqYAHT+m9epTRGs MwEY/W+TktViXWUCLDbg6PxX48tTEIAABCAAgSYJNGIAXPz54G7/GbjT06eu7f7+zO3/NHMHBwM3 euOSf9+QAwQePjl3/NtANkor0w2eI93+buYu3s3c2dnAXV4uf17vOft95jZlI/t7zev4MS/ZGfHi 4sG9eiUJyWkGet18dBKfBCX/vew5LdPl5YM7Px+4q6un/Ha+n+cxGm24snvmlS+1czFNAAyAJl/f p7zXmQB0/m1o1KYoMADapFaYWJeZAFkDgM5/GO6kCgEIQAACEAhNoBEDQDvE539Ih/jHgexAOEg6 +pfvHxJD4OZGDIDRzN3eSkdWjrobfuvc4aGYA/sbyX8XvV690o7/vCu8ygDQ4wa1w35xMXDj9wPZ wGgmZoPk9aPkJY+qAXD6+9fmw7rnDg5mEvPMHR3NjQK9jn97SMp4/Gv+kYjZ8lXp/KfPxzIBMACK 1sjl9/mcErXMBKDzX04fn3qUy9ne3ctMgNij/+jRbL1YNAFSPej8N6tLmjvvhw0d0MOWDuiBHjYJ 2IqqEQPAyej62dlDMhp+crIho+qzpPOdjq5vbs7cw2c1BmZuIL3g83M1AAYyG6Bgl1jSP5FO943M Ghi90eONls8A2NmZiemgRsTcXNC8dHaCjuCrEaHmwNEvAzmP+3m+6567lxMV5uaGjPbLjAI1C8aP 5obG4evSlGJ18tfFjAHgS1E/6WRNADr/fpj2NRULBkBf2Vsqd9YE0A7nxosRu/1bEohYIAABCEAA AiUJNGMASJDb2zI9/0JHygfu5K2MvKdT7zMF2NyayX0yA+DnuTmgzySj+tLB/3LJKPvJ24G7/mtJ 51ruO//jYaUBsLcn6UraOrsgHa0/k/snk7lhMB4/JKaA/qMzAnSGwtWHgVv73J/PlwEkZoFM/9dZ BWWn/6/TEgOgZE3v0e1qAug1uznrUakpaggCWRMg9uh/iPKQZjUCqQmgT3PUXzWGPAUBCEAAAhCw QqAxA0A78advH6Qz7aSD7tyRTo9/nDKfwtF19qdiDugU/kqj5zkGgC41GP34NPNA8z39/SFZlqB5 Zq9XP8zX8e//NHA737m1zx3+osbFfBnA8a+6l4EaHOWm/+dVEAyAPELt+HumcNrSCT2e69G0AYAe Nt4P1WH05iYJZjLZd9O7qezLM7ERXI+j4P2wJT56oIctArai4f2wpUdzBoBw0LXy4/fz6f23t887 3Lpm/vxcRu//Hsgo/vzvdDTd5wyA3dezL/sLZGcA6GZ+ugzg2fW4KaDOANDNAtN9CZY9p51/Xbag Gxrq/+oMhRsph88LA8AnTdKCAARWEVATgNF/6kfyGyxGAB1/6gIEIAABCECg3QQaNQB0rf/lowGg o+7ppevmz2QkfjpVE6DG1PmcGQDpTv6LewBcvHu+i38Sl6R1KfsDXMgUf40r2dV/Ye+A9Ll0LwHt 9O/JHgS+p/9rOBgA7X7xiB4CbSGAAdAWpcLHiQEQnjE5QAACEIAABEITMGcAaOf/9HS+Dv/qSo4B fBiU2v3/GbAlBoCmr6P3l5d6xOB8vb526tNTAHStY9KxlzX/OnU/NSZ03f/x8eNmhBLTqud04z+9 dBmAbm54/ZceLeh3+n/oSlEmfTYBLEPr63tpUNfj5/tp9PBNtF566FGPn++n0cM30XrpoUc9fr6f Rg/fROulhx71+Pl+Gj18E62XnjkDQEfMddp8cuSfbvYn+wLMdKO/k3knvdS1xADQjQV12cHRr/Np +enGgpubYghInie/zfcb0Psu3s3kf+cxTO/mMUzkZAG9Vj2Xxqd/r7MbDg/9T/8vxSDwzRgAgQGT PAQgAAEjBGjAGRGCMCAAAQhAAAI1CDRqANSIm0eNEMAAMCIEYUAAAhAITAADIDBgkocABCAAAQhE IIABEAFyiCzYAyAE1fhp0qCOz3xdjuiBHrYI2IqG9wM9bBGwFQ3vB3rYImArGt4PW3pgANjSo3A0 GACFUXEjBCAAAQh4IEADzgNEkoAABCAAAQg0TAADoGEBqmaPAVCVHM9BAAIQgEAVAhgAVajxDAQg AAEIQMAWAQwAW3oUjgYDoDAq0zfSoLYlD3qghy0CtqLh/UAPWwRsRcP7gR62CNiKhvfDlh7BDYD7 u3tbJe5INHJKoSt5JkJHSk4xIAABCECgCQI04JqgTp4QgAAEIAABvwQwAPzyJDUIQAACEIBApwho x3+4NXSDFwM5oncmx+JO5UjcSafKSGEgAAEIQAACfSGAAdAXpR/LyQiOLcHRAz1sEbAVDe8Hetgi YCsa3g/0sEXAVjS8H+hhi4CtaDAAbOlBNBCAAAQgAAGTBGhQm5SFoCAAAQhAAAKlCGAAlMJl52b2 ALCjBZFAAAIQ6AMBDIA+qEwZIQABCECg6wQwAFqqcFUDgAacLcHRAz1sEbAVDe8HetgiYCsa3g/0 sEXAVjS8H+hhi4CtaDAAbOlROJqqBkDhDLgRAhCAAAQgkCFAg5rqAAEIQAACEGg/AQyAlmqIAdBS 4QgbAhCAQEsJYAC0VDjChgAEIAABCGQIYAC0tDpUNQBowNkSHD3QwxYBW9HwfqCHLQK2ouH9QA9b BGxFw/uBHrYI2IoGA8CWHkQDAQhAAAIQMEmABrVJWQgKAhCAAAQgUIpAZwyAwYtBqYJzc7sIzD7r nAcuCEAAAhBoigAGQFPkyRcCEIAABCDgjwAGgD+WrUhp8M3Azf5rX2e6qwYADWpbrw16oIctAjai 0fdiuDV0arSn3+LxeGwjuB5HwffKlvjogR62CNiKhvfDlh4YALb0IJoVBLpqACA4BCAAgbYQoAHX FqWIEwIQgAAEILCaAAYAtaMVBDAAWiETQUIAAh0mgAHQYXEpGgQgAAEI9IYABkBvpJ4XlCUAtgSn QY0etgjYiob3Az1sEbAVDe8HetgiYCsa3g/0sEXAVjQYALb0IJoVBJgBQNWAAAQg0CwBGtTN8id3 CEAAAhCAgA8CvTAAhkPnxuOZOzgYuMlER8GdOz2dudvbgTt/94Rx77WTe+S+n2Wjo4L75G1/O09r c8u5+zvnjn8bSLpfS7PsvunUufPzmfwzcDc3T89sb8/TPPhp4B4++5C5/WlgALRfQ0oAAQi0mwAG QLv1I3oIQAACEICAEuiFAbC/79zhzzN3dSUd69/nxwVqJ/v8j5nbl072/b1zGy+cu7iYJX+f7Yyv qyYDSeri3UyeG7irv5x79b0YAMdzoyHbcV9332jk3PBbyfet7s4/z01j3XipJoD/ow1ZAmDrxadB jR62CNiKhvcDPWwRsBUN7wd62CJgKxreD/SwRcBWNJ03ALTzrR398YeBjKg/dc51FsDxbzP38Elm AZw7t/fGud3dmTv+9akjnieVjuqfvJ2nqTMGNM0vI/ofn55ed9/9J+fOzh7jepA01FRQI0I6/zpb gWtOgBkA1AQIQAACzRKgQd0sf3KHAAQgAAEI+CDQeQNAp/+f/T5zh4cDGd2fSWf7qWOtf6cj+EdH A3dyIp3/x+n7yXR9uVc7418uGZ0/kVH67OyAV6/mo/Wadjp6r+lMJgNZcvD06Lr7dFZCdhlAmjfT /59XbwwAH687aUAAAhCoTgADoDo7noQABCAAAQhYIdB5A0Cn/w+35h3//Z9kzcPL+TR/vXTE/ujI udGPj8sDMtPwiwi0uyvPjp7PGtAlAPd3A3fx51MKefdpjNvb82UABweyHGHjKcYicZS5hyUAZWiF v5cGdXjGZXJAjzK0wt+LHuEZl8kBPcrQCn8veoRnXCYH9ChDK/y96BGecZkc0KMMrfD3dtoASKf/ J5vsyZT8dCO+7Br9oWzed3k53wtAN+XTq8wMAN008OiX5zMAbv8ZuMv3T+LpDIB19yWzFGQZgM4k 0NkKalAw/f955WcGQPiPATlAAAIQWEZAG27DraHsTbMhy+Ye3PRu6iYfWaNGbYEABCAAAQi0kUCn DYB0+n/a4U8348t2sDc25gaATrnX9fhlrpVr+98t7Oq/aq+Ax/tSo+L6epDMKFjcRLBMTF29FwOg q8pSLghAoC0EGMFpi1LECQEIQAACEFhNoNMGQDK1XnbY17X76XX4s06x1zX+8z+pYwCkHffLy/kp ADs7kq5sCqizCXRTQM1f1/g/yOZ+uhHhsvv07/RKTio4lKUIsllhGluIissSgBBUq6dJg7o6uxBP okcIqtXTRI/q7EI8iR4hqFZPEz2qswvxJHqEoFo9TfSozi7Ek+gRgmr1NDttAGine29PdpCXznh6 aad98o92uOed9DoGgKapswy00z+UUf4HmUGgGwnq9P3NTZlZ8KcsD5BTBfS/V92XxqV/P34vo/8/ M/1/WXVmBkD1l5wnIQABCPggQAPOB0XSgAAEIAABCDRLoNMGQLNoyd0nAQwAnzRJCwIQgEB5AhgA 5ZnxBAQgAAEIQMAaAQwAa4oEjoclAIEBl0yeBnVJYIFvR4/AgEsmjx4lgQW+HT0CAy6ZPHqUBBb4 dvQIDLhk8uhREljg29EjMOCSyWMAlATG7c0QYAZAM9zJFQIQgEBKgAYcdQECEIAABCDQfgIYAO3X sBclwADohcwUEgIQMEwAA8CwOIQG/3JpfAAAIABJREFUAQhAAAIQKEgAA6AgqK7cxhIAW0rSoEYP WwRsRcP7gR62CNiKhvcDPWwRsBUN7wd62CJgK5rOGAC2sBINBCAAAQhAoFsEaFB3S09KAwEIQAAC /SQQ3ADYlPPwJh/lHDy5so0H/h0m1AHqAHWAOkAdsF8HRqNR8hs+eCHn6Mp1e3ub/K6jnX3t0AiN qAPUAeoAdWDRwA9uANzf3ffTWjFaakZwbAmDHuhhi4CtaHg/0MMWAVvR8H6ghy0CtqLh/UAPWwRs RYMBYEsPooEABCAAAQiYJECD2qQsBAUBCEAAAhAoRQADoBQuboYABCAAAQj0kwAGQD91p9QQgAAE INAtAhgA3dIztzQ04HIRRb0BPaLizs0MPXIRRb0BPaLizs0MPXIRRb0BPaLizs0MPXIRRb0BPaLi zs0MPXIRRb0BAyAqbjKDAAQgAAEItJMADbh26kbUEIAABCAAgSwBDADqAwQgAAEIQAACuQQwAHIR cQMEIAABCEDAPAEMAPMS+Q2QBpxfnnVTQ4+6BP0+jx5+edZNDT3qEvT7PHr45Vk3NfSoS9Dv8+jh l2fd1NCjLkG/z6OHX551U8MAqEuQ5yEAAQhAAAI9IEADrgciU0QIQAACEOg8AQyAzktMASEAAQhA AAL1CWAA1GdIChCAAAQgAIGmCWAANK1A5PxpwEUGnpMdeqCHLQK2ouH9QA9bBGxFw/uBHrYI2IqG 9wM9bBGwFQ0GgC09iAYCEIAABCBgioA2pIdbQzd4MXCzz7MktvF4bCpGgoEABCAAAQhAoBgBDIBi nLgLAhCAAAQg0GsCjKj1Wn4KDwEIQAACHSGAAdARIYsWgwZcUVJx7kOPOJyL5oIeRUnFuQ894nAu mgt6FCUV5z70iMO5aC7oUZRUnPvQIw7normgR1FSce7DAIjDmVwgAAEIQAACrSZAA67V8hE8BCAA AQhAICGAAUBFgAAEIAABCEAglwAGQC4iboAABCAAAQiYJ4ABYF4ivwHSgPPLs25q6FGXoN/n0cMv z7qpoUddgn6fRw+/POumhh51Cfp9Hj388qybGnrUJej3efTwy7NuahgAdQnyPAQgAAEIQKAHBGjA 9UBkiggBCEAAAp0ngAHQeYkpIAQgAAEIQKA+gawBcPXXPL29186l/+7jvxej9J2+j/TqkyQFCEAA AhCAQHMEMACaY99IzozgNIJ9ZabogR62CNiKhvfDrh4YAM1rw/vRvAbZCNADPWwRsBUN74ctPTAA bOlBNBCAAAQgAIG1BLIj7stu1FHuuteqDv6qdH2MrGfz1Hx8zizwGV+WgQ/WdbXieQhAAAIQgEAZ AhgAZWhxLwQgAAEIQKBhAhgA/pcelDUI0iqAAdDwy0D2EIAABCBQmgAGQGlk7X6AKTi29EMP9LBF wFY0fXg/8jrzqxRZ1fFcTC+9b9Xo+mLHd11+i2nYqi3xoymi3SL/0FEWMTJCx9DX9PvwvWqTtuhh Sy30sKUHBoAtPYgGAhCAAAQ6TKBMp7EuhiJ5ZUey8zr4NODKKVKGfzblPHMnz9TRtPKMgHIlebo7 L+9Vf181P56DAAQgAAH/BDAA/DMlRQhAAAIQgMBSAkU6hb6mlRfJCwMgXEUtwx8DIJwOpAwBCEAA As8JYAD0rEYwgmNLcPRAD1sEbEXThfdjWSfQVwc/tlpd0CM2s5D5hdZj3aaMocqVN3PB8rsTWo9Q zLuaLnrYUhY9bOkR3ADY3Nx0k48Tb6X2XYFIr5408INfGQLUlzK0vr4Xfu3jV8YAsK7vaDRy4/G4 ngiZp62Xt+/xdd0A6Lu+dV9k+NUjCD/4lSHgu74ENwDu7+7LlI97IQABCEAAAlEJVJ2qXTRIy6OW Rcug9/lugJTJm3u7SWDVcZN5MwGq0sim25X3sioLnoMABPpLAAOgZ9rTgLMlOHqghy0CtqKJ9X5g ABTTPZYexaLhri7o0SUDoAt6dOmtQg9baqKHLT0wAGzpQTQQgAAEIOCZwKpORjabIiOD647S8xyy yeRowJmUhaAeCeS9nz6MvmUzEzT7vBM0EAkCEICAJQIYAJbUIBYIQAACEPBCYF1jn6m/1RBjAFTj xlPtJLBuD4RFI6BqCfOWOvCtqkqW5yAAgXUEMAB6Vj9owNkSHD3QwxYBW9HUeT8wAPxpqToMt4Zu 8GLgZp9nbno39bq5r79I+5VSnfejX6SqlRYDoBo3K0/xflhRYh4HetjSAwPAlh5EAwEIQAACFQiU 2W2/QvI8QgOOOgCB2gSa3PNAg09nFLBkobaUJACBVhPAAGi1fAQPAQhAAAJKAAMgfD1gBCc8Y3Lo NgEMgG7rS+kg0BYCGABtUcpTnDTgPIH0lAx6eALpKRn08ATSUzKr9Fg1vZ/1sp7Ar0iG9yMs37Kp o0dZYmHvb0KPdRsfZr+TIfcsCEu1eupN6FE92u4/iR62NMYAsKUH0UAAAhCAwBICi53+Irv2A9Iv ARpwfnmSGgTaRKDvhkKbtCJWCOQRwADII8TfQwACEIBA4wQwABqXgE2cmpeACCDQGAEMgMbQkzEE vBPAAPCO1HaCjODY0gc90MMWARvR5J3XzVT/ZnTie9UM91W5ogd62CJQLpoihkKdbz3vRzk9Qt+N HqEJl0sfA6AcL+6GAAQgAIHABDAAAgOumDwNuIrgeAwCEPiKQGgDAOQQgMBqAhgA1A4IQAACEGic AFP8G5cgNwAMgFxE3AABCHgikGcEe8qmVjKLmysu+2/NYNnpD3VmN9QKmochIAQwAHpWDWjA2RIc PdDDFoHmosEAaI590Zz5XhUlFec+9IjDuWgu6FGUVLH7MACKcWrLXbwftpTCALClB9FAAAIQ6BWB ZY08RkZsVQFtuA23hm7wYuBmn2dJcOPx2FaQRAMBCPSKwLojEBXE4t8vwin796vy03TzZgL4EiYv Hx9/X4Sdr/KQTnMEMACaY0/OEIAABHpJYNlofy9BtKzQjOC0TDDChQAEWkugjuFQ1wgoCq1uPkWe LxoL95UjgAFQjlfr76YBZ0tC9EAPWwTiRFPUAOD9iKNH0VzQoyipOPehRxzORXNBj6Kk4tzXdj0w AOYzK7jCEMAACMOVVCEAAQhAIEOgaKcfaHYJtL1BbZcskUEAAhCwTaANhkRZgmU2bdS0U0Mib/lJ 2TiauB8DoAnq5AkBCECgZwQwANovOAZA+zWkBBCAAASqEMAAwAAoXG+WuQuFH+bGIARowAXBWjlR 9KiMLsiD6OEf6+JZz2VyQI8ytMLfix7hGZfJAT3K0Ap/L3qEZ1wmB/QoQyv8vdb0WGybrDt1YnGm QHhay3MoMmNBnywyQ4EZAE2pSL4QgAAEOkqA0f5uCmutAddNypQKAhCAAAQg8JxAGcOiCLuDg013 f3f/7Nb/yX/9X5GH8+5hBkAeIf4eAhCAQPcIYAB0T1MtEQZAN3WlVBCAAAQgYJsABoBtfcxHRwPO lkTogR62CFSLZtnUOR+79/J+VNMj1FPoEYpstXTRoxq3UE+hRyiy1dJFj2rcQj2FHqHIVkt37RKA 2X/lEx188/QMMwDK8+MJCEAAAm0jEMoAaBuHrsdLA67rClM+CEAAAhDoA4GVBkCVzn8KLDUBMAD6 UIUoIwQg0GcCi5vN9JlF18uOAdB1hSkfBCAAAQj0gUCuATD717mLC9lR8Ma5xBR46dzo2LnD7x/x 3Dl38rNzG+fOHQ3nf5Y1ADY3N93k4yT582zjgX9vhonqoHrAvxn+i++C6pBqwjuy0/i3YjQaufF4 zPdK6uW67/biiP/xcRjt+F7Z+N3U90KvjZcbbjabudvbW35Hct6RGN9zvlc2fsdTrfle2fhepe1b 2ldhfper9un4Xtn5Xum3aq0BMPvHuYNfndv/XTr93z12+B+cux/Ig/KPmgMn8vfyr27jbLkBsLjD YB9cFcoIAQhAoMsE2OSvy+quLhszAPqpO6WGAAQgAIFuEVhtAMycuzxwbiqj/cdp53+h7Lcy6n/7 2rlt+d+rX1YbAOvOVuwWTkoDgfAEfGyuFj5KcugaATr9XVO0fHkwAMoz4wkIQAACEICANQKrDQA5 GvBApvafXDo31CH+NdetzALAALAmLfF0lQAGQDhl6eCsZtuEAYAe4ep6lZTRowq1cM+gRzi2VVJG jyrUwj2DHuHYVkkZPapQC/fMagNgKgaAjP6fXsh0/8zO/stCWTQA9B7dB0ATv7gQJ0GutNOyuGEU /z0nCp85B+pDfn3AAAj3QSTlrwmwwz+1IiVAA466AAEIQAACEGg/gSAzAFIswyEGAB3a/A4tBkg5 AwgDoP0f3jaVAAOgTWqFjRUDICxfUocABCAAAQjEILB2D4CLfdno763s+L+9PpR1MwDYBDCGjMXz oAFXnFWMO8vqwZFrYVUpq0fYaJpLvYnp/stKix7N1QH0sMUePdDDPgFbEfL7gR62CNiKZu0pAA9/ ywkAp7K5n5wCsJeaALI54Eym96dH/Wlx8vYAsFVkooFAuwlgArRbP+vRZ+sXdc26WnHjo0Edlze5 QQACEIAABEIQWGsAaIYPH507f+fctRz5l1wvZUaAHPk32nwKBwMghDSkCYHlBOiUUTNCEsAACEm3 3WljALRbP6KHAAQgAAEIKIFcA6AKpnR2wLLEq6THM/4I0IDzx9JHSlX10E4aewH4UOB5GlX18B9J /BSz0/6t1K0+6xG/BuTniB75jGLegR4xaefnhR75jGLegR4xaefnhR75jGLegQEQkzZ5QcATAQwA TyBJ5gsBiwYA8tggoA234dbQDV4M3OzzzE3vpm7ycWIjOKKAAAQgAAEIQKAUgZUGgKYy+69UWsnN 2b0BmAFQnh9PQKAIAQyAIpS4pwgBOv5FKHGPEmAEh3oAAQhAAAIQaD+BtQZA3eJhANQl6P95GnD+ mdZJsaoeGAB1qK9+tqoeYaIJm2obOv590iOs2n5SRw8/HH2lgh6+SPpJBz38cPSVCnr4IuknHfTw w9FXKhgAvkiSDgQiEsAAiAi7o1m1wQDoKPrWFosGXGulI3AIQAACEIDAFwIYAFQGCLSQAAZAC0Uz EjIdfyNCtDAMDIAWikbIEIAABCAAgQUCGAA9qxI04GwJXlUPDIAwOlbVI0w0YVJtkwHQBz3CqBwm VfQIw7VqquhRlVyY59AjDNeqqaJHVXJhnkOPMFyrpooBUJUcz0GgQQLZs9obDIOsW0SgTR3/FmHt Vag04HolN4WFAAQgAIGOEsAA6KiwFKvbBDAAuq1viNJhAISg2q80MQD6pTelhQAEIACBbhLAAOim ritLRQPOluB19GAZgH8t6+jhPxo/Kba5499FPfyo2kwq6NEM91W5ogd62CJgKxreD/SwRcBWNBgA tvQgGggUJoABUBhVL29sc8e/l4K1oNA0qFsgEiFCAAIQgAAEcghgAFBFINBSAhgALRUuUtgYAJFA 9yAb7fgPt4Zu8GLgZp9nSYnH43EPSk4RIQABCEAAAt0jgAHQPU3XlogRHFuC19EDA8C/lnX08B9N vRS7YAB0SY96atp4Gj1s6JBGgR7oYYuArWh4P9DDFgFb0WAA2NKDaCBQmAAGQGFUvbyxCwZAL4Uz XGga1IbFITQIQAACEIBAQQIYAAVBcRsErBHAALCmiI146Pjb0KGLUWAAdFFVygQBCEAAAn0jgAHQ M8VpwNkSvI4eGAD+tayjh/9oyqXYxY5/m/Uop1477kYPWzqhB3rYImArGt4P9LBFwFY0GAC29CAa CBQmgAFQGFUvbuyiAdAL4VpUSBrULRKLUCEAAQhAAAIrCGAAUDUg0FICaYdv73VLC0DYXgjQ8feC kUQKEMAAKACJWyAAAQhAAALGCWAAGBfId3g04HwTrZdeHT0wAOqxX/Z0HT38R1MsxS4bAG3Uo5hq 7bwLPWzphh7oYYuArWh4P9DDFgFb0WAA2NKDaCBQigDLAErh6tTNXe74d0qoDhWGBnWHxKQoEIAA BCDQWwIYAL2VnoJ3gQAGQBdUrFYGDIBq3HiqOgEMgOrseBICEIAABCBghQAGgBUlIsVBAy4S6ILZ 1NUDA6Ag6IK31dWjYDZebuuD9m3Sw4uoRhNRHYZbQ7fxcsM9fHpw07upm3ycGI22P2HxftjSGj3Q wxYBW9HwftjSAwPAlh5EA4FSBPrQCSwFpAc3M/LfA5GNFpEGnFFhCAsCEIAABCBQggAGQAlY3AoB awQwAKwpEj4eDIDwjMlhOQEMAGoGBCAAAQhAoP0EMADar2GpEtCAK4Ur+M119cAA8CtRXT38RvM8 tT52/C3rEVJrq2mjhy1l0AM9bBGwFQ3vB3rYImArGgwAW3oQDQRKEcAAKIWr1Tf30QBotWAdDJ4G dQdFpUgQgAAEINA7AhgAvZOcAneJAAZAl9RcXZa087/3uh/lpZQ2CWAA2NSFqCAAAQhAAAJlCGAA lKHVgXtpwNkSsa4eGAB+9ayrh99o5qn1ufNvUY8QGrclTfSwpRR6oIctArai4f1AD1sEbEWDAWBL D6KBQCkCGAClcLXy5j4bAK0UrMNB06DusLgUDQIQgAAEekMAA6A3UlPQLhLAAOiiqs9H/vW/mPrf XZ3bVDIMgDapRawQgAAEIACB5QQwAHpWM2jA2RK8rh4YAH71rKuHz2jY9M85S3r41LataaGHLeXQ Az1sEbAVDe8HetgiYCsaDABbehANBEoRwAAohas1NzPtvzVS9SpQGtS9kpvCQgACEIBARwlgAHRU WIrVDwIYAN3Tmc5/9zRte4m04z/cGrrBi4GbfZ656d3UTT5O2l4s4ocABCAAAQj0kgAGQM9kZwTH luB19cAA8KtnXT18RIMB8ETRgh4+NO1KGuhhS0n0QA9bBGxFw/uBHrYI2IoGA8CWHkQDgVIEMABK 4TJ9M2v+TctDcEKABjXVAAIQgAAEINB+AhgA7deQEvSYAAZAd8THAOiOll0tCQZAV5WlXBCAAAQg 0CcCGAB9UpsRHHNq121QYwD4lbSuHnWiQcuv6TWpRx0tu/osethSFj3QwxYBW9HwfqCHLQK2osEA sKUH0UCgFAE6jaVwmb4ZLU3LQ3AYyNQBCEAAAhCAQCcIYAB0QkYK0VcCdBrbrzxT/9uvYV9KwIha X5SmnBCAAAQg0GUCGABdVndJ2WjA2RK8rh7sGO9Xz7p6VIkGE2c1tSb0qKJhX55BD1tKowd62CJg KxreD/SwRcBWNBgAtvQgGgiUIoABUAqXyZsxAEzKQlAYyNQBCEAAAhCAQCcJYAB0UlYK1ScCdCDb qTZT/9upW5+jZkStz+pTdghAAAIQ6AqB4AbA5uamm3ycJLyyjQf+vRkmqoPqAf9m+C++C6pDqknV d+T0dOL2XvN++fjOjEYjNx6Po3yvsgbA8fEO38klvxF8r2y81/pe6DV4MUj+d/Z5lrwn/I40+zsS 83uF1vla872y8b1K66qP9pWPdgXvzvzd4XuV/w2JVd9Uj+AGwP3dfVfMEsoBAZMEmAFgUpaVQTHy 3y69iPaJADMAqA0QgAAEIACB9hPAAGi/hpSg5wQwANpVAdCrXXoRLQYAdQACEIAABCDQJQIYAF1S s0BZGMEpACniLT70oEPpTzAfeuRFg155hOhwFicU984Y70fcErU7N/SwpR96oIctArai4f2wpQcG gC09iAYCpQnQoSyNrJEHmPrfCHYy9UiABpxHmCQFAQhAAAIQaIgABkBD4MkWAr4IYAD4Ihk2HQyA sHxJPTwBDIDwjMkBAhCAAAQgEJoABkBowsbSpwFnSxAfemAA+NPUhx6rokGn8jqF1KN8NDyBHrbq AHqghy0CtqLh/UAPWwRsRYMBYEsPooFAaQJ0LEsja+QBdGoEO5l6JECD2iNMkoIABCAAAQg0RAAD oCHwZAsBXwToWPoiGSYdpv6H4Uqq8QlgAMRnTo4QgAAEIAAB3wQwAHwTNZ4eDThbAvnQAwPAn6Y+ 9MhGk3b+9177i7FPKfnWo0/sQpQVPUJQrZ4melRnF+JJ9AhBtXqa6FGdXYgn0SME1eppYgBUZ8eT EDBBAAPAhAxLg8AAsKsNkRUnoA234dbQbbzccA+fHtz0buomHyfFE+BOCEAAAhCAAATMEMAAMCMF gUCgGgEMgGrcQj9F5z80YdKPTYARnNjEyQ8CEIAABCDgnwAGgH+mplOkAWdLHh96YAD409SHHmk0 GAD1dfGpR/1oSAE9bNUB9EAPWwRsRcP7gR62CNiKBgPAlh5EA4HSBDAASiOL8gC6RMFMJhEJ0KCO CJusIAABCEAAAoEIYAAEAkuyEIhFgI5mLNLF8mHX/2KcuKt9BDAA2qcZEUMAAhCAAAQWCWAA9KxO 0ICzJbgPPTAA/GnqS480Inb/r6eNDz3qRcDTWQLoYas+oAd62CJgKxreD/SwRcBWNBgAtvQgGgiU JsBa89LIgjzAyH8QrCRqiAANakNiEAoEIAABCECgIgEMgIrgeAwCVghgANhQAgPAhg5EEY4ABkA4 tqQMAQhAAAIQiEUAAyAWaSP50IAzIsRjGL70YBmAH13r6IEGfjTIplJHD//RkCJ62KoD6IEetgjY iob3Az1sEbAVDQaALT2IBgKVCND5rITN60No4BUniRkkQIPaoCiEBAEIQAACEChJAAOgJDBuh4BF AnQ+m1OFqf/NsSfnOAS04z/cGrrBi4GbfZ656d3UTT5O4mROLhCAAAQgAAEIeCWAAeAVp/3EGMGx pZEvPTAA/OhaRQ/Y+2G/LJUqeoSLhpTRw1YdQA/0sEXAVjS8H+hhi4CtaDAAbOlBNBCoRIBOaCVs Xh6CvReMJNICAjSoWyASIUIAAhCAAARyCGAAUEUg0AECdELji8jU//jMybFZAhgAzfIndwhAAAIQ gIAPAhgAPii2KA0acLbE8qUHBoAfXcvogQHgh/m6VMroET4ackAPW3UAPdDDFgFb0fB+oIctArai wQCwpQfRQKASAQyASthqPQTzWvh4uIUEaFC3UDRChgAEIAABCCwQwACgSkCgAwTojMYVMR3933sd N19yg0CTBDAAmqRP3hCAAAQgAAE/BDAA/HBsTSo04GxJ5UsPDAA/uhbVAwPAD++8VIrqkZcOf++H AHr44egrFfTwRdJPOujhh6OvVNDDF0k/6aCHH46+UsEA8EWSdCDQIAEMgDjwWfcfhzO52CRAA86m LkQFAQhAAAIQKEMAA6AMLe6FgFECGABxhMEAiMOZXGwSwACwqQtRQQACEIAABMoQwAAoQ6sD99KA syWiLz0wAPzouk4Ppv37YVwmFV/vR5k8uXc1AfSwVTvQAz1sEbAVDe8HetgiYCsaDABbehANBCoR wACohK3UQzAuhYubO0RAG9LDraEbvBi42edZUrLxeNyhElIUCEAAAhCAQH8IYAD0R2tK2mECdE7D iwvj8IzJwTYBRtRs60N0EIAABCAAgSIEMACKUOrQPTTgbInpSw86p350XaYH6/79sK2Siq/3o0re PPM1AfSwVSvQAz1sEbAVDe8HetgiYCsaDABbehANBCoRwACohK3QQxgAhTBxUw8I0KDugcgUEQIQ gAAEOk8AA6DzElPAPhDAAAinMmzDsSXldhHAAGiXXkQLAQhAAAIQWEYAA6Bn9YIGnC3BfelBJ9WP rquWAOy99pM+qZQj4Ov9KJcrd68igB626gZ6oIctArai4f1AD1sEbEWDAWBLD6KBQCUCHFFXCdva h5j6758pKbabAA3qdutH9BCAAAQgAAElgAFAPYBARwgwC8CvkPD0y5PU2k8AA6D9GlICCEAAAhCA AAZAz+oADThbgvvUgw5rfW2zesCzPs+6Kfh8P+rGwvPOoYetWoAe6GGLgK1oeD/QwxYBW9FgANjS g2ggUJkAHdbK6J49yNR/PxxJpXsEaFB3T1NKBAEIQAAC/SOAAdA/zSlxRwlgAPgRFgPAD0dS6Q4B 7fgPt4Zu4+WGe/j04KZ3Uzf5OOlOASkJBCAAAQhAoEcEMAB6JLYWlREcW4L71AMDoL62qsfp6cSx 6399lj5S8Pl++Iin72mgh60agB7oYYuArWh4P9DDFgFb0WAA2NKDaCBQmQAGQGV0yYOM/Nfjx9Pd J0CDuvsaU0IIQAACEOg+AQyA7mtMCXtCAAOgntAYAPX48XT3CWAAdF9jSggBCEAAAt0ngAHQfY2f lZAGnC3BfeqBAVBPW+V3fLzD2uZ6GL0+7fP98BpYTxNDD1vCowd62CJgKxreD/SwRcBWNBgAtvQg GghUJoABUBld8iD86vHj6e4ToEHdfY0pIQQgAAEIdJ8ABkD3NaaEPSFAB7aa0Ez9r8aNp/pHAAOg f5pTYghAAAIQ6B4BDIDuabq2RDTgbAnuUw8MgGraZg0AlgBUYxjqKZ/vR6gY+5QuethSGz3QwxYB W9HwfqCHLQK2ogluAGxubnpdUzsajdx4PPZG0fcHwnd6lLee1L718J2eT31DrGG3XF6tGT7iyxon PtLL1lif+voqbzY+ylvv+9I3ffd/2neXf17Wg5Z52nf9851e3/SlvPWqtu/65zs99EXfMgR81z/f 6VGfy6j59b3BDYBX37/y2mH3LTjp1atA8LPDTzuy53/4Nci6rm86+r/3eq5j18u7WFspr533tw31 z7cBQP2j/pUhQH0pQ+vre+EHvzIEqC9laLXvfQtuAOzu7rrb29t6FDNPb29vm05vZ0d2EZ9MzJbX d3y+0+ubvj75nZ5O3MXFvtf3w2d8+lJY01eZ6aVT//VSw/Lm443Z99c3P+v6+o7Pd3q+9fCdnq/y DreGbvBi4DZebLiHzw9u9nnmpnfT2u+J1fKmBfMdn+/0+F7Vq4K+9fD1vqWl8p2e7/L6Ts93eX2n Z728vuPznR7fK1vfq/v7e3d/d/8sqP/Jf/1fvTDnT6u7wAyAeiRx4OBXlAAzAIqSmt+3OPqvf8b7 Vo7h4t3w6zY/ZgB0W1/eX/RLyZRbAAAgAElEQVQtQ4D6UobW1/fCD35lCPiuL8FnAGAAlJGXD4Tv Ct6n9DAAyr1rGAAYHuVqDN9nDIB6NaZPv0cYqvXqCvzgV5YA35eyxJ7f3zd+wQ0A35sA+t5Eom/p +a7gfePnu7w+9WjDJoC++dVJb9mpCT710J+WOvEt+ynrW3roUa9B47u+oAd6lCHgu/5ZT4/3o0zt +Ppe3/qiB3qUIeC7/llPL7gBsLi+oIwY3AsBCBQnsGxEu/jT/bkze+xfuvlff0pPSSFQnYDvBk31 SHgSAhCAAAQgAIGqBDAAqpLjOQgYI4ABUEwQDIBinLgLAosEMACoExCAAAQgAIH2E8AAaL+GpUpA A64UruA3+9Zj2bT24IVoUQZ5JolvPVqExmSo6GFLFvRAD1sEbEXD+4EetgjYiob3w5YeGAC29CAa CNQigAGwHl+eAVALPg9DoOMEaMB1XGCKBwEIQAACvSCAAdALmSlkXwhgAKxWms5/X94CyhmKAAZA KLKkCwEIQAACEIhHAAMgHmsTOdGAMyHDlyB864EBUM8A8K2HrdrWvmjQw5Zm6IEetgjYiob3Az1s EbAVDe+HLT0wAGzpQTQQqEUAA+BrfGz6V6tK8TAEkuMsh1tDN3gxcLPPs4TIeDyGDAQgAAEIQAAC LSSAAdBC0QgZAqsIYAAsNwA47o93BgL1CTCCU58hKUAAAhCAAASaJoAB0LQCkfOnARcZeE52vvXA AKhnAPjWw1Zta1806GFLM/RAD1sEbEXD+4EetgjYiob3w5YeGAC29CAaCNQigAHwhI+p/7WqEg9D 4CsCNOCoFBCAAAQgAIH2E8AAaL+GlAACXwhgAGAA8DpAIBQBDIBQZEkXAhCAAAQgEI8ABkA81iZy ogFnQoYvQfjWAwPguQFQdu2/bz1s1bb2RYMetjRDD/SwRcBWNLwf6GGLgK1oeD9s6YEBYEsPooFA LQIYAM4x9b9WFeJhCKwkQAOOygEBCEAAAhBoPwEMgPZrSAkg8IUABgAGAK8DBEIRwAAIRZZ0IQAB CEAAAvEIYADEY20iJxpwJmT4EoRvPTAA5gZA2an/qSC+9bBV29oXDXrY0gw90MMWAVvR8H6ghy0C tqLh/bClBwaALT2IBgK1CNTp/NbK2NDDMDAkBqF0igANuE7JSWEgAAEIQKCnBDAAeio8xe4mgb53 ftP1/1VnAHSzVlAqCPghgAHghyOpQAACEIAABJokgAHQJP0G8qYB1wD0NVn61qPPBoCPzr9vPWzV tvZFgx42NFMdhltDt/Fywz18enDTu6mbfJzYCK7HUfB+2BIfPdDDFgFb0fB+2NIDA8CWHkQDgVoE MACqr/+vBZ6HIdADAjTgeiAyRYQABCAAgc4TwADovMQUsE8EfIyCt40Xx/61TTHibSsBDIC2Kkfc EIAABCAAgScCGAA9qw004GwJ7lsPDIB6+vrWo140PI0etuoAeqCHLQK2ouH9QA9bBGxFw/thSw8M AFt6EA0EahPo2zKAvpW3dgUhAQhUJEADriI4HoMABCAAAQgYIoABYEgMQoGADwJ96xD3rbw+6ghp QKAKAQyAKtR4BgIQgAAEIGCLAAaALT2CR0MDLjjiUhmE0KNPHWLfSx5C6FGqQnDzMwLoYatCoAd6 2CJgKxreD/SwRcBWNLwftvTAALClB9FAoDaBvhgAvjv/tcGTAAQ6ToAGXMcFpngQgAAEINALAhgA vZCZQvaJAAZAn9SmrBCIRwADIB5rcoIABCAAAQiEIoABEIqs0XRpwNkSJoQefTIA9l771TOEHn4j 7Fdq6GFLb/RAD1sEbEXD+4EetgjYiob3w5YeGAC29CAaCNQmgAFQGyEJQAACGQLacBtuDd3gxcDN Ps/c9G7qJh8nMIIABCAAAQhAoIUEMABaKBohQ2Adga4bAOnaf2XgewYANQsCEFhNgBEcagcEIAAB CECg/QQwANqvYakS0IArhSv4zSH06IMBEKrjH0KP4JWowxmghy1x0QM9bBGwFQ3vB3rYImArGt4P W3pgANjSg2ggUJsABkBthCQAAQgsIUADjmoBAQhAAAIQaD8BDID2a0gJIPCMQFcNAKb+U9Eh0CwB DIBm+ZM7BCAAAQhAwAcBDAAfFFuUBg04W2KF0AMDoLrGIfSoHg1PooetOoAe6GGLgK1oeD/QwxYB W9HwftjSAwPAlh5EA4HaBNKR8lDr5GsHWDGBrhobFXHwGASiE6ABFx05GUIAAhCAAAS8E8AA8I6U BCHQLAEMgGb5kzsEukoAA6CrylIuCEAAAhDoEwEMgD6pLWWlAWdL8FB6dGm0POba/1B62Kp17YkG PWxphR7oYYuArWh4P9DDFgFb0fB+2NIDA8CWHkQDAS8EMAC8YCQRCEAgQ4AGHNUBAhCAAAQg0H4C GADt15ASQOArAhgAVAoIQMAXAe34D7eGbvBi4GafZ0my4/HYV/KkAwEIQAACEIBARAIYABFhW8iK ERwLKjzFEEqPrhkAsTY0DKWHrVrXnmjQw5ZW6IEetgjYiob3Az1sEbAVDe+HHT1m/zk3HG66+7v7 Z0H9T/7r/3yEucxd8JEuaUAAAusJYABQQyAAAd8EaMD5Jkp6EIAABCAAgXgEtPOvFwZAPObkBIFo BLpgAMTc/C+aMGQEgRYTwABosXiEDgEIQAACvSaQdv4xAHpYDWjA2RI9lB5dMQBiTf1Pa0UoPWzV uvZEgx62tEIP9LBFwFY0vB/oYYuArWh4P5rVI9v5xwBoVgtyh0AwAhgAwdCSMAR6S4AGXG+lp+AQ gAAEINBSAoudfwyAlgpJ2BDII9BmA4Cp/3nq8vcQaIYABkAz3MkVAhCAAAQgUIXAss4/BkAVki1/ hgacLQFD6YEBUE3nUHpUi4an0MNWHUAP9LBFwFY0vB/oYYuArWh4P+LrsarzjwEQXwtyhEAUAm03 AGKv/Y8iCplAoOUEaMC1XEDChwAEIACBXhBY1/nHAOhFFaCQfSSAAdBH1SkzBMISwAAIy5fUIQAB CEAAAnUJ5HX+oxgAm5ubbvJxkpQl23jg35thojqoHvBvhv/iu6A6pJr4fEeyBkCbtD49netyfLzT yHdjNBq58XjM90rqpYXvNt8rG7+b+l7otfFyw81mM3d7e8vviIF3hO+Vjd/x9Leb75WN71Xa5gnV vmpTm8rC73gaA9+ruN+rPBNgONx093f3z7yG/8l//V9d90Gf39z6OnEf6ZIGBCCwnkC6kV6bptK3 MWbqIQT6RIAZAH1Sm7JCAAIQgECbCbAHQJvVI3YIVCDQxs50G2OuIA2PQKC1BDAAWisdgUMAAhCA QA8JcApAD0VfVmQacLYqQkg92rQPgJXOf0g9bNW8dkSDHrZ0Qg/0sEXAVjS8H+hhi4CtaHg/mtNj mQnAEoDm9CBnCAQlgAEQFC+JQ6B3BGjA9U5yCgwBCEAAAh0gsGgCYAB0QFSKAIFlBNpiAFgZ/acW QQAC6wlgAFBDIAABCEAAAu0kkDUBMADaqWHlqGnAVUYX5MGQerTJALCyWWFIPYJUoI4nih62BEYP 9LBFwFY0vB/oYYuArWh4P2zokZoAGAA29CAKCHgngAHgHSkJQqDXBGjA9Vp+Cg8BCEAAAh0hsOyk Po4B7Ii4FKPfBNpgADD9v991lNK3iwAGQLv0IloIQAACEIDAMgIYAD2rFzTgbAkeUg8MgPJah9Sj fDQ8gR626gB6oIctArai4f1AD1sEbEXD+2FLDwwAW3oQDQS8EbBuADD6701qEoJAFAI04KJgJhMI QAACEIBAUAIYAEHxkjgEmiNgvYNt3aBoTjlyhoAtAtrxH24N3eDFwM0+z9z0buomHye2giQaCEAA AhCAAAQKEcAAKISpOzcxgmNLy5B6YACU1zqkHuWj4Qn0sFUH0AM9bBGwFQ3vB3rYImArGt4PW3pg ANjSg2gg4JWAxVH21JjQglo5/s8rdBKDQEcJ0IDrqLAUCwIQgAAEekUAA6BXclPYvhHAAOib4pQX AuEIYACEY0vKEIAABCAAgVgEMABikTaSDw04I0I8hhFaD6sGgNWR/9B62Kp99qNBD1saoQd62CJg KxreD/SwRcBWNLwftvTAALClB9FAwCsBDACvOEkMAr0mQAOu1/JTeAhAAAIQ6AgBDICOCEkxILCM gCUDgLX/1FEItJsABkC79SN6CEAAAhCAgBLAAOhZPaABZ0vw0HpYMwCsTv1Pa0VoPWzVPvvRoIct jdADPWwRsBUN7wd62CJgKxreD1t6YADY0oNoIOCVAAaAV5wkBoFeE6AB12v5KTwEIAABCHSEAAZA R4SkGBBYRsCCAcDUf+omBLpBAAOgGzpSCghAAAIQ6DcBDICe6U8DzpbgofXAACind2g9ykXD3ehh ow6oDsOtoRu8GLjZ51kS1Hg8thFcj6Pg/bAlPnqghy0CtqLh/bClBwaALT2IBgJeCWAAeMVJYhDo NQEacL2Wn8JDAAIQgEBHCGAAdERIigGBZQTS6fdNbr5nwYSgdkAAAvUJYADUZ0gKEIAABCAAgaYJ YAA0rUDk/GnARQaek11oPTAAyukdWo9y0XA3etiqA+iBHrYI2IqG9wM9bBGwFQ3vhy09MABs6UE0 EPBOoKkReDb/8y4lCUKgUQI04BrFT+YQgAAEIAABLwQwALxgJBEI2CWAAWBXGyKDQJsIYAC0SS1i hQAEIAABCCwngAHQs5pBA86W4DH0aNIAaHLvgSpKx9CjSlx9fQY9bCmPHuhhi4CtaHg/0MMWAVvR 8H7Y0gMDwJYeRAMB7wQwALwjJUEI9JIADbheyk6hIQABCECgYwQwADomKMWBwCKBpjYCbMp4oAZA AAJhCGAAhOFKqhCAAAQgAIGYBDAAYtI2kBcNOAMiZEKIpUfMznibN/+LpYetWmg3GvSwpQ16oIct Arai4f1AD1sEbEXD+2FLDwwAW3oQDQSCEMAACIKVRCHQCwLacBtuDd3Gyw338OnBTe+mbvJx0ouy U0gIQAACEIBA1whgAHRNUcoDgSUEYhsAbdv8j0oDAQjkE2AEJ58Rd0AAAhCAAASsE8AAsK6Q5/ho wHkGWjO5WHpgABQTKpYexaLhLvSwVQfQAz1sEbAVDe8HetgiYCsa3g9bemAA2NKDaCAQhEAMA6DN a/+DQCdRCHSMAA24jglKcSAAAQhAoJcEMAB6KTuF7huBWAYAU//7VrMob58IYAD0SW3KCgEIQAAC XSWAAdBVZVeUiwacLcFj6YEBUEz3WHoUi4a70MNWHUAP9LBFwFY0vB/oYYuArWh4P2zpgQFgSw+i gUAQAiENAKb+B5GMRCFgjgANOHOSEBAEIAABCECgNAEMgNLIeAAC7SOAAdA+zYgYAtYIYABYU4R4 IAABCEAAAuUJYACUZ9bqJ2jA2ZIvlh7pKH2INfohzYXYasXSI3a52pofethSDj3QwxYBW9HwfqCH LQK2ouH9sKUHBoAtPYgGAkEIYAAEwUqiEOgVARpwvZKbwkIAAhCAQEcJYAB0VFiKBYFFAiFG6kMa CygIAQjYIKAd/+HW0A1eDNzs88xN76Zu8nFiIziigAAEIAABCECgFAEMgFK42n8zIzi2NIyph+/O uu/0LCgTUw8L5bUeA3rYUgg90MMWAVvR8H6ghy0CtqLh/bClBwaALT2IBgLBCPjusPtOL1jBSRgC EPBCgAacF4wkAgEIQAACEGiUAAZAo/jJHAJxCfhcBuAzrbgUyA0CEKhCAAOgCjWegQAEIAABCNgi gAFgS4/g0dCAC464VAax9fDZafeZViloAW+OrUfAonQiafSwJSN6oIctArai4f1AD1sEbEXD+2FL DwwAW3oQDQSCEvDRaU+n/mugIY4VDAqAxCEAgcoEaMBVRseDEIAABCAAATMEMADMSEEgEAhPwMe6 fR8mQviSkgMEIOCbAAaAb6KkBwEIQAACEIhPAAMgPvNGc6QB1yj+rzKPrQcGwHr9Y+thqzbaiwY9 bGmCHuhhi4CtaHg/0MMWAVvR8H7Y0gMDwJYeRAOB4ASqmgBM/Q8uDRlAwDQBGnCm5SE4CEAAAhCA QCECGACFMHETBLpDAAOgO1pSEgjEJIABEJM2eUEAAhCAAATCEMAACMPVbKo04GxJ05QeVdbxV3nG Fu38aJrSIz+yft6BHrZ0Rw/0sEXAVjS8H+hhi4CtaHg/bOkR3ADY3Nx0k4+TpNRZ8fl3mFAHmqsD 2pk/Pt4p9G6ens7j1Cvd9R/tmtOOb2mxesvvjr/f3NFolLz/gxeD5H9nn2duPB7zm07bhjpAHaAO UAeoAy2rA/o7HtwAuL+7t2V5EA0EIODKjOaz9p8KAwEILBpPEIEABCAAAQhAoJ0EMADaqVvlqJmC UxldkAeb0qNMp77MvUEgRUy0KT0iFrFVWaGHLbnQAz1sEbAVDe8HetgiYCsa3g9bemAA2NKDaCAQ hUCZTn2Ze6METyYQgEAjBGjANYKdTCEAAQhAAAJeCWAAeMVJYhBoF4Flnfvsn6WlSdf+t6t0RAsB CPgkgAHgkyZpQQACEIAABJohgAHQDPfGcqUB1xj6pRk3rQcGwHNZmtbDVu1sPhr0aF6DbATogR62 CNiKhvcDPWwRsBUN74ctPTAAbOlBNBCISmDZaH82AEb+o8pBZhAwTYAGnGl5CA4CEIAABCBQiAAG QCFM3ASBbhNYZQRgAHRbd0oHgTIEMADK0OJeCEAAAhCAgE0CGAA2dQkWFQ24YGgrJWxFDwyAuXxW 9KhUmTr4EHrYEhU90MMWAVvR8H6ghy0CtqLh/bClBwaALT2IBgIQgAAEIGCSAA04k7IQFAQgAAEI QKAUAQyAUri4GQIQgAAEINAvAtrxH24N3cbLDffw6cFN76Zu8nHSLwiUFgIQgAAEINARAhgAHRGy aDEYwSlKKs596BGHc9Fc0KMoqTj3oUcczkVzQY+ipOLchx5xOBfNBT2KkopzH3rE4Vw0F/QoSirO fRgAcTiTCwQgAAEIQKDVBGjAtVo+gocABCAAAQgkBDAAqAgQgAAEIAABCOQSwADIRcQNEIAABCAA AfMEMADMS+Q3QBpwfnnWTQ096hL0+zx6+OVZNzX0qEvQ7/Po4Zdn3dTQoy5Bv8+jh1+edVNDj7oE /T6PHn551k0NA6AuQZ6HAAQgAAEI9IAADbgeiEwRIQABCECg8wQwADovMQWEAAQgAAEI1CeAAVCf ISlAAAIQgAAEmiaAAdC0ApHzpwEXGXhOduiBHrYI2IqG9wM9bBGwFQ3vB3rYImArGt4P9LBFwFY0 GAC29CAaCEAAAhCAgEkCNKhNykJQEIAABCAAgVIEMABK4eJmCEAAAhCAQD8JYAD0U3dKDQEIQAAC 3SKAAdAtPXNLQwMuF1HUG9AjKu7czNAjF1HUG9AjKu6VmakOw62hG7wYuNnnmZveTd3k48RGcD2O gvfDlvjogR62CNiKhvfDlh4YALb0IBoIQAACEICASQI04EzKQlAQgAAEIACBUgQwAErh4mYIQAAC EIBAPwlgAPRTd0oNAQhAAALdIoAB0C09c0tDAy4XUdQb0CMq7tzM0CMXUdQb0CMq7tzM0CMXUdQb 0CMq7tzM0CMXUdQb0CMq7tzM0CMXUdQbMACi4iYzCEAAAhCAQDsJ0IBrp25EDQEIQAACEMgSCG4A bG5uet0syHcDhPTqvRDwg18ZAtSXMrS+vhd+8CtDwHd9GY1Gbjwelwlh7b2+4yO9etLAD35lCFBf ytDi95z6Yqu+BDcA7u/u65WYp70S8P0Ceg2uh4mhhy3R0QM9bBGwFQ3vB3rYImArGt4P9LBFwFY0 vB+29MAAsKUH0UAAAhCAAARMEqABZ1IWgoIABCAAAQiUIoABUAoXN0MAAhCAAAT6SQADoJ+6U2oI QAACEOgWAQyAbumZWxoacLmIot6AHlFx52aGHrmIot6AHlFx52aGHrmIot6AHlFx52aGHrmIot6A HlFx52aGHrmIot6AARAVN5lBAAIQgAAE2kVAG27DraEbvBi42edZErzPzQDbRYNoIQABCEAAAu0m gAHQbv2IHgIQgAAEIBCFACM4UTCTCQQgAAEIQCAoAQyAoHjtJU4DzpYm6IEetgjYiob3Az1sEbAV De8HetgiYCsa3g/0sEXAVjQYALb0IBoIQAACEICASQI0qE3KQlAQgAAEIACBUgQwAErh4mYIQAAC EIBAPwlgAPRTd0oNAQhAAALdIoAB0C09c0tDAy4XUdQb0CMq7tzM0CMXUdQb0CMq7tzM0CMXUdQb 0CMq7tzM0CMXUdQb0CMq7tzM0CMXUdQbMACi4iYzCEAAAhCAQDsJ0IBrp25EDQEIQAACEMgSwACg PkAAAhCAAAQgkEsAAyAXETdAAAIQgAAEzBPAADAvkd8AacD55Vk3NfSoS9Dv8+jhl2fd1NCjLkG/ z6OHX551U0OPugT9Po8efnnWTQ096hL0+zx6+OVZNzUMgLoEeR4CEIAABCDQAwI04HogMkWEAAQg AIHOE8AA6LzEFBACEIAABCBQnwAGQH2GpAABCEAAAhBomgAGQNMKRM6fBlxk4DnZoQd62CJgKxre Dxt6qA7DraHbeLnhHj49uOnd1E0+TmwE1+MoeD9siY8e6GGLgK1oeD9s6YEBYEsPooEABCAAAQiY JEADzqQsBAUBCEAAAhAoRQADoBQuboYABCAAAQj0kwAGQD91p9QQgAAEINAtAhgA3dIztzQ04HIR Rb0BPaLizs0MPXIRRb0BPaLizs0MPXIRRb0BPaLizs0MPXIRRb0BPaLizs0MPXIRRb0BAyAqbjKD AAQgAAEItJMADbh26kbUEIAABCAAgSwBDADqAwQgAAEIQAACuQQwAHIRcQMEIAABCEDAPAEMAPMS +Q2QBpxfnnVTQ4+6BP0+jx5+edZNDT3qEvT7PHr45fn/7F0vlNrc057fOSsiVkRUICoQFYgKRAWi AlGBqIhYgViBqEBURKyIqIioiFgRsQKxAlGBqEBUICoQFYhXICoQFYgKREXEioie833PBNhlKX8S CBDgyXd+39slyc3NM3duZp6ZO3fb1iiPbRFM937KI108t22N8tgWwXTvpzzSxXPb1kgAbIsg7ycC RIAIEAEicAYI0IA7AyHzFYkAESACRODkESABcPIi5gsSASJABIgAEdgeARIA22PIFogAESACRIAI HBoBEgCHlsCen08Dbs+Ar3kc5UF5ZAuBbPWG+kF5ZAuBbPWG+kF5ZAuBbPWG+kF5ZAuBbPVm5wRA LpeT/n/96K1nlZH/JiYcAxwDHAMcAxwD2R8DlmVF33Dj0oj+OxgMou86ZZd92VFGlBHHAMcAxwDH wDwhtnMCYPR7lC3Kg70hAkSACBABIkAEEiPAiFpiyHgDESACRIAIEIHMIUACIHMi2W2HaMDtFt+k rVMeSRHb7fWUx27xTdo65ZEUsd1eT3nsFt+krVMeSRHb7fWUx27xTdo65ZEUsd1eT3nsFt+krZMA SIoYrycCRIAIEAEicIYI0IA7Q6HzlYkAESACRODkECABcHIi5QsRASJABIgAEUgfARIA6WPKFokA ESACRIAI7BsBEgD7RvzAz6MBd2ABzD2e8qA8soVAtnpD/aA8soVAtnpD/aA8soVAtnpD/aA8soVA tnpDAiBb8mBviAARIAJEgAhkEgEa1JkUCztFBIgAESACRCARAiQAEsHFi4kAESACRIAInCcCJADO U+58ayJABIgAETgtBEgAnJY8174NDbi1EO31Aspjr3CvfRjlsRaivV5AeewV7rUPozzWQrTXCyiP vcK99mGUx1qI9noB5bFXuNc+jPJYC9FeLyABsFe4+TAiQASIABEgAseJAA2445Qbe00EiAARIAJE YBYBEgAcD0SACBABIkAEiMBSBNTxz7/Mi3FpSPgQRte1220iRgSIABEgAkSACBwhAiQAjlBo23SZ EZxt0Ev/XsojfUy3aZHy2Aa99O+lPNLHdJsWKY9t0Ev/XsojfUy3aZHy2Aa99O+lPNLHdJsWKY9t 0Ev/XhIA6WPKFokAESACRIAInBwCNOBOTqR8ISJABIgAEThDBEgAnKHQ+cpEgAgQASJABJIiQAIg KWK8nggQASJABIhA9hAgAZA9mey0RzTgdgpv4sYpj8SQ7fQGymOn8CZunPJIDNlOb6A8dgpv4sYp j8SQ7fQGymOn8CZunPJIDNlOb6A8dgpv4sZJACSGjDcQASJABIgAETg/BGjAnZ/M+cZEgAgQASJw egiQADg9mfKNiAARIAJEgAikjgAJgNQhZYNEgAgQASJABPaOAAmAvUN+2AfSgDss/vNPpzwoj2wh kK3eUD8oj2whkK3eUD8oj2whkK3eUD8oj2whkK3ekADIljzYGyJABIgAESACmUSABnUmxcJOEQEi QASIABFIhAAJgERw8WIiQASIABEgAueJAAmA85Q735oIEAEiQAROCwESAKclz7VvQwNuLUR7vYDy 2Cvcax9GeayFaK8XUB57hXvpw1QO+Zd5MV+YEvwJZPh7KP3/+tno3Bn3gvqRLeFTHpRHthDIVm+o H9mSBwmAbMmDvSECRIAIEAEikEkEaMBlUizsFBEgAkSACBCBRAiQAEgEFy8mAkSACBABInCeCJAA OE+5862JABEgAkTgtBAgAXBa8lz7NjTg1kK01wsoj73CvfZhlMdaiPZ6AeWxV7jXPozyWAvRXi+g PPYK99qHUR5rIdrrBZTHXuFe+zDKYy1Ee72ABMBe4ebDiAARIAJEgAgcJwI04I5Tbuw1ESACRIAI EIFZBEgAcDwQASJABIgAESACaxEgAbAWIl5ABIgAESACRCDzCJAAyLyI0u0gDbh08dy2NcpjWwTT vZ/ySBfPbVujPLZFMN37KY908dy2NcpjWwTTvZ/ySBfPbVujPLZFMN37KY908dy2NRIA2yLI+4kA ESACRIAInAECNODOQGhKlmkAACAASURBVMh8RSJABIgAETh5BEgAnLyI+YJEgAgQASJABLZHgATA 9hiyBSJABIgAESACh0aABMChJbDn59OA2zPgax5HeVAe2UIgW72hflAe2UIgW72hflAe2UIgW72h flAe2UIgW70hAZAtebA3RIAIEAEiQAQyiQAN6kyKhZ0iAkSACBABIpAIARIAieDixUSACBABIkAE zgsBdfzzL/NiXBoSPoQy/D2U/n/98wKBb0sEiMBRIuA4jtg3tsjfcfeDh0DKb8syGo129j7qXJmX pgwGg4XPqH2oSaVSkepV9dl50zSjvrqf3J31bVnDhmFIq9WKnj/8Ndz78/nA/SJAAmC/eB/8aYzg HFwEzzpAeVAe2UIgW72hflAe2UIgW72hflAe2UIgW72Z6odt29Jut2U43J9TW6/XpdvtLicAajVR EqDRaEjrS+sRuEMRAOr8N5tNkQsRJUx2QQBwvsqWfpAAyJY82BsiQASIABEgAplEgAZcJsXCThEB IrACgWUEgPPJke73rvR6vce71SlyXVfqH+qPzrD13oqynuyP9mPWgF7T+opoOX4rFosRuaBOfxAg u+BdWRp3jejf+rte1/7aftbD6nVVBj8HkbOtEffR73E2wjwB0LhvRM8Iw3B8Pxx0JQ2i/uFwP7sR uaHvWCgUon/rs+sf61GGgfZBr12U7RD1H/fpsxULbVfvUTx2QQBwkGYLARIA2ZIHe0MEiAARIAJE IJMIkADIpFjYKSJABDYgAJ45+5P71RHudDrREqfo39/w735fphFyddx1KYE6y6M/o8dU/Xw+Hznz SgLoUUOEv/dfL3LyFx3ajmYIaFv+nS/V6rjdpASAEgS6zMC/9aPHaB8sy5JyuRyRBovecdofvU7f 9ZFcwAntFwmA81AnEgDnIefHt6QBly2BUx6UR7YQyFZvqB+UR7YQyFZvqB+UR7YQyFZvpvoxXwNA o/KlUinqbPNLM4qwa6R8ugbeurLEuDBEnevade3xpTTqr79pxNz3ffFuvcfIvUbmNZU/cuRjEABK EHS+d6L79Xm5XC6K3CclAJQ88D6jH5N6BpqNoBkIU0JA+6Wp/bPvsUpKuyQAOF9lSz9IAGRLHuwN ESACRIAIEIFMIkADLpNiYaeIABFYgcCqGgAaKdfovTrJs//Wgqca+VcHPfw7Sb9HhF7X7etvnudF /1PiIDq2IAD0diUW1GlXR362COC6JQBKQigxocVZ9Si8LkjpTWm8nn/Sr6wQAByk2UKABEC25MHe EAEiQASIABHIJAIkADIpFnaKCBCBDQmAqeOuEXmNpjs3zmM2gKb56++LjrQJAI38q6Ou2QqaRaBO /ZQYmK0BoMRE8775mGlAAoBDf1MESABsityR3kcDLluCozwoj2whkK3eUD8oj2whkK3eUD8oj2wh kK3exN0FQDMEdGtALaKnBMD0UCdc0/R7PyZFAhHln24luI4AqLyvROn8sxX+Z9GZXQIw/V0zELRd rQ2gRIAe84UK9T5dMqCFCfXYhgDYdw0AzlfZ0g8SANmSB3tDBIgAESACRCCTCNCAy6RY2CkiQARW IKDOtDrSU+dd0/a1BsB03bz5wozS/bUC/rOifXD4Nfquaf9aH0Ar+U8d83UEQFStH2v6dU2+pvFr 1H4dAaDntbaAHkpK6KHP1cyE4uuiDH6h2B/OKwmg/dqWAJjuYjC7Q8AuawBwkGYLARIA2ZIHe0ME iAARIAJEIJMIkADIpFjYKSJABIgAESACiRAgAZAIruO/mAZctmRIeVAe2UIgW72hfmRDHiqH/Mu8 6PrTabEp3W+ax2ERoH4cFv/5p1MelEe2EMhWb6gf2ZIHCYBsyYO9IQJEgAgQASKQSQRowGVSLOwU ESACRIAIEIFECJAASAQXLyYCRIAIEAEicJ4IkAA4T7nzrYkAESACROC0ECABcFryXPs2NODWQrTX CyiPvcK99mGUx1qI9noB5bFXuNc+jPJYC9FeL6A89gr32odRHmsh2usFlMde4V77MMpjLUR7vYAE wF7h5sOIABEgAkSACBwnAjTgjlNu7DURIAJEgAgQgVkESABwPBABIkAEiAARIAJrESABsBYiXkAE iAARIAJEIPMIkADIvIjS7SANuHTx3LY1ymNbBNO9n/JIF89tW6M8tkUw3fspj3Tx3LY1ymNbBNO9 n/JIF89tW6M8tkUw3fspj3Tx3LY1EgDbIsj7iQARIAJEgAicAQI04M5AyHxFIkAEiAAROHkESACc vIj5gkSACBABIkAEtkeABMD2GLIFIkAEiAARIAKHRoAEwKElsOfn04DbM+BrHkd5UB7ZQiBbvaF+ UB7ZQiBbvaF+UB7ZQiBbvaF+UB7ZQiBbvSEBkC15sDdEgAgQASJABDKFgBrS+Zd5MS4NCR9CGf4e Sv+/fqb6yM4QASJABIgAESAC8RDYKQFQeF2QIAji9YRXEQEiQASIABEgAkSACBABIkAEiAARIAI7 Q8A0TRn8HDxr/3/46/929kQ2TASIABEgAkSACBABIkAEiAARIAJEgAhkAgESAJkQAztBBIgAESAC RIAIEAEiQASIABEgAkRgtwiQANgtvmydCBABIkAEiAARIAJEgAgQASJABIhAJhAgAZAJMbATRIAI EAEiQASIABEgAkSACBABIkAEdovA//Kv8qwBsFuM2ToRIAJEgAgQASJABIgAESACRIAIEIGDIxAR AMEfVu8/uCTYASJABIgAESACRIAIEAEiQASIABEgAjtCwHxhCgmAHYHLZokAESACRIAIEAEiQASI ABEgAkSACGQFARIAWZEE+0EEiAARIAJEgAgQASJABIgAESACRGCHCJAA2CG4bJoIEAEiQASIABEg AkSACBABIkAEiEBWEFhIABiXRlb6x37sEoG/aPxilw9g21lBIAgCMU0zK91hP3aJAPV6l+hmqm3q dabEsdvOUK93i2+GWqdeZ0gYu+4K9XrXCGemfdVr42Kxf53L5Xbez9Fo9OwZJAB2DnmGH8CJJ8PC SbdrNCjSxTPTrVGvMy2eNDtHvU4TzYy3Rb3OuIDS6x71Oj0sM98S9TrzIkqrgyQA0kKS7WyPACee 7TE8khZoUByJoNLoJvU6DRSPog3q9VGIKZ1OUq/TwfEIWqFeH4GQ0uoi9TotJDPfDgmAzIvojDrI iedshE2D4mxELUK9PhthU6/PRtTU6zMSNfX6jITN7/XZCJsEwNmI+ghelBPPEQgpnS7SoEgHx6No hXp9FGJKo5PU6zRQPJI2qNdHIqjtu0m93h7Do2mBen00otq2o6dBALwQaXRGUkYxg1AHL/7X/2qK 44uM8iLdViC+ZUr79wq40mhjW2mc+/0xJh7jRUmqN7bU3uZRvAKAhUPpfLbF+z6ScAl+xquaNL86 km9VpeL1BWUvJFdxxHcsKVyiiaAvbdcR74cWpFhyblAQv+2J4VpSx7OmR67SlPanQJz3tnSDcxdg /Pdfa1CoPn4NpKR1AiFn8zKU8GGi34Eh9pUh3T/xn8crD4hADL0e926se03PksCtSLWtemZK8aYl zevZgjSGGNDbEa6r3A+W6v2zN35Rpv7uYQis1WvtA2Tn4ntdRXHf6HsN/Q7/QJ/vDHHb+Pce+slH pIBAbL1+elb87/cG32h+v1MQ6uImYun19Fbocw02t3NhinUlMtBxkuaRF+nANmhemdLCJ6L8Ds/4 ju/BNhPHS7TZDqRVNaX5K83OHmFbMfQ6HT3e4Jt/60j/2qEdntKwSkoAaJE+9a/1vrhHVOwbc0Lw 59970ikCqM4ClDdw4PT/EMlXQml4oQw+mmJjgohNAGzbRlxEeN1iBOJMPC8rYsMZ6N63pAejsVBv SOt6KPX3jvQWjUmjIPX7plgwOo1eXSwlAHIVjBdXxK+J3RpK/rohzQ/4YFlw4o1l53C92xHPcMWq d2RMAeTggLTFDRyp3HRBLPCIi0ASg8J4hY8zDIoGSLzWKhIv7sN53X4RiKHX6vznrzxpOCX0zZDg 85QA+LerRr4qzVZd+nVLvH5crTOl7FN/dy34WHqtBMC3QPKeKbUOegTjoPQR+n1tiFMxpENib9di Sqf9WHr9/FFG3O/3Rt9ofr/TEey/rcTS68ltMLmk3RzPy50Ppvg/U+5V/okAaGPuaH0JpH29peNO AuBJSDH0OhU9RiAn+Te/Kr1am3Z4SiqVmACYOPNxSYCp87/s+p0QAIpNrRNIrW1KBcygOg+xMgBm CICN2khJKGfbTIyJZx4b47UtnSaie5a1IMPDlMJHOPdve+L/RuT+jx0RAMa7BqL2I7Hfu9J7QItm WbxviO5/gkNx4S4954ojHQ9Rqvf1sZEKI6UJIiG4ASnxI64jcrbSffbiiQwKEgDHPWji6DWsxlrD kyL0sP/Bl0rDmmQA/KPxUrTb0njbklq1mSi6ZJZ96u+OR1IsvZ4nAJTygdPwSPINd9xJNp8OAnH0 es2Tln2/cxt+o/n9Tke0863E0uvJTSVkRPovTfHCQOwAWQAuon9pdmuGAED85unAbmY2MgMCewMy gARAIgIgrh2+So/tHgjgDb75o7f8jqelTkkJAH3uOqd+2rc41+2GAMBEUEeEwWqCAOg9ZQB08Lvf wFSE3+0vc6mGc1kECEIlbyMtqZxrO4kNCmQAXCM9uNaTugXHQZ35mcMEOdC8K0n7gy3Dj4jUj8YZ ALnrDlK9kBXwviXj70deqp221L5UxRZ/6bnKt5z4ShRMlgFEk5sbMv1/g/GaxKBYlgFQqIXifQgl hyiAgbHTbZjiQq8DJQyayAD6FUoR/zahywMsCbJvkSaYdjriBu9+drck0esLEAGdplTulhAA01T+ zyD0kEYuyAboQG97faSCFnOQNeT+1Zfuy5pU9W84m8NvrtSRvTO6BFFI/d3p8Iul13MEgIHVHRYy AOxXMAhr0FWk8hZvoNtWiAUgOKDfw2/Q38/QbRjqzm0gFfxXf5fQkNZHI4oy5t/jHjuU/GRb42Fn ovPbpAbvFK0jbzyJXi981eXf78KG32h+v3czpmLpdeQdwMaG7R3egAD4G0oby3Dd91jeowxAHt9l ROvHc/XTd7n7MsBcrcv8xnped8dLd5d+w9VZny4BQLPRv5G6H9YCca+wVHCEDLIhdP8OmcB3gnkE WUWason72gjytSdp/mXMMW41FHwycD2WlRXCqB1dAnDWc0livd5MjytfBuPBmvSbj4Adv+Pp6Pkm BECk5msyAdadn/Y+dQLAhfKWodTu9ViZG3iSLgFo1JEC6mH19xdMDM0FjOQMAbBxG+nI5HxbSTjx 6Nr+xpeahJ/huH+bqwFwWRTniy+Fr3Wp46NT8qcEwEBySOFvIRpYqbYnqfx5sdptsTtYEgACoLnw HOoHNEZSup2kEX/sS7GBNh+Y/r/JgI1tUKDxRQSA8XqcZthTQ6OLCeldKC0s+2khFbChZAA+9CMf xsQ9Gijh90YoXaQjev9t0lvesxUCSfR6pTGAlEEQd6364Cl7RwkAOPhhoyq1O1iWbz3p3Fsyupv8 /QYZPY2iNK4sacEoLFN/txLluptj6fWCGgAG6ns0P8ORx5IA9ddNEHc5OA0DZFqprnfuQ2R5GdJ/ CwO+ZkrVGq8t1usMLAsKQCI0Qfp1bUMaGAYGjH0fjkGIZYE25gceO0AgiV4vePzy77cu7dvkG83v 9w6kHDUZS69xXQ7Lb9vQQazOEqhhFJEvgpivfcMfeeixkgP6NxxzeRtGej26m/z9BvfiO93Qtf0g 95Z+wzEn/EMA6D0Yj7MOvlnU9hYTAG3UFGrj2R34BWoTFOtY/2/j2vfjds56Lkmo15vpsdrTk/o9 Sb/5YJn4HU9H0zclAPTpy5z8uM6/tpEeATAtAgjrYQQ2r9OAIYAPfwgDoatpQYgOm9+f0pFKrq4p HoMYYKmApUxhwjbSEQFbeUQgwcSj64C9e1vyHRQEvO3NpZiZUnJa4uWbUrMR5Q9zWP+bQgYAGEtT 049usQzgui3Wl3H6v8P0/8SDOK5BoQ0vIgDyV3AEUOOjWhlHDDVjx8aynzKMCQuWR0T6qVEwxDkY E3Wcs+6REdRK3FXesC0CCfR6ZTRASb2vTSl9rUp1WvxPCQCQfK1qeVy86SWWArWxLOgatTx0YOTg +OPvbm38N/V3W2Guvj+WXi9YAhDV7fk8IekQGKo6oVRB3Glmjx55OA8ujHPUCBTvDk7FX0N63xH9 hz734RDkEP3v3CL6N1c/YKB1BtT54JE+Amv1Gt9hVHXU2i1jOwsZeO74W736+y3I7NssS29lBgC/ 3xuPgVh6je9sFcEWF4RdVNxTjwvMwT9zYl0juj+J3D8W2ptE5DtK2mswGCReC8R9FwRfROIv+4Yj q3dbAqD7BvYDAgKR/aB9nfgJWliwg0yAs55L1ur10zDaRo9jZQAs+ubj8fyOb6zKz27chgDQhuad /STOv96fHgEwt37/8S0nit1HheE8JqH2B0Qa1FCcP+aXAMyej9tGOjI531ZiTjwGjHzvHlX9u47U b7v/pnUbRTDPcP41TXRyGIYJHzGU4FdD6n5e/E8hoogoHDhTA8BEar/714nS+hedi6r/T9OPviAD 4Fqr/zus/r/BiI1lUExlt6AGAAmADUA/1C0x9XpsMC5fApBDZk4bDp1n1STaIECPiADALh9XlTHZ MyEA2lNCYI4AoP7udhDE0usFBMB4ZwA49reI2BtK7qEgIHb6iFJ39fs76wyo2MtwNiyQeqgZ2cGa 38YLGO0OSMBpuvFuX5OtKwJJ9HoGsbXfb1wb6fqS7/CqbzS/37sZmnH0Wut4tBBVb1aNx3pMRh7R dOhu5NSDC3h03KO5+nnEfucEAPqiz1cC4h8CQM/pLgBTAuCc55KYer2tHj/uppX0m69DnHZ4Koq+ LQEQiWK6HGDaI4yfuLsE7IcAmBQBHMJgaLzDFmI1RA/mq5KsIwDitJGKSM64kRgTj046bgPO/w9H bOR+P23Ih6hCriy2U5HhnSstrP9+Op5nAATTdcR3M7sAfMSyEQvF/f5OtgtbdC562Dj9yH8DOqFn S8Vh9f9NRmwcg2La7sIlAGpsINrQny4BKMPwQARQown+zBKAGpYAmEg1bGI9IJcAbCKpFO6JodeP T1lmDOjvX1D47xeiiJ9mMn6SEgDU3xQEuryJWHq9JAOgiSU8qqMtROfUEK+9R3QfY6fs4LtdHWcA PCv6NYk41rvjYr9NGPeCLB8bab9a6yOHSKQJR2MwVxtmpwCcU+NJ9HqCS+zvd1Aab9uZ9BvN7/dO RmAcvS7eQE8LyMD7AP2b6YWF77Tdx+9f8c2ert2PQwBMlvH98w1ftgQAJl8LSwwGSOt3kdavdkMb z1PyAaWfpICdnlo3WBqkmUTmeLmBZgH4eg71hFqoCaDFwjVJ8Kznkhh6nYoeTwdJ0m9+NLZoh6eh 6GkQAJE0dHvAybFou79lfd0rAdDGxFG7x+4AI6T+gOF7VhAsJgGwso00JHLObaydeAxUAEdqoJ0X eZh18FH4C9H72qAKp7Ai/Y/WXFr+HAGg+42XkSzoVqUAY1QeBogs2tESECSdrjg3Fk6UfnRfitKK nYV7D56zEOO9exyDYtrS0iKAqPXh1cdFAPXowfh3m+MigBoxHCLTJ48ogxYXGrRYBDCeZHZw1Vq9 nnnmEmPALCIz576MGg/WOLV/eiQmAKi/O5Dw08cf+wNHEYFVx3wNAL0WIu1BRx0sxQuhsy7S/CtI CQ50SV8f63t0fTDIve4rkHnI3jInOh/+Rt2Am3HEUZcRuDDii/p4nNdiYH4dywSGu3zjM247iV5H MCX5fmNe3+gbze/3Lkbk2u81dM6D8226qLsDMm72iOoCfELxTmTfOiADNM1+nK21PgNg4Td8spQg agfNPGYVYA6wUCDULWPe+Il+1OHYY6mv8w4XgQTUQn8B5g8NEjTx/DKWGbkoNDotAvh4Tu2Gc55L 1up1Wno8GSVJv/mT22iHb6/paRAAh88A2B4HtpAFBNZOPFnoJPuQBgJrDYptHjIhANZu/bnNM3hv fASo1/GxOvIrd6rXR47NyXWfen1yIl32QnvXa37DDze2qNeHw37PT96WAMhGDYA9g8bH7QgBTjw7 AjZ7ze7UoKDxkC2BU6+zJY8d9maner3DfrPpDRCgXm8A2nHesne95jf8cAOFen047Pf85G0IgOzs ArBn0Pi4HSHAiWdHwGav2Z0aFDQesiVw6nW25LHD3uxUr3fYbza9AQLU6w1AO85b9q7X/IYfbqBQ rw+H/Z6fvCkBsK7a/7rz09dMpwbAnkHj43aEACeeHQGbvWb3blBkD4Lz6RH1+mxkTb0+G1FvvAvA GSF0Mq9KvT4ZUa5/EX6v12N0IldsQgDEde7jXEcC4EQGUiqvwYknFRiPoREaFMcgpZT6SL1OCcjs N0O9zr6MUush9To1KLPeEPU66xJKsX/U6xTBzHZTSQmAOE797Buvuz4WARD+na34nm1A2bvNETAv TQke5vdn3Lw93kkEiMDhEaBeH14G7AERSBsB6nXaiLI9InB4BKjXh5fBPntgXGCXnQVHLodteOaO aLs/EERKHMQ9piTAou0BYxEAxuXiDsbtAK87EgTIPB6JoLbvJiMK22N4NC1Qr49GVNt2lHq9LYJH dD/1+oiEtV1Xqdfb4XdUd1Ovj0pc23Q2aQbANs9adC8JgLQRPeb2OPEcs/QS9Z0GRSK4jvti6vVx yy9B76nXCcA69kup18cuwdj9p17Hhur4L6ReH78MY74BCYCYQPGyPSDAiWcPIGfjETQosiGHvfSC er0XmLPwEOp1FqSwpz5Qr/cE9OEfQ70+vAz21gPq9d6gPvSDSAAcWgJ8/hMCnHjOZjTQoDgbUbNa +BmJmnp9RsLm9/pshE29PhtR83t9RqImAXBGws78q9KgyLyI0uogDYq0kDyCdqjXRyCkdLpIvU4H x6NohXp9FGJKo5PU6zRQPJI2qNdHIqjtu3kaBAAKE3qdkVQNU+oVQ/DPp+OFSAM/VP6aUsO5bvzi hdujyxaSIZB44jGleNOS5vVstUpDjEuRkWdJ5X4gz/ePMCRXcaSJc4FbkWp7PFDMV1Vx3JqU8qZo RUzj71A6viPu1/n7V7zOi7L4bU8M15L696cBmKs0pf0pEOe9zbE3A19cg6JYD8W7DiUHmRoXqD76 yxDvoyHt32uG1kuRTjuQVtWU5q9kw5BXp4xAHL02ClLvtMV+EUqo1+MIf3lSvWrJUMZ66zuWFDAO wqAvbdcR78dIjBclqd7YUnubj8aHhNDdz7Z40MF/9o4x8mLduFJ/VxAT14a/m1KvNWQQXbh4boiN BPU/giqWXk++yWXDeJS1/Mb3uSrSRxs1zJe1d5iXVZ4YC4OOKa6H/6IWsA+dNlx8578/SSZXCTHH CuZYft9jj9c0Loyj19FzYurWMv2U5XNDsOrbbZbEaXhSwXgLetD7T13BjCGFWlMab1tSq7dlOJlr 0oDjlNuIpdcww5qwtUvAOJpS8f/6bVOcW9hjijPmbur2EYySrfQ6vk2+0u5eZQ+sOkedTzTAVhEA iRpK6WLdZeB/+Vf5/5vdMmDtLgBKAMAwKGKCCTxTql9njIP3ahyEcOoMsWkgpCSmHTUTe+JZ/nwj X5Vmqy79uiVef5btMSR/5UnDKUUGSfD5iQAw8nDa34XSaXVk8AADodqQpi3iWrXnZNLK1zal7HfE M1yx6h0YGnrkQEK0xQ0cqdx0hdzTE4BxDAqzCN29D6XrmHDoYE9Av0tvYUx0RYbrdgYlAbAjJd2g 2Th6bZYxh7sS2PN6q2pUkQbOiV8TuzWU/DX08wNINcuW3mVFbBCA3fuW9P5Ad+sNaV0Ppf7ekd4z hTOl9Kkl/uuuOLYv3dHsAFo+N8R/W+q/YhVHr0UJAHyvA+i182MGYTj8FT8Q7xVIvhuQfD8xUxfg 2N8GUhrgu34jUtDzIPqtOuaBya2V+wBzrIk5Fs+PLzBeuS0CcfQa39pl393nj1+hnyvmhlXf7n6x ibmgI7UbzBVfatL9UJXWA4j6li0juybeT46WuEMgll4rAQC9Hn4EYfcfpu1yKC0fdlUN32/oMnU7 LtoHvi5VvcYcvsQmX2l3hyvsgRXzgQbcqPPxx89JEQAGjIlSYRxJGEwGcfVLINWfykAzQhB/WBzo ylgTz6q+GVK022N2v9ocj4HpAUuyhmhA8Zsn/Q++VBrWYwbAfIvGqzrIAEsaVxWBvxH7MMu+dDxD 3Pe4/8/YcWmqU3MDJ+UHjY1ZIOMYFGpAtD9Dby1E9hTP2QPRQPsrnAh7SYSfBEDscbvzC+PoterK V2TJ1PDfuYyN3LsGSNwRCFxXeg/orRoA0GPjkyV2dzbdC8bGa1s6TRj5lvU8SyRnof269D5Ar8ch /43mhlVYUf+3IwCMVyJt6HTvw9iBmB5TIrCJbJ72SzgUyAZwQeaP59ix0xHcmJhjdz6S+YBZBOLo ddzv7ir9XDE3LP92W9J/B1vgJQj5z4FY3xpScEEAlBri5xtStackPUUaB4E43+upLk4JAEFgzv8W iPkZGTuY06nbcZDOwDVp6jUIwKU2+bxJN2t3h8vtgciuXmgrIADwgTqfZASdFAEgt6YUkD6ojGNj AGMQBkWrCScCKUh1RAemKYJ5ZAV4dih5OBF6DJFiaGuaEuzC4g3OWaHOXSKISAy/4RyckBHa6oBM GKDdIv5tIhqp5+ruJL0pCeq8djECcSaeVdhN03A/I6L/bB3IzE0XIAI6TancLSIAQBQVyog0uVK9 aCBFECRCrgq5V6WH3NRyMSemEcrgKyKIL2tS1b+jcYD0QhcGxSUcD3VMJssAIsfFDZn+v0BmcQ0K Hw5BEbm//h0Mfshgkq0tFvTcvUK6+AjZHEPo6Af4AtBpt4psH1wUDLGUoxCKOg3qUC7U+QZIBDgP Ocwbtfa4kzno8aeSEQAAIABJREFUfhtzhWYLPY8gU2k3RiCOXqsDALKsEEJ4l5DdA1L5G1iG0xog 4t/BUo6mWO91OYAeealiuUANeln5ggn58YABcI0lQbWe1C0QfUoWTA7z7Zic6/7KS/GlMdFbT2wP ejslChfNDYheUP/jSz6WXi/JAFiayj/jSEC0kVMxXQaQQ+aWJocw/T++jFK7Mo5eTx+28rsLe2qV fr5YPjc8UXnz3+6WyPWcM+A3xHSqEuJ7UkSWiYyw5KjuP5snUsPmxBqKpdezGQCI+JfwLfaRqeNX Me/iW7xwmQ51O3sjJUW9ljg2uS4Rmre7zRU6v9RWQHbgPAFAnV85vk6LAEBKYd8OpN5DOqAPM/Fj IM0ijPsvcAQ0kqhGPSacJkiBrm1IAw6FgUihOhkh7rW7uh4cTgCCtQNEF4zXcPqRguwjAtmGo9eF 4THy4fTDcZASJrQG2r3iGuPUZrAkE88/D0WqIZyEVn3wFClc1LElhoiJyGGzUZO8CefjTw91Alzx O0MJ1QGAgx82qlK7w4B562FMWDK6m/z9xsU4KCJbwEK2ANKAbyfLAD72pdhA+v8D0/8XiSGWQYEb sSxUbKRwVpD6b/yGHjZABnwDEQC9bcN5b08c/GmUsFNHuiGih8U61v9jGYf33pQWxtUynW++CaRR QnoxsobUuay2xvOHBUKQORspaXZivQaRW3Wl6eRB4CB1t9yWFrJrKtX2JO0ba/nbMN47IADA9E6d AONVTRpI9Q0/V8X+9rwGQM5qgQDAUgGnJk4bko6urT/PzllGAFD/Yw+EWHq9oAZA0MV3FQV6Wvgu 1/CdniVvdO2wg29vCd9eC0RdGUsComUAH6HnDRCBD0z/jy2gNC9MotdrCIBY+hn1fXZuqEbZPMu+ 3SYI+FatO14CgGWBw/8MKV+AQXqNb0TVl9xdU0r3mCtmavakCc8ptRVLr5/VAIBcUHfLR72eBiDP WfhWU7ePY0ikptfrbfKldvczpP7V+afTz8+1X/rU+QSj7OQIAB9FpKII3hUmexjzeaQfwX0bpxLD sBi8RQrhLSKHcynFA9QOqGGdcdUJpQrn3phEhfJwQFx1IpAN0EV7DTj8UVo4JrsWHJC+OhxauYjH 9gisnXiwTtAFq29F+RkStOtiub2xo3ZZFOcrPuhfq1L9p/jfTNfWGCKRgWGh4NinItKRq+I9VKSD 1OFWtTxOTX6J1OI20oyvsS5ZU4nBRrbwt6YuR8aIRjJusQwA0Qfryzj932H6/z9jI5ZBMXsXnIAK CgK6KAioTr6LIoCzBEC+CgMDqcNVLPWJln6AyOuC2FOCroPowzKdB18kLWT2aNZQE7e1m3BCrknq ba/MMy2s1esFT1N9/taUol8R9xLE3poMAF1n6N3bku+gIODtZE6YaTYPz7Ft91AIFpkBEWOQE6sF EqFbeyIRlhEA1P/YwyGWXm+TAdDRaLHqM77L1wbm2HH6/7NaArF7ywu3QiCJXq/57sbSz2lnZ+aG aSHf8am5b/cwjyKAIA5hq4WDnoSvc9LyRlK3BygW3RYTtoQ7rEulOZtFtBUiJ3tzLL2eyQDwkH3V hm528U1W+zhWdg91OxvjJy29jmuTL9Ld+focS3V+YvtPbIXq9xx1PsEoOjkCwIGT1kC0IETKcBFp wS6i9wMtJjZLADjjFN/5HQEiJwKMpQPyIMogVydi6vRPCAAfzmdUgZwEQIJhFvPSJBPPXJM5RAjb IHE8FO6bFPdf/NC1BABuM+B8YJmAOh/VfhkEQA2O5KQewIQAaE8JgTkCQNcnR8sAviAD4Fqr/zus /r9AErEMigX31TqoEP4VET8YC0rATTMA/iEA8pNdAKYEwBKd10dYcPrtn3AiQCX5iA4h6DxJNY85 bnnZagQ20evLkrjffMljxw4ndKKlNLYW9pupAWBOltoY0Env3pF815H6LSp9T1P6Z3plauYOlgBo 4cBxPQksI0AWQa1dhfwnWQRLCQDqf9whHkuvlxAAUQ0AfG+nTsP0mbM1ACISdpI2bHzBN/6a6f9x ZZP6dUn0eu0SgBj6OX2BmbmhNr/Ub/bb/WgI5JA10hJ7ZEv9B+oAuCQAko6FWHo9VwSwguwc72JS sBPfY+p2UtQPdH1Keh3bJp++5kLdnZxcpfMLz1Hn44ye0yMAkG5URqXgBlKGR9iCxILjb0yLiekS ABgfTUQG5R4p/0jlV2Mxh1R/cwi44LC14DDU3mP7EvxedtAOUoNnMwBIAMQZVhtek2TimX2EGhdf UPjvFzICPj1F/4xcWWynIsM7V1q/JonC/xgiWH/0piKFh670BiCOtGoxio013aK0a5b4D1YyAgDW qS4D8N9gK5yeLRWH1f8XjYY4BoUuxyliqWYP6wlVerkSluvcYRmOFvzSyD2IvoFmAyDl33wzXpKj WQA+Ig6FGioQo56H6itWgy7V+QEcyqjYoKtbkCEzCFuM6VIgHikiEEOvjZdlKZkDyFpT97GVEAp1 NkDgRoTe38kWm3czuwB8RDYISsF3LyxxUSsg/8PBen7d5uvpeKb/f4rYZQCFwL7VpebjI1HEdqCN MgrOIXNgultIGgTAmet/HL1euwsAivPoLgAo/xAtyXPwPZ/uAjCVry4D8N9gXtDlfiD3uFwnRX2N 21QMvX5saoFuxdVPH7q7eG5AUc+XK77dP8fffC0M2vLz0rhG5p5Rxc4yJaxLHy8BKGMJwOy2vXFf /dyui6XXcwRARNxhue2zXQCo29kfOlvqdfSCa21yT7oIli2zuxtBaak90LlYYStMPhDU+XjD7CQJ ABMp/Lp2X6ODuv3IYzXxSdQ/j32DXTgHKA8QFfrTQmJ+HeuLMfBdOBiaMhbg2zHqw/tQxwIpwdMl ACQA4g2sja5KMvHMPMCEMd++LyN1+3mFb/O1g/TuivQ/Ioo4TcNfQAAUYAz4dklyOhb+QvAoQNZt uuKhwFigNQCSZACgX9EyABgZuizAYSW5hUMhjkGhaYPNz+NindHe8HDWe4j+u3fjLcAsOAFuGbqK 6H0dxYaiIoAo4jctAhi8wjwwSedfpvPRch4sL3CxZrwK503XH0dRZh7pIRBDr1WHG35VsIlLtPd7 OOohXdeVxg8lBEDSlW3xUcW7AFnJwwDZPrZ4yAYpoJp3y87jt2klAO02CnUiO6A2QLRvRv/NIu7x qjAs9BpUm286SBfsPzmPqRAA563/cfR6KQGgYoF8l+4V/qyo4/gb38XSHQd8Do8DIBBDrx97tUC3 5r/Py/RTybrFcwOWeK76duvDL1AvBI5+9T8Qf9HSQGzN+7khzltMAr87KAL4vFjoAVA8ikfG0us5 AkBta92Fy9EaHbptJ77j1O0jEPeWeq1vuN4mx3bdL1Fna4ndvVznR0jQXWUrUOeTjLDTIACSvDGv zS4CSSae7L4FexYDgVgGRYx2eMkRIEC9PgIhpdNF6nU6OB5FK9TroxBTGp2kXqeB4pG0Qb0+EkFt 300SANtjyBbSQoATT1pIZr4dGhSZF1F6HaRep4dlxluiXmdcQGl2j3qdJpqZbot6nWnxpNs56nW6 eGa4NRIAGRbO2XWNE8/ZiJwGxdmIOkrp13RQHqePAPX69GX8+IbU67MRNvX6bETN7/UZiZoEwBkJ O/OvSoMi8yJKq4M0KNJC8gjaoV4fgZDS6SL1Oh0cj6IV6vVRiCmNTlKv00DxSNqgXh+JoLbvJgmA 7TFkC2khwIknLSQz3w4NisyLKL0OUq/TwzLjLVGvMy6gNLtHvU4TzUy3Rb3OtHjS7Rz1Ol08M9za URAAUWV2HiePgHlpSvDADZ1OXtB8wbNCgHp9VuLmy54JAtTrMxE0X/OsEKBen5W4xbjA9hwZOcwX pvwv/yr/f8GfJ0fQuMxOBzOC02l2g8zjacp1wVsxonA2ouaawjMSNfX6jITN7/XZCJt6fTai5vf6 jER9FBkAJADOZETSoDgTQWMX9iAQ04w2ZOdx6ghQr09dwo/vR70+G1HTUTgjUVOvz0jY/F6fjbBJ AJyNqI/gRTnxHIGQ0ukiDYp0cDyKVqjXRyGmNDpJvU4DxSNpg3p9JILavpvU6+0xPJoWqNdHI6pt O0oCYFsEeX96CHDiSQ/LjLdEgyLjAkqze9TrNNHMdFvU60yLJ93OUa/TxTPDrVGvMyyctLtGvU4b 0cy2RwIgs6I5w45x4jkbodOgOBtRM1X4jERNvT4jYfN7fTbCpl6fjaj5vT4jUZ8GAfBCpNEZSRnV DEP9KOF//a+mOL7ISP9OcqDeYPmdyOA77k2y+cBLkU47kFbVlOavJA/ktY8IJDAojIItnVZFGlZF WsPnGG56jpLYHwKxDIqpXhsTvdbu/TalVoV+P+yvr3zSlghQr7cE8Hhuj6XXk9fJVUJpeqEErinV 9tM76u++E0rhUiQMDGm7hng/FmNQqIbifQwld4HzuLb1yRD/v/G1S9tB6RGnEUgF80vQM6X+Cd96 XF+ohdJ4a0itLjLUMZsTacKuKAnmH20Q/6/fhl1xi+vxvI3shOMR5fqeJtBrbcx4VZPmV0fyrapU vL4EwLVQ9SC/0kR+fcjPgfye7wRkvChJ9caW2ts8KlarHIbS+WyL9x1SW3Euifm2/mXP+4q4er2R Pi6BNvH8EFevN7Er8rDvvwbSvDKlhf4+/nt4guMijl4bBal32mK/CMc+l6rlL0+qVy1ZBsm/+m9K 8QP0v1aUcTWoQPpNR5x7nRt47AOB0yEA4HwHDj7OMBTyMCAaMCwGH02xlxgOy8A1Xom0vgTSvk7o yJMA2H68xph4zNc1qb4eSbdviHtXkWa9IfIGBsTPlrTF2uhc8yenm+2Fl6yFWAaFfqhn9DrZE3h1 ZhCgXmdGFLvuSCy9RifyV/hGw8mPzL7PMwQAnG7VefHx7Yalnb8GSfABDrtlSHdumoYNKq0mjMYb MyIICnW0CXLQucK1cBSXtTMohdK6hqN/g2vxre9+gFEPQtFvBTKy0dbPCUpKAKAvQ9gRLkiFXBn3 +aF0aqb4uH4jO2HXAthn+zH0+rE76jDcN8UCqWP06mKBAAgLdcjPgvxqkB8IH3zLG9UR5GdL98/T ixgvK2Jf56R735LeH5AGuK51PZT6e0f6l8vP9fhZT200xNHrTfVxXq+105vMD7H1ehO7Ik8C4Nlg MsvitV0JbEu8fgxFW6T/+aq0vtalp21A/3NlR1q3RWlcWf8E9VIbyGzoGQInSQDoG9Y6gdTA1lfg H+6FCSYBsL1qrTUoDMlbLgyEvOTMvBQKpgSDgQz/jGTY8qRh1Dc653aG+xkj2yN0Mi3EMShkkw/1 ySB0Qi9CvT4hYa5+lVh6jSy7GiLwxW+m9D8gEt94IgBy70JpIyJvvzekp1k+CA153xAr/gRCoPv8 2fkrZNzBGa+9R8aenoJz6eLaHAgFFzP6snYarwJpvDTF+ixi4foCMhBapUD8PPphj7MBomOOANC+ +LjeRPu1ztmIdPmLrtXr6a2mFD42pPm2J/5vS+p/7IgAMK/akF8b8mtO5FeC/HzID9dodH/JYbxG 9l+zLL5lSfv384tWnaPENkcgjl5vqo/zeo3EkI3mh9h6vYldkScB8Gz05BB8+wqirob/rs14Xqz/ oWbxNkvQ46q0Vd1BCLRbNelcW9L4tRevbXOFOJE7T5MAwARSx4faaoIA+IJx9R5pgnYoefyux7AD Y0LT+DARtFtg9PExr1qhmH/wYf8IgwORgCjVZzhOC/Q+jFMMDXzwujBWXLSpnFf5JhQXKYgGxmow NMQoIFrBJQCbq0ZMg8LA5OM2Xcn3R5J/3Ren5j5GDDY9t3mneecmCMQxKJYSACDb/tHbK+ggInQL 9Rz6+UxXfxkSvBpH8tZ/vDZ5O97zDAHq9dkMiFh6PUUD31Ql6it3TwRA4Xq8jM6CU4/Pb3RUlcz/ Mv6Wzx75KjL19Frr6dra90Cq9/i+XyxvxzbmCABkG5hOICFYhCIyAGWE+7EMoA9C4TEDAFkBJXzr ffzuV7HUAJdN04DbGN/OLd4D85JEKeo4/xFLEXDPUtvjFOzbmHptwmFv3pWk/cFGNkVb3NE4A8Cs diA/ZAVY07ThgtS+tyA/Syrz6/oeBY8MgOuWNGs9qVve3FKwuXM5OBNfKjIYINX4FWQMeQ6/uVJ3 OxLAhnBuHcgMRuFkWUHrYx0yixHNPBttfnrROHq9qT7O6/XjUxPOD7H1GiJflllYhE3vqS+gncDz hyApbRCFozwJgGfDPmdhbnSlEGIiu4Tv84BlOQ1H3Nbgn2DaMv0PJlkBtb9t8e76yOyBPoYNZGZh PnhJ3d3HNHNyBIALNqqMD7WrqYPqjOMj1WyG0rUNafThxOMj7WMtT4jlAjaubWONX66XE9sRpJcB 8hlFb+OD0UaKYU9TDLsIRiA60cLSghaWB7Tg9bfv4UTUcQ7pgcU6DA5ED7z3dCo2HrixDAp85GtI FbT6Yn/oSqXpS6FVl/oXnXg2Pbdxj3njhgjEMSgiAkBre8zUAAi6cBZA3unvs3prQG+X6bkbUFc3 FFM6t1Gv08HxCFqJpdfT91hk4Ot3tAxnH6n80xiwhTR8G6T9fDafiVT+Nur8tGr4tsN5j9YMI0Vf NFvgxfJ2qogu6T3REgCQ/UN8v7V+kLzG9xvOfe4ukJKSCHDgn2oAwCn4i9R/OPaNHnz8GTuh9wZE BMjEKoiIAca6CRLBQGQ60AyCZbYH7ImjP+Lo9WURyyzwjUaqbx3LLUr+EwEgJRfyK0AWtYn8XMgP IH6qSOXrcCE8uo648aUm4eeq2N9Gz5yNf87h2u43W0Z+Tepq/OnzGiUEdyzpFtuQWRsya0BmBmSG +gK/B8nqPh29AOO/QBy93lQfl2bpJpwfYus1hsJCuwL2ewjdzYEDGsAXMDAfdGDj+1h+1Mb0wBoA y8YLIvxV6K6Th89VhS7PsJsr9F+pNvN1HfpsSxE2nvzpoB6Ag6AMzlB34yvnFleeDgEwLQKIsTdC NL7TwIdanXZE/zu3KFQxs6ZM8Rp4iPZjImjDuOjh4/247m/+w471f9UKrtcxjTFqIxpRRsRCIwxt rB2MzumHEBNHd1IkhFHFDUdkHINiw6Z5W7YQiGNQrMwAmNPb3Ao9dy+pqweVPvX6oPDv8+Gx9HoV AbAiA8DV1H34h3oEWN6nKfwasXMRsVNPMMR3f5AHDYwUfR9W/NJMAhQcjIoAwkEPByjwB0MfK8ik jiBBHd9z0w3EHYJwQGbgNAPAw3KE9qReAILXzwMF+NMDaVCEI9n7jug/0gP6sDdWzUm1b/uUyo6e tVavTSk5LfHyTamhoMMwzEl5hgAILvD3jQ/5wehCJDEc9iC/MuS3eAmAgRRh796WfAcFAW97zwqF LTynTgQKDjauJoWCEbVstW3pQ8h+gHXHd3A8/g4gMyxFaHUgs1NIy9iNrGPptRbG3EAf/9Frd5xh qxH4RBlCcfUaurcwAwD2fRV1SaogFjXbV488hqaLoN6zwn/4/eyLAM4PM3X0vzWl6FdQ0HVK3a7W /1CLgjZrEkCnna+hlD9ieS/suAaqsDalSt3djSo/a/V0CIAlxcKijzCi+7qm8J9iI5pKjPs0jfDR aYfCT5U7YvbjEgB6n+4CgKUDJAA2HLlrDYoN2+VtmUMglkGxbK3eAr1dpedRauIcWac6Tl3d07Cg Xu8J6MM/JpZeryAAtNAeMkv/qQFgYp1+/fvq94uygCYFfLsgAuK0U0bqvo2U/zqKULWw28AyAkCL AFZAGngXIB50lwDMQfNOAHxXRJSx9LCEcygm2ECF7KW2x+FFtX0P1um1URT7K5x/XRoxOQzDjPZU CH4h1ffKl/6Mz61OfPML1vVf17D88rkzbryEw36PHQS6jtRvu892d1p6LiIArKdaATMEgBc9GDWF ylXIzJrIrCYuKwcuHBeJ9Hoq6w308dnDFxAAceeHlXq9hACI7ARk+GgRUcQTx0E9ZAg15iv/kwD4 d4xcjut35D0LpM2EAFij//ZXEHHW7BKgvFS/oSYI5oDKf2Xq7vYz9NoWTp4A0Kr+TRj7oil9KAio 2wLmwPibQ0TusdBnFQGgaT9a6TeqMtzFPTBOmsgm6OgOAZcwMBr4HxwLHxEBrRXQAvvpWyQA1o66 ZResMyg2bpg3Zg2BWAZFAgJglZ6PUJvjH10F0+9zuc5+hgX1ej84Z+ApsfR6BQGgWT8+iHRDs+wQ dot2AUBdHhdpuFO7ctFrGrivDmfegjNfBeGv9X3WtaMpvlrVv4EdATr41uuSPl3fr0sAyrAX6roE YGYXALOIeQQp/Vo7xINJsTAKCKelCpuhjqVKFRAWS20PLXB47EdivZ7LAJh5f+NFGfLzID8H8uti +UQZyzIrMrxD2n6Imj9YX5z/4YgNQ2y2PKA6/8vORWnEKwmASQcu4Hh8aUFmNZA8/65hPnYxpdH/ RHqt1MoG+vhPPxcQAHHmh7V6rUsAFgQMC7r8CM6+FhXtY2yXURdEdxVhBsC/I8h4WZaSieyZn7oM R7fz86XxAZlQFtbuy5Putp4V83uu/0aliUKtIFUxYbd/I+sCBKCv66g/IQNoWKHupqG4a9o4eQJA 31+3BXThnBe1sgcmlXCEAj11pOpByVcRAFERQN1nGNsLRfsM4+jBMHCbSFHSdCc4EZp+OC0CGBUW S7p94B6EfDSPSGxQHM2bsaNzCMQyKBIQACv1HOtxo9REbD3Ggp0HGIrU6wOAfphHxtLradcWGfg4 p1E+38W2cKjBIw9Yf+sZ4iEd/58EbS32ixo90wjzEE63i1T+wcS5XtkOnm3B0a/+B4P/ftx25XMg zlv84/eCIoDIAFDbQZ175wHOPZYfqHOvxYK7+O43P8EMntgI4W/YFzfoN+adpbYHbIujPxLr9RwB oEXAmsgE0EJ8SPoedpuQXyuSn/kaW4KhgF//I7YKe9NCfaU8xsLsCMA2z25V3JfYEnDhOUT1+8uj iM0XPmRWgMzGlaHD313IDGQDHBEe/yIQS6+30cdFoG8yP8TR6yVFALU+mIs5QZcGoWyQjLDVtLwB 6ac1v9A/1gB4EpJZdKThVwUbcYlgHghHPSyjcqXxY4TaCVPdtbAt+2xRzX/1v+qiKGcZ9TeiJReh DL974mCy1yKAy8g76m56M9RpEADp4cGWDolAYoPikJ3ls7dBIJZBsc0DVt2r6bu6XIc7duwK4eft Uq/3g3MGnnJQvc7A+59VF6jXZyNu6vXZiDpy6KOdMXicPAIkAE5exEf0gpx4jkhY23X1oAYFCYDt hJf0bup1UsSO9vqD6vXRonakHadeH6ngknebep0cs6O9g3p9tKJL2nESAEkR4/W7Q4ATz+6wzVjL BzUoSADsdzRQr/eL9wGfdlC9PuB7n+WjqddnI3bq9dmImhkAZyRqEgBnJOzMvyoNisyLKK0O0qBI C8kjaId6fQRCSqeL1Ot0cDyKVqjXRyGmNDpJvU4DxSNpg3p9JILavpskALbHkC2khQAnnrSQzHw7 NCgyL6L0Oki9Tg/LjLdEvc64gNLsHvU6TTQz3Rb1OtPiSbdz1Ot08cxwa0dBAIR/WZk1w2Mota6Z l6YED7NVQ1Nrmg0RASJwIASo1wcCno8lAjtEgHq9Q3DZNBE4EALU6wMBf6DHGpOdUA70+GePNV+Y 8r/8q/z/BX/oCGZBIOwDESACRIAIEAEiQASIABEgAkSACBCBXSBAAmAXqLJNIkAEiAARIAJEgAgQ ASJABIgAESACGUOABEDGBMLuEAEiQASIABEgAkSACBABIkAEiAAR2AUCJAB2gSrbJAJEgAgQASJA BIgAESACRIAIEAEikDEEHgmAjPWL3SECRIAIEAEiQASIABEgAkSACBABIkAEUkbgf2jv/1Juk80R ASJABIgAESACRIAIEAEiQASIABEgAhlD4H9IAyABkDGhsDtEgAgQASJABIgAESACRIAIEAEiQATS RoAEQNqIsj0iQASIABEgAkSACBABIkAEiAARIAIZRIAEQAaFwi4RASJABIgAESACRIAIEAEiQASI ABFIGwESAGkjyvaIABEgAkSACBABIkAEiAARIAJEgAhkEIF/CIDi62LmuhkEQeb6tK8ODX8Pnz2q VqtJ874Z/VYul6Xb7fLfB8BBsdej+2OMPw8iQASIABEgAkTgMAjkX+Zl3l4yL83DdIZPzRQCwcNz H4LjIlPiid2Zf+RoUr9jg7fgwqMgAIbD4TbveLT3mhjc8x80+Xu0r3OaHb84zdfiWxEBIkAEiAAR OBYESAAci6T2308SAPvHfBdPJAGQLqpLCYBSaST2zUAOQbBowN+/LUivl4velgTAjNBJAKSrAdu2 RgJgWwR5PxEgAkSACBCBrRAgAbAVfCd9MwmA0xDvuREAzo2zVHDerbe1UJcSAK2v3YM4/9M3UhKg elXODAEQ/g0lDMOtAV/XgGEYYlwY0WWLMgDKb5/S/te1xfO7Q4BLAHaHLVsmAkSACBABIpAEARIA SdA6r2tJAGwnb/V9kvg/kR+D/02PpPdP75tv5xwJgEWOvhIDOyUAOt+7242YFO6uvMsOATA/8FJ4 vaVNTNcncQnALlFOqW1mAKQEJJshAkSACBABIrAZAtsQABrgkcuCWNWiDL+2pI8A1DQQs1lvnu4K X5Sl2XYlcCyxu6OFzaX1rG37eqr3p0kAjMeKYKwgO/mrpDpWsor/JnXY1H+ZHpvcP733WTvztRwO kaK+RyEtc/RJAOxRCPooEgB7BvxYHkcC4FgkxX4SASJABIjAiSKwjgBQR7zR9qXyYhKZ1G/3ZEll +Kcjdr0n9UZVevWqeGAA0nLKSQAcfsCtIgDCFyHGxQjjYtLPZ+PCFPu9Id1gJpoNAsB4JdL6EmCs mBgr6ZFFh0dqcQ82ceBJAGwvzaMgAMJfIs2mSPubyOBBpPAG6fs3IjX8Nzp+i7g1kbAh4kFx4h6Z ygAwA2m3KZ7nAAAgAElEQVR/D6TwYEi0EACTxOg/Q7xPqAQ/JXUxgdhuKNUSJoTJNcOvhtSATaMT SPHv5N4/uK6qk4pI5XMo7rvx9cO2IfXPwGlSuZZLAOKOlP1fxyUA+8ecTyQCRIAIEAEisAiBtQSA Rm4nh/GqLp2vVWlVK9IYLF7aSQLgdMbZSgLg2bgQjIsA48LEuHh6/9mxEGUAzB1pjZWsIj76AycH Jdls+Ce1EgiQWf8GPlBYgI/nh2KBXLPg/wxwxSwBMLocSacbSh7+YXSo/9Qb+08d+IfRsax9f1wL Tg8uARjjkJkMgPAnBkQdW9JhYFTfYt06BBsMIVw4wwWkySg54IIMMMC0hv6REwDfQmlbhjTxfgbe r34bSt00pIpUIJCAUv+Cv+Hk2/aYFDCQAVMEBj1g0mmF4oNJ7MD5nx4mFKlzB0zQZgc/Nr6GMvxo iD8Yp85wCcATVpn9FzMAMisadowIEAEiQATOA4GtCYB8VTptEAPXFfH/IG3/qyOj7lBK74piXiJ4 86sjjeZIyh8tKb4wYdMOpXNri9MaREGhXMkW73MN5/BHOJLuHc59wblcJVoCIN2B5N4WJQebUP70 pfXZER+GYiimFG988a5wDp6V8ReR5aYt9l1fghclcTxPrDd4XuQBDaT5sS7+z2D583DZqTukSUf0 VgTASwQ3W4F0mnBu63BikQ1QrcN5BVHQuTbFh49jfQrELo97lcvBQUagsP/DlDp8n9Kycx9xMZxl 7zOCg9GYwRC5MzFm8M9Fz4SfMAifMhGSYrDN9aMHFIWHD1PHKLTRb3Xa1QeK/Bs49R76bP7A67yH Pwg/cCEBACenbcHPAbFiwKeP/CcQBrUrtAH/cFn7w4fzJgCWye3wNQAgtNY1hAcCwJ8M/vnODhD1 HyDCXcB/m7juqDMAZgiA6D2hpC38pk67B1awg3dsTAiCWRyMIhTmLhSnYkTKMj2KH0NpvjGkUgNh gh8rTVwDVsz6QgJgm8lqr/eSANgr3HwYESACRIAIEIF5BFInAGDQFQe+1OsN6V/AEf/akNqLgTTU AUc0s3jTgr3XR4q4I92LsvhYXpD/ZsOx6Ynx3pOWm5fGVVWaDyATvjWk9Lsh9Q8+Mj9NKd80EBAa imPZCAoZcOZBKgQdcARwMD80pQVH03lfk0GpLe2bvtTfu9LDfQUQCGG/K0NjxfN+wQGdFJLmKBkj sDUB8G0kuRGyAm4MacHhD+GTdtpjAqB5qYE8LCNA1kAT5wo1ZBDUkM2LgN/g9fJzMPUxZgKMGRAF t3CK34cYM2jnCu2ADGjPPxO/HUquYQGE1j36Cwe+OZMZMTu+cnD+O4joxyEAovvyeMcO/CeQKS58 yWXt516cLwEwi29aUf/ZNpfuAhCrCCCi2TVEv+32mAladQwQFW+COTopAgAvXMeHwGpA2UHfdUAE VMvIBpjbqk8JgHYDk7IqMHAKsHRAswRySP/3wBRWXPyGtkr428fEXfm8nADgLgDZ+KRxCUA25MBe EAEiQASIABFInQD45onxqSLVjoZnclL22+LnfbGslgzxi/nGRdCniAxOS3qvGtK+hSMDpz263ISD 3gEh4Fli9QogANDWZ7SFtebRkbMQPEKGwc2/hQGN1yAFvmBpglWRzktf2ndFGdx74jc70RLb6Pby iue1hwdzFLM6CrcnAAIUcTSlpqm6euTnCQA4x1cgBzAwCtcgAODURgRAYZzlu+jcsIiMYjj+rmYG R2MG12GpcN4zxfpPCYC5Z+KSQxEA5nuk8MN/0/T+ef9mKvPEBABurPewZDryn4DnkvbPiQBYte3f Ot3aJCNgOwIAaSDVD3DqQQDk12SmnCQBgOhv/ftzAsAqI+NhjgB4JjikzXjIGsh7hjTezhEAYP98 pJpVXGYArBvsmTnPDIDMiIIdIQJEgAgQgfNEIHUCQCv331TE/qHhmQkBYLrI2OxEGZtm0ZH2fQlR UUv6b9pYDlCQMJhdHx7K4HNVqkoAoK0QuwDUpwWjUJDQ/+YjCARS4LspVceRWjk/TvPH/8+9COAY VuBQGlJAloBds6SUR3vthrheS8LKiueRAPhHAbYmABCp730YF/ybJwB0CUDVg7xg+4+iJb7I9PVB BqEmmmbsLzuXs5BBAAIg1OE1cwwQAKwqATD/zFMjAGA72z/gP92BANBl0iQAno2DdRH/defjfAW2 IwDOPQMgr0oaSh9sn38RYv0OnHuwea1pUYslEohS/TULAMsGmqW5JQD43WqSAIgzeDNxDQmATIiB nSACRIAIEIHzReCQBEAPa1zbCOo8ZgDMikFrAEQZABYyAIbjMy8tRHgdGdqW+DncexOIX7WRQh5E xEKnCYIAGQAaUR4fIAXe1sXza2L6VamP7OXPO6CjmNXRt3MC4D4Qq4sMAaTJPysRqATAknO5d8gA 8GYyAGbB0xoAGSIAwtdYAoAlzl4Fy54fx+RzaSfOAEBB+DaCoYMPWEINO3pZ++eUATCL6DoHf935 OLq4HQGASHcTBRwGDgYGUkNWHaeWAWBAQW0UsagiZb+KOggDDGAHRfyqI7BZKPzRUyYQv2lRlwBp /6gLIkPdWxb3+bhOHEOcB0wAk/QgzSzyQSaMtAjgTy4BiDN4D3kNlwAcEn0+mwgQASJABIjAEwKH JADa4XhNfuG7C7uwjSzQnBTLMIr/66B+wIIaAE4TNQAGUf2A0VVH2jXUErDg+Ad5RIyb4lYQUa7M EgB4T3Nch6D8pSrWtxwyb5c87w9rAMzrxU4JAAT8fKTrG7fYMhDZ0M8IAE3rX3YO2cBaA6CADBAb mQCaOVwso+eI/vfhN2SJABj9HYkL/yTybyZFziP/Br7NaJLBkIQAMPJwgbBrQBXEVlREHe+7rH25 OK8aAIuWAcym9687n+SbsB0BgCcFqPxYBQFQwwC2sO2fgUGhKS26baY6v9PjJAiA2W0A8WJD3cbC nTj7+Dsa1FjHb2HN/3QWGIAVtuHot7BLgqk7Ieh9HTj/+HuIv8tI+1dWLdoWA7/baC/Q7QN0vjdN Gf4ePpfnquUFSSR/4Gsr+Lh1OtMFVQfuzDaPZwbANujxXiJABIgAESACWyNwUAIATqD5BhF67Hdd fjW238JhV9wPiNT/LUujZcvwO3YQeK+V/mEY/+k97gKg2QDunSPWK+w0EKIo2o+OhG9K0sZuBF1k FjTd0qMtHfRb2FXLky4CTEuf95sEwPxg2ikBABO93gjEwZJemdjnwW9TWgjyedglbem5nsoQwVM3 wJhRzwDyx5IPFxFx8AjZIgCwDaCBiL2LjAULtQtm/RsLOwDosZYAmN0GUP2gH2P/aboqZln79c75 EQDzDn+Sv5NMpFsTAPqwAIxVA6kvbZABARQgDwe4jsi2pVtbTI6jJwAe5hbqJEE54bXmJQmAhJAd 7nISAIfDnk8mAkSACBABIgAE1hEABOl8EVhFAGyDSohlvBZS/J0HpP+jAn5UpFHT/n38hkCehy0d 7SXndPev4Eh2awiC5P6PBjCnxyb3T+991s6cHzZ7bhs5Zune+dT+pH8neZdUCIAkD0xybeVdObp8 OBwmuW0n16qiKzu768MAOzyt9LkoA+BUdgE49gwALgHYtSawfSJABIgAESAC8RAgARAPp3O8amcE AELhdaT4ayFHC1nQ6ibrHvc2MgIqWMrberPkXB/XuwikHwkBoL5PEv8n8mM002VyJL1/et98O//I cYZkOJVxndTh36YWwFICoPW1ixT0w0GqhFP1KjsEwCGQ4BKAQ6Ce8JnMAEgIGC8nAkSACBABIpAu AiQA0sXzlFrbGQGAwGCujGW8n0Ip6FbokyUAo/8Q/ddlvq+Xn9M6YYfa1u9YZXsuBMC8fPZeA6BU Gol9MzgICaDOv48tVXq98doPFXrwJ3kKyrEO8mm/SQAcgQRJAByBkNhFIkAEiAAROGUESACcsnS3 e7ddEQDb9Yp3J0XgHAiApJhsc/3SDIBtGuW96SHQ/zndeHTcJpcApIftNi1xCcA26PFeIkAEiAAR IALpIbCIACi+1orMPM4dgXk7muPiOEfEvBxPsQbAPiVDAmCfaG/wrPkBP00x2qCpTN1y7DUAHsFk BkCmxhU7QwSIABEgAueHAAmA85N53DcmARAXqWxfRwIgXfmQAEgXz9RbIwGQOqTpNkgCIF082RoR IAJEgAgQgYQIkABICNgZXU4C4DSETQIgXTmSAEgXz9Rb4xKA1CFNpUEuAUgFRjZCBIgAESACRGBr BEgAbA3hyTZAAuA0REsCIF05kgBIF8/UW2MGQOqQptsgMwDSxZOtEQEiQASIABFIiAAJgISAndHl JABOQ9gkANKVIwmAdPFMvTUSAKlDmm6DJADSxZOtEQEiQASIABFIiAAJgISAndHlJABOQ9gkANKV IwmAdPFMvTUuAUgd0lQa5BKAVGBkI0SACBABIkAEtkaABMDWEJ5sAyQATkO0JADSlWMsAsAojsRz RxJ6BXF6BnoQSqE+FPdVTmzHlNFf7VQoFW8g1q+C1O/1mqwdObHuG1J78dSv8Jcn9ZueBPjJeFMT 92NF8tr1h4G0bz1pDcLo4lXnYr2lURD73hHjti5ef9zmuF1HmnYo7gdf9FHGa1saH0dSq7cer2EG QCyED3cRMwAOhz2fTASIABEgAkQACJAAON1hENnGnwzxP3jSD00pVYoy7HQnvsf69z4JAsAsS+O+ Jh27Ju3f69/5FK/YDQFgSK7sSOPWEsOzpPJ1OPXQ8Lst3idLii8MCUd9abm2+D31GBcfRr4qjZYr hR91qdx04VuaUqi54tVKkotc55H0mo64zUHkdz4elwWp3jhSe1eMrgv/9KXtOeJ34XevOrelkNcS AOZbOP92APce/3c7JQDUew2l3hhIrlkQt2uI+XYofs0Q72MucmYzd1woMWFL6NalOZXvtJOXRXEa tgjOe91Acu8gsGu8d70hg4sV52K/pyEFuyGO4Uvd6wNJPQwpfmqK/eBK3R/gN1zzsSF24Ej9y+gR PhIAmRtJzztEAiDjAmL3iAARIAJE4NQRiEsAGMUaAlow9v2a1GHvRYdZktrHqpTf5MXUb3owkM69 J43JefOdLW6tLPlLteF70rr1pf0rtgGYAejHAbC6RriigB3eY+gh2KROyjTIZUkBATJ1dGYDYLOd HwfD1l+3yQvnPzTFe92Sut157hxp/2YJAKMs/l1Vejd1acV0hFcTADmpABvb6Ipb96X38NR7860v jVpH7A8debLKN3m7FO45MAGwUG+WvdaLirjwqQo9W2q38G+W6VcvB7/Mk2K7LvWvzxHOVRvSeN8X 67qx1B8yTXNLYA3Jv3el4ZQkvDARpJ0hAF5gnH31JPfVjnzdAvxB3xqKfeXIQg4Agd7aXUOsS/jD vx2xQACEL6vS/FqX4eequN/gW14hsHyTE++q+ozEMV5V4W/mpNNoSndoSMlpil/uSf3Klf6L5edW cBGxcFlDAIRSRuS/8B1O/fVAKnD2xxkA48N4MxL1mxvIAih9Horc5cX/L4vRf3QWTr7bqEnXtqX7 5zk2RhHsjz1CJL4pQ50cI7JgHLFvXIB5XHLO/xn/AxBNYM6UwRz3R0mH8HNdfGVM9Jn4O8DfLUA5 PbgEINY43vtFXAKwd8j5QCJABIgAESACCxGIQwCYbxHksYsIuMDYv5shAF5WpP4ulG67K4MAwZhr T7z3ahMi4nxZiRzO4R2if91QijVPnPIAziICRPFNwMNKbcam/cduVVsU9q7ZRmSyNZJcFQGwCjJ8 598v7nWbvKlRjLJkzUZd3B//RlifEQAzDnrcR8UhAGrqS/aRFfx5nBWsBwmAKQ5L9GaRAC5AqLhe 5AgbvxHgVAJghX4FV+rsdkGyTPwvbfMiL7V7X8pdEAgzEdvUMwDwnOodCIhvvvRB/tSa1ccMAJV9 2zPEtepjnxGEQOOrK4FjiRtUpdWswV+zpPZNiQvMGTUQFu/64v+2xL5wxwTAq7q0v1SkWcX1Q4R5 88jeaOHf15a0LmpzbTyBab5xpe0XxFeiYI55WnUurj5Mr1ubATC+EOn9YEDKcwSA/l5yB2K/xL9+ 5cX2zH+Yu6Qd2tn1SgBggsmHmmuPgRkOpdscM7zmOwjOakr941TxTSk3GlIFc+MIrllyrv5fER+G ivR/grEpmGKCHR58a0SMTeX1+O/Rdx+OPqL+c8sAItLhJhDvw+QjgoHScEKwQDNKoPPRz/5zSCbs 7a5wqlQqu2r6IO12Op3dPpcZALvFl60TASJABIgAEViDwHoCAHad6yCgBZsLTnz1C6KO0wyA+bZf 1aTpFaX5wZb+a0SBP/TE+dAaB4jgrDrIFhVd0oklrw6c1lFnIMUK0nzV6cES0g6cioaG5ww4GA6i gbAHRW2FPwOkEcO4jxm5Tk3oUQCsLgPn36i52qLISoYtCrJDnevIVh4Ho2bJgpXXDbfDwXyLKOxH 2L+Qi66SNV5XxbE19Rq+xcNI+j0EIksifh3nLyap8DeIzn6G89ZBhPbL8BGqPCLGfmV15Lj4ujgD rWYAeFL+1hWjVpHABwkxzfyYzwB4WRYbKfilVyCQ4P8Ev7oYJ42xg4gotweiqIsIXuUa2SIPyGa4 GUj9DuPjx0iK5QLSuw0Jhh1ptgIp15BJgXzvyBdpuCCXxrRDHgSM874gpvopyDvof3HFVS/wYBkA CfQG/c9ZIM/e9qX5uyK1CxAqSgCs0K/upSWNO0v6Tk3gZkaHUYA/BP1rf4QDPaMrqRMA034pEdBu PSMA8tWOtGptqVkTH019uHZTyvdVqf5A5juc/+AOHmI/iPrbvCtLt475AvOEdzEmAALNCkBUv/YX v90hi+Aj5oIQS9Htlow0S2KmjSeIlExoSfOqiwwAEBPPwFt1LvlssSUBoAzZEGtzAhl8BiA/Mhr9 X4BLtLbjYx4DzJZeCRPGWwgJ9QDGWCOjwYeQwD5B9Zaeq3cL0mhiomyCKICCRoP2FhMIfrN1HcnM R6SrrPLjMgAMhE+a7g/lwKDQZ+ZBBCjZUL9/msi0J/smAJIPoc3uUKJh5875Zl1LdhcJgGR48Woi QASIABEgAikjsJ4AmD7QjFK+rSUEgPGyJBbsQusvUuY/dUU0QARnwP7QHqeBq7OgDiPsvvp/eXEQ SCqNWuIibbf/oAa6Lx4igQ4igqOSkgf9KLt0APLALBREfmH9744DOf9AewnnFF5+/u8kAPYwlI4G wL6PxgGw68n7RRmwulzAl4ri8/0pGr/yut42OEAesLerA6yBbsD+jYJlnhS6Lv6L4JmugfawXCEH EkYJgikBYNelpw460sQVa8U3yqTFexW/oe/IZpge6zMAEG2+B+HxEvb+VQAywo2c+mcZABqVbkDW fQ3qabAwJ+WPsNkLXXE+InAHjH1gbI5ACnwGKfAbWCuZov35BXvfbctQ1CEE+WQOpfnJkRayiPNV jJf3yCiZBAMNMB2FoCd9dD9X8bC0WgOFs+99qBoAq/UmwvqlJZ5Xkp7jyuAKPs0CAmBevxTHyh2i 70N3vFxAl0dDl5wcgrJzy0H2RwBAj6HvTaslVQSAx5nhkD9Igmq7Bv2YITUwXuuYT0pdjLl7ED1e +4kAwG1GAcQGxkVJM0x+dyBnyB3ZAMsOA35jAyTD6DOW20A/Z69cdW6T6XQ7AmBaB6CHQgclpEpg DcPxpESNJ/EilgV4l5hENswAUEG16pMUETCAPtrrYGLq6Nyjky6KdvTwtxJ4RmFSyASDuuKPGdZG lP6vEwuWHHj4+9dzMXIJwCbDevf3cAnA7jHmE4gAESACRIAIxEFgawJAC3jdVqMovug6fx/rdTX8 FgVyStJxbGlh3X8UPLopS+DVxO7D8dXUddQTcHoTUz26HsEhGPr9HGy6z0UZtOBkt/v7d/xngdNg RUQ8wLnBOmb32oTtOgmAvW9LHevcx+6+RsR9sb4hsj6Tf5xDJNRfdh2WCW+MA9ZJN3xET2En65r+ KN3fzUX4Tdc4m29BVnxc4AiHWJ4Bm3sIZ8mHrKIshU85aeK9OjNLfWMRABrIwxJny/Ol+hf1uT51 JFQCZ1oDQKO8CHRqVshj4gii8j5s/IFGr/8oAaB2PRy3/yZjYZJ5LLfT34D9TVPcl6gHZk8yjpEW 3kR9tdn3fRQbHGrFpqXPlEMXAVxDAChxBKKm9MNBQDQYBzxnCYBl+oWXNcuQb30iXymBNLFRowPy mFsOsj8CAEHZK2QAgASYzwCowOebLRRYBPnjv+lIHdnbAy1QOUMAhHhnH8SS0UZWx1dk0iMDoI66 en4Nc8kCEsBQAgXZNznVvTvMFzP6u+pcnPlx0TVbEABgrj5gnVAeOwG4hpSxA0BlkNUdABa8erTG xJU80nO8EJP0jVbjbzyrAWBiAPp/l5/zhiVpNCYEgEpqQgBo2kqUEjRHACizWYejb7aRAWBN0v91 QlbF+GQivWnCYs50lxkAmw7tPd3HDIA9Ac3HEAEiQASIABFYjMDWBMBjs1oYTIv+5aSNmlHt3xrV 17TsPNK1Qxn96snoFfLRp0sAtLj0bLr8JPOzAadNHVizVJV6tSKll6H0O3AWmnD89p0BMA9ZFGV3 JYc6CFEALI0MgA1xyMNx8gpPxf8MrH9uovD4dHesiLKYLQL4mAGgkXCtP4bo+l9EkN2+FF047hdw rj89rePX+2MTAOpw5ipI166JfAHR8wdLdScEQKD9gp8wXaYQQarLQRDdNdTB/4UlwXD2+jdw6IcT wKfLKVB8PKr1peQLHGPXHPc3oglg/zdv4UvoeHnA+8A5rL5FMUpka2hhupwZwGGET7EnAqAAh9Z7 n4uWOIy+wWGdZClrZvSqzJmcZjIUkQ3xCZkyfycZzwuXAMzrl/pK4yXahvpjF8B8SgbM1XvYJwEQ 1QD4jMD21UwNADjyIWoA2FNiQvXoK8ZutH3c8yMcYlx+KWO8dKT2fuLbzSwjsB53GxjfZ2DcRcvU u8Dcfz5HrDq3zfdgcwLgJQblbSDdG6TR6xqNPAoCevp3IXZlzm06nvhesyCFy6EMNC0HR+49Eu6r KGCINUW9vxCiRuDBOukuAOY7VXqsidL1RqvO6USUhACYVPp330C1/kO6CxQr6gvWLHmYEJ4U7ent SAAklvR+byABsF+8+TQiQASIABEgAnMIpEcAqDX+5CA/Rvanz9OoLBy2Vt2R7t9xPYBVBMD0NqNg ieNWxYSTaM+k1h9EkHg/BwSA7oQQBcCmW+zN1AAIkZH6bNvqWSd8/jqthbAJDj906cDY8ZsW/1uU ARCRAup8L0iFn17fdJBZi6yMkTrbcwW6ExEAEIj5DjUJ6qZ0vohU3k92AViVAfAJGQAjZABAtj0Q AI+FvCcEgPYpyvZdQwAMiuNIeMP2BDvATciBMrIO9kcALB+PKwgARP+rqJtWeznjCE9s43CIVH5s bT7eLn5y/KNfk8wIpP1rcbzq7+lygOe92ScBENV0+OpLHrXgdGm2LtNuVEfiXIGouZis34ff6P03 G6d/ngFgYHlNGwFyJXeaA/iWRYwD+IyjG8wFv5DpoDUA0Ib/u4RlJahPguyJRc7/snPbzh2bEQAX SGX4PBBLI/7NqcBDFDgYZwRUb7bdmmHb11pwP1g23fpFt3HRNKhon0WsO2lP1iwYr5HCZVdAEuA8 inJ0fEw4k+oLS89pUY5EBMC4uIWyfV1MElHBC1UcFIzJYQJctKsAlwDsYCyk0CSXAKQAIpsgAkSA CBABIpACAtsQAObrihT/9qQLI12dtHwFwaC61oiaK5qXw3aBWApQ+oX16RoZjSrjxyMAlFSo3rlS gkNhd/6tdJ8CBMubeFGS8suh9LCwXHdAKNaQpl1BEA8OdRQA02wA7ALgYCu2PLYe87AOfuxsl8S+ 0bpWHoq6odD3sutkMxzcB6T7a2o/6iY8Fjub7AiQ/46sC+yXrgW0qyj2V8vP1wCYrIWPsnmRev4T DtZrLdb4vJC2gpKUANBod1nrdGmtwAAOrG4DqM+BrV76Oa0BAGcPQUK7iGdq8W6tAbAlATB8q/UY tGYEiolrOvlHPAu7U/jXGSUA4CQ/jo9n22I+zwAw4uiX+kZYaqMeZeQfzS2HXiTH7bcBnKjMgiKA Og/kSpgH4DcWXyBoG8Bn/AxnXZkZ9DXaBQDnatF67+nxnAAIUATUclAn4h0yOqJLUC8POw44t1hu g8Lv4zbgm+ZBFNj5Of0NZfgJ2QYvlp97Woqw2ewRkwDYrHHetT0CzADYHsOdtsAMgJ3Cy8aJABEg AkSACKxDYCsCANsDunVUblcrPQoQDVDNHanxKMKla+ItBIuqOT0HA77bgqOHCt8a0VxDAPRfwWGA F2lO4mTBz7b4Xmv/tbKQteDC0Sii6ry+X/C7928ADI5+ER0NA+xiMA2A4T7dAjFANoCL9QxRMGzR dZvgACcoj/T96k8U/5srfv24CwDkEYaohP+9L/l3qAswuwsAqvFPK8RrfYLGx5yMEEibrVswHTPJ CQDcCefWQXX+0gOyc5UA0MawFVwdzmn51Vig4RAF/25R8E9P6hLgLQmAHta/111bKvAFQyw3Gfaw lVyxON6+fE9LAJbr2YIMgLnx8XTvHAGwUr8md022/rNQMd9GxkBUeG/u2FkGwLrJ5UTPkwDIuGBJ AGRcQCQAMi4gdo8IEAEiQAROHYH4BMCpI8H3W+c4Pt8GkHgdCwIkANKVFAmAdPFMvTUuAUgd0lQa 5BKAVGBkI0SACBABIkAEtkaABMDWEJ5sA6szAE72tU/uxUgApCtSEgDp4pl6a8wASB3SdBtkBkC6 eLI1IkAEiAARIAIJESABkBCwM7qcBMBpCJsEQLpyJAGQLp6pt0YCIHVI022QBEC6eLI1IkAEiAAR IAIJESABkBCwM7qcBMBpCJsEQLpyJAGQLp6pt8YlAKlDmkqDXAKQCoxshAgQASJABIjA1giQANga wtNDfMcAABO0SURBVJNtgATAaYiWBEC6ciQBkC6eqbfGDIDUIU23QWYApIsnWyMCRIAIEAEikBAB EgAJATujy0kAnIawSQCkK0cSAOnimXprJABShzTdBkkApIsnWyMCRIAIEAEikBABEgAJATujy0kA nIawSQCkK8fVBIARitPsS8mYbGKKZ4e/82J/MqR2N5TAzUvj19M5eTWSpivi13PS/4t7sbdn8BnX DGau0TYX/Z7ue8VqzXyHvV+vS6Jbo4ZBX9q3vrR/hbgX+77eN6T24qmZ8JeH/T97EuAn401N3I8V yetrPQxwnyetgd4X8zAKYt87YtzWxes/3We8caRph1K99h8b4hKAmJju+TIuAdgz4HwcESACRIAI EIElCBycADCKsG1tCb26+D8T2IOU6M4RSJMAMF7b0oAP5H/wpP+w865n/wFmWRr3NenYNWk/zPx7 ZEqpUpRhpyujv+m8BgmAdHCctrKeAFjkrF/CiW8cOQGQq4jvV6TvwumG8563XPGskbj1hgz+FqSu E7lbl+ZwDvBLTPINWwTnvW4guXe473oknt4Xe843pGA3xDF8qXt9Gd9mSPFTU+wHV2r+YCkBICkp UrrD6IxbYwbAGQufr04EiAARIAJZQCAuAWAUa+K5lhh+Teqw4RYd4yCPJQUEgcKRBoeegjxLz21J AOSuYRP+ccTuLO5Tahhf5KRct6VaLoyDX3/60vE9ac4Eo6bP2giHyc3mW+B7VZbiq5yYF6GED4EM /2uLd9uGQ2jA5q6LjfOFF4aEYSDBr540PvvSi/n6+Q9N8V63pG53osDcqmMlAXCRlxoCftXcTAt/ A+m5GAP//WvUny4BYEr5vinOy5mALSAJfzekXleZLUF4GQEQlsW/q0rvpi6t3+mM3o0JgMuCVG8c qb0rPo75tueI3x3B/zIkV/7/9s4XPI0tiOIjIhAVKyoQEYgKRAWiAhGBqEBUICIQFYgIRMSKiBUR KyJWVKyIWFGBqEBEICoiIhAViApEBaICEYGoQFQgKt5vlqVdCAuEkIbXDO9733tp9s/l3LvbO2fO nCGeO69JSdciz3vbdyXUhbjiPDmsius1pfqmIE78HA2ke+mJ3xkmMZ1+Z0iQ846Er1tSb/ak7GaN YYbPfY8ncizUJWr7UvzCWM66a5+F9Ew8WwLAOQolqnekeZoAFr8EfMmHZOW/F8WPGtJ1Xen+mF+4 uZInkQtRwMtnqA/EgZIF02z+fVjf+CXiJSyivmMSYmFywXVSTMK/WgKwm9fBHlzFCIA9mAQbgiFg CBgChsBzRmATAsA5YqPvltigO5K7zCAAdC/Gns7psJlvjyRfJ8lTHU6TQwcrficPUACgCq1f+lK5 akrzsQmAfEXc93nptTvSIzArnYTiV/rinSwksbbFgf2s89aX6LQgg05LWp2uDMcEWcWylItDudYA 6ZCg5bIqA75zdDMUeVmU0htHhje9zbLFkC2qonWipvhf1oX/IusJgEBKHyEkNrjWv00AoHy+caXB ut/4k0UA7CjoT49jWwIg96pOkjYv11FLusOclL2WhJUeBJUvvQOIiqtA8leuNKOBFHnOw9oQcsqT /svs8/ovG+IdT+S6xXP0g2uecs3jkXgQW7/jRrAJO4E4H2rSHFSyxzBbwvc9nvdG4zKS2oucOLee 1IwA2GzZOm8jid61YA+nsn5laioRLGCbF/DXgvi8XAoT3mSUP+QmQ+m2Aolgi+Pzapx3unCevri/ lmC8UBV8YzEUHXFeiAw+R/Eiqr6e/jy6CVEQkPVfKAOIiYWzsQQLL+F/tQRgs1na36OsBGB/58ZG ZggYAoaAIfC8EFhPALDHQ/FZvCHQbQRS/8SebYkCQPdiLU/YiyUSbwJhH8XnmORMdOBm/i4kcZQu Aci9VqVBWYYhmcZ+gX1fk/3fUEqahWTDLmTeO2Te2wNHqj7KT80k/hzJiG3n5HsobjCWmsemnr2j aKKBDGOb4zq7DqxeoXQNKNU98eay7w/CgVrgQgd8MwJJDaJbfl7CBvdcIqMvQLp474pkVtl/y0j6 n3wyq3+CUudICYaJBMxjXwpSX4PTQwiA3Ou6eK5mh5kX5qffGwlcBqXOuj7I2DbJ6h7lJYeqwclD LHHM4Cv7fNS98qom7lldyqgL9NweuIQ36wmLp3lyVQGQTQBkzkkWAZAuBxircpr1fz2QUpWya9Z/ jvLp60viqljykY2jqzgmn20JgEU8nTc8R2GRgL0u3VeUfgc58WeB+0vKGK58GXs18RbkKOnzUstx GkHqNS+JAY9rv5/RPDFmh7jOq5FMXpj2Zde63/EoyRvEo2/7Et6yzg78RyAAFjwARl+oX4+Ef//n JQCvGtK6KEobScY175XcGzLvfpX6rcYdFjCWh8Bmdk5d6ZVhh45a0sAPYCoOYuGGPDRd2KNuUaIW f1G0muKxOnJF/sL4UOVnV9wrWE69Z1CS1okuhnQZAKzTeSTuGJ+By0FKPnKXubQSgKd5NWbe1RQA ezYhNhxDwBAwBAyB54bAegJghggBN4FOLYMAiJM876/FPUlkz0jmax9DqXK8JwQsGb9rfiHIn3kA jKsSBOz9SCRpqWis8CSJVL5FYn3elgGBY4kA0j8akHkPKR/NM6ZQaikFQKxSPenHatMBalOnWBT5 PpDxjstA87VQwnc9cZvtuez7tji4t2T32ee2T5pyvaCg/b0mwcONfCkNO9JqtaUbe2/9+eSIsIvj nvTZm+erAUSBJsdmNffMH3vu+oDAmzhkE5y2JgDiRF0gxa7Pf0ncqSQ8CKSR74mn5EMe8gSfs9ap F2d9HcYaHTOnTRTCqIP1OxZuIDM+DSSH+iR089KGMMjE5Ukf2tUEQOackEFf6gGwSADo+h+1xSf7 3v+pwWsoAcGrRxA7KKzAMbXed0MA6L3b0jruogAIZVy7lnajI41aooDROUe5UvlY53kkbvv9mT/v T8WMqlsqkFAE4L9CafAcTdXhqMo/taXxzZXaxSxhPLvYkmvd83iNL1uXFelSztM/aUvwKATAKiO/ LBPAE0wACWP32wRQJ4B6q2oBJmoiY+o+BodlcbQEYLEWiomp8xIoURYQvOClvEIBELFo2s1EAuKU JeSca5cXoZKXL8oSYJbR42dlj3LFxEyEGqZqmDDMC0YCVgLwpG/E9Tc3AmA9RnaEIWAIGAKGgCHw iAjsigDIEwiE7ygPPZnVlifB+WdMo/kn63fN6/yUAEBmnGs0RK4I/uONn+79ktIBfAe8XhLssj8M kJ2P8JoKvykpMU8AxAmki5IM2hASnf7OA/94XHhh+R/qMmbfGy7Uu2+Lg3fLuFVB0fCnJnmxgoLg DyEDGlhpNRvS1rjqZVnqJ6hjy+zBb3vS+RRJe5kBwGFNorACoZBkUbV8gJ+77KO1tnwTnNYTAAse AJMB4yfhd8geHaVCWh3hHBHknyaExCFBGL9vNf04w+u8VYJoGJdTjOL9vYNZYIJDTCZQZnwJkbSp 0cEjPi93L73MA2AiI6TxDeLAuU96TmRDAkBLNtLrP06IkjRV5YkSKRk4xsF08tkFAZDjvhqnjS7w eECNUYDoa9XaUieu+x24d/i504D4+5OQnT9PvQNYeyhZ2sR0BVX0jLqQQShTYl+BaXzXaVXlulGb K+vWr7L0Wvc5nrXUhMQsd1HZfBxJKcBb4+AxFADLCAAMPRoAk78sSvD1j2FErjSiPl5gLPOwX/tO ACwsf2QsAfL9a2XyFhU6iT9AgQc3mPByO5vwHaM5D4CYOBiWJYoSAiBWtUwJgM5pQggsEACsEGpO tNYMBUAtkf8vsLtWAvBX34Ab38xKADaGyg40BAwBQ8AQMAQeFYFdEQDbZr5jBYBK39n9F/JjuT5P BdUxAQA5oB5Psw4BSUCoQZH/9S4BoGA55bo061UpH06kf02NcYtM4q4UAOx5Xbyr8jeeeHFEPv/Z Fgd3pOpaLSlY8NBKpOLds4QAmN0OhUX5PSrZmiNdDOOiIapagu/6ESURdBObHDiSd8aoANhHs68u kF0PivPmf+twWk8ALPcAyCHrbrlj9vuq0pgOeN4DgLG6gXhHFCqM1U4O80DIDpW1K1HQOi8i/U+p G/g+w0tXvA28Bh71YVl68RUKAOYgc042JgAW1n+iiNZ10htn45ge6kMJgBzERcBzmIfMa15CqnHx wjEKAEiARQVAFZKgmigAlp03B2G8hiH8mijFG3UCfsrAZ+Z/7xNiITlh+bVS5n9rj8cwXv0G3lxj zog6aMK5f5UAgN8onAwlKMFuwdr0VObDA9q4GEq5r8wEpEBWu789agP4ewJ5EWutVfVHIK5K8J2i FF8MZXA7fXDz75jYukiEZKtHhwCXoD2HrF+lXc5bavcbsJ1aD6RSmPsQALwuiqeR+G9wnvxKDRj3 XvyYAuDvvwbvdUdTANwLLjvYEDAEDAFDwBDYNQK7IgDumLwlHgBxe79fBKjpFnCp3wUDPACUAOhS U4xBWPP1UMJTMsO6P/6tAEhlf9coANL45IrUI/t1cdSobhc15Nzb5fvke5QhtObLTmf33RqH72T8 2R87Wvr6OWUml0UA6A0JoOpkNNUE0ftJ5rw5JpkYCMlUIrS6tD5UKJ2FAJhoKQX7b5Jxy8z/snDa mgBQs+4FBUBMCpAEnJYkEDTTuaD6BRJlpvaYBXqxl0SO4xIFwK4X/M6vl00AOBVIjaw52REBkIXj rgiAnKpd1Nut60kz/EOkaQlJ5wIPgOMkUaseAB1fJngAqClk1nl34NckMoZ/+aAmjR7+Aon5XyP1 DGReK2X+t/Z4JQ6vIMDiPvTzn8kQJQtlDZt2pNuuC0D8wE5oJTKSRgWA9GcMMIbdPOyKM2UoNdDH P6CC8d0kYSwntwycB6JBLc3in9dPY33QX/wg6wp8Wn/o6GHlem0JP9IRQMfKC0fbxBQYu9bca5uU ziWLJEFVzV08twpJoKfiahryQtCyAX3B3YsAmMqXWh/KMJ/IUu7G/3fcS80D4C8ukU1uZQTAJijZ MYaAIWAIGAKGwKMh8CACQAPiM/VrImt7W5hKtekC4F2NyBDSBeA4kXxrAijzd6kuAN8JaINQ0INy XWqCtUXgzAPAwwOArN28B8DUS8r9QWvoO/XCup+edgkoEyA/uE0gZEQzcKX4lcz1YvC/CxyQ/Rfe 4ytwnJOuyvo/9zE2xCDvNb4IFzWk+6hif1Uwxhuyv8VLjK1z/oiA/qwsA1QT7QJltu/V+wADbc1u nmKo93Yi4fum9F+r+R9zQf34kq6FmThtSwBI0m0gruNXrHQeLvAAKCQeANoyXFW8SJ+DRVl/ovBQ QsiPlRvUipdKOIPT6eBud8FHey42v3A2AZB/p74Yy+ekuwsCYLICx9QX2FYBoIG3xzwVIWrSwX98 aSXirkIpqP8GivcC6y6q4+Z/jDLhIOs85vKoLpVfXen06GqBQqKEcWWoXnEoANqvojvmf6vGsMz8 b+WY5yb1sRQAm68cO/KRELASgEcC9oGXtRKABwJopxsChoAhYAgYAjtC4EEEANJg7Vk+JivuE8jF SR4IgRINvidj3MpnSR6NxbN+p0H+zARQZf4EFh59wQs9DORaapxNfSzBQqGMu326C0BSEqDX9ck6 Fl/gSTWIIB/K4tOyUHuM62f8jX7igZIHDwMsf0xrPlqizX9IgmGAra3KHoxDfGHUrbiqN95h5neI Mz5/MpmMZfS9R3kAwXuBgNmrSIEvB8Ik2YbS6+C9cKUK3LI06cOOPRfnaHKuKxMC5+6ZLznMsuvf MP9L1aTn3tBlYQ1O6wkArnvIIH+XVyDlP9fSDGT9sy4A5CgnE7oA3NB34C2+AKr6VfNGn44NanAQ nzv1E+tAErQxNsxpFwA6CJQL0wTnZNiT8Bwl8V42AlhRApA1J9oqfRcEwM/VOM7W6nYEAGux2ZGO y4Ka+7C2zmvI/Gn1WWY9kvQtvdTnXeePNYXCu7DivOYvNYdnfes52jGO90SX8g+/M6HDyKL536ox QHqRtZ83C1w35mHqmxgB8LA34h6fbSUAezw5OjRTAOz5BNnwDAFDwBAwBP51BDYnAJ4AiWUeAE8w jOd6y5UEwNagUIut3bt+0tnhsjvtoKC18mf8WQ6VgK9W6PZZj8BqHOvg+DACYP0InusRq0sAnisq e/S9jQDYo8lYNhQjAPZ8gmx4hoAhYAgYAv86AkYA/OszvP33exwCgKx1ROcGlZV/Gk4Hp20CL3yp LqgUth/5czhzcxy3UwA8Bwy3+453CIBCgZYcOWQ5B3cNBra7hZ21LQIqKxnQ9zX9adBepvWxFf+R ytC73a79/xPgYCUA265qO88QMAQMAUPAENgtAssIgGKxuB97WVMA7Hay73G1Cc77g8H8PnpX6yIu Dzid+oFNs/20zetfS3TZkaGl/zeepU1wXDaPjvO3veM2/kr/iwPvEAAa+OcP89QoGbBPOYNx7dMt 5hJaW5L6VI4s6N8X8iOeFlMAPOVjYvc2BAwBQ8AQMARkGQGQf8le9iU16JbQepYrRIPG8Q+8B36k uhGAhK2L/9dyyJpHIwAeNo93CICHXc7ONgQMAUPAEDAEDAFDwBAwBAwBQ8AQMAQMgX1EwAiAfZwV G5MhYAgYAoaAIWAIGAKGgCFgCBgChoAhsGMEjADYMaB2OUPAEDAEDAFDwBAwBAwBQ8AQMAQMAUNg HxEwAmAfZ8XGZAgYAoaAIWAIGAKGgCFgCBgChoAhYAjsGIH/AA0ASiiHA2cDAAAAAElFTkSuQmCC  "
       id="image10"
       inkscape:export-filename="timing_amp_oszi_arrow.png"
       inkscape:export-xdpi="96"
       inkscape:export-ydpi="96" />
    <path
       style="fill:#ffffff;stroke:#ffffff;stroke-width:6.29999981;stroke-dasharray:none"
       d="M 216.51741,280.199 C 154.534,371.9005 154.534,371.9005 154.534,371.9005"
       id="path273" />
    <path
       sodipodi:type="star"
       style="fill:#ffffff;stroke:#ffffff;stroke-width:6.3;stroke-dasharray:none"
       id="path1004"
       inkscape:flatsided="true"
       sodipodi:sides="3"
       sodipodi:cx="216.51741"
       sodipodi:cy="280.19901"
       sodipodi:r1="17.911526"
       sodipodi:r2="8.9557629"
       sodipodi:arg1="-1.0222466"
       sodipodi:arg2="0.024950912"
       inkscape:rounded="0"
       inkscape:randomized="0"
       d="m 225.85738,264.91543 -0.77399,31.01401 -26.47193,-16.1773 z"
       inkscape:transform-center-x="4.2829906"
       inkscape:transform-center-y="0.22343127" />
    <g
       id="g1249"
       transform="rotate(-84.595773,417.3151,317.89223)"
       style="fill:#ffffff;stroke:#ffffff"
       inkscape:export-filename="timing_amp_oszi_arrow.png"
       inkscape:export-xdpi="96"
       inkscape:export-ydpi="96">
      <path
         style="fill:#ffffff;stroke:#ffffff;stroke-width:6.3;stroke-dasharray:none"
         d="m 459.86794,268.41943 c -61.98341,91.7015 -61.98341,91.7015 -61.98341,91.7015"
         id="path273-9" />
      <path
         sodipodi:type="star"
         style="fill:#ffffff;stroke:#ffffff;stroke-width:6.3;stroke-dasharray:none"
         id="path1004-5"
         inkscape:flatsided="true"
         sodipodi:sides="3"
         sodipodi:cx="216.51741"
         sodipodi:cy="280.19901"
         sodipodi:r1="17.911526"
         sodipodi:r2="8.9557629"
         sodipodi:arg1="-1.0222466"
         sodipodi:arg2="0.024950912"
         inkscape:rounded="0"
         inkscape:randomized="0"
         d="m 225.85738,264.91543 -0.77399,31.01401 -26.47193,-16.1773 z"
         inkscape:transform-center-x="4.2829906"
         inkscape:transform-center-y="0.22343127"
         transform="translate(243.35053,-11.779573)" />
    </g>
    <text
       xml:space="preserve"
       style="font-size:42.6667px;fill:#ffffff;stroke:none;stroke-width:6.3;stroke-dasharray:none"
       x="33.114429"
       y="419.44943"
       id="text1060"><tspan
         sodipodi:role="line"
         id="tspan1058"
         x="33.114429"
         y="419.44943">Avalanche: 5.5 ns</tspan></text>
    <text
       xml:space="preserve"
       style="font-size:42.6667px;fill:#ffffff;stroke:none;stroke-width:6.3;stroke-dasharray:none"
       x="466.14926"
       y="384.75784"
       id="text1253"><tspan
         sodipodi:role="line"
         id="tspan1251"
         x="466.14926"
         y="384.75784">Pixel Recharge: 50 ns</tspan></text>
  </g>
</svg>
