(kicad_symbol_lib (version 20211014) (generator kicad_symbol_editor)
  (symbol "MAX9600EUP" (pin_names (offset 1.016)) (in_bom yes) (on_board yes)
    (property "Reference" "U2" (id 0) (at 6.35 -29.2099 90)
      (effects (font (size 1.27 1.27)) (justify left))
    )
    (property "Value" "MAX9600EUP" (id 1) (at 6.35 -31.7499 90)
      (effects (font (size 1.27 1.27)) (justify left))
    )
    (property "Footprint" "timing_logicboard_footprints:MAX9600EUP+" (id 2) (at 0 0 0)
      (effects (font (size 1.27 1.27)) (justify bottom) hide)
    )
    (property "Datasheet" "" (id 3) (at 0 0 0)
      (effects (font (size 1.27 1.27)) hide)
    )
    (property "VENDOR" "MAXIM" (id 4) (at 0 0 0)
      (effects (font (size 1.27 1.27)) (justify bottom) hide)
    )
    (property "MANUFACTURER_PART_NUMBER" "max9600eup+" (id 5) (at 0 0 0)
      (effects (font (size 1.27 1.27)) (justify bottom) hide)
    )
    (symbol "MAX9600EUP_0_0"
      (rectangle (start 7.62 -27.94) (end 53.34 5.08)
        (stroke (width 0.1524) (type default) (color 0 0 0 0))
        (fill (type background))
      )
      (pin output line (at 0 0 0) (length 7.62)
        (name "QA" (effects (font (size 1.016 1.016))))
        (number "1" (effects (font (size 1.016 1.016))))
      )
      (pin input line (at 0 -22.86 0) (length 7.62)
        (name "INA+" (effects (font (size 1.016 1.016))))
        (number "10" (effects (font (size 1.016 1.016))))
      )
      (pin input line (at 60.96 -22.86 180) (length 7.62)
        (name "INB+" (effects (font (size 1.016 1.016))))
        (number "11" (effects (font (size 1.016 1.016))))
      )
      (pin input line (at 60.96 -20.32 180) (length 7.62)
        (name "INB-" (effects (font (size 1.016 1.016))))
        (number "12" (effects (font (size 1.016 1.016))))
      )
      (pin input line (at 60.96 -17.78 180) (length 7.62)
        (name "HYSB" (effects (font (size 1.016 1.016))))
        (number "13" (effects (font (size 1.016 1.016))))
      )
      (pin power_in line (at 60.96 -15.24 180) (length 7.62)
        (name "VCC" (effects (font (size 1.016 1.016))))
        (number "14" (effects (font (size 1.016 1.016))))
      )
      (pin power_in line (at 60.96 -12.7 180) (length 7.62)
        (name "VEE" (effects (font (size 1.016 1.016))))
        (number "15" (effects (font (size 1.016 1.016))))
      )
      (pin input line (at 60.96 -10.16 180) (length 7.62)
        (name "*LEB" (effects (font (size 1.016 1.016))))
        (number "16" (effects (font (size 1.016 1.016))))
      )
      (pin input line (at 60.96 -7.62 180) (length 7.62)
        (name "LEB" (effects (font (size 1.016 1.016))))
        (number "17" (effects (font (size 1.016 1.016))))
      )
      (pin power_in line (at 60.96 -5.08 180) (length 7.62)
        (name "GND" (effects (font (size 1.016 1.016))))
        (number "18" (effects (font (size 1.016 1.016))))
      )
      (pin output line (at 60.96 -2.54 180) (length 7.62)
        (name "*QB" (effects (font (size 1.016 1.016))))
        (number "19" (effects (font (size 1.016 1.016))))
      )
      (pin output line (at 0 -2.54 0) (length 7.62)
        (name "*QA" (effects (font (size 1.016 1.016))))
        (number "2" (effects (font (size 1.016 1.016))))
      )
      (pin output line (at 60.96 0 180) (length 7.62)
        (name "QB" (effects (font (size 1.016 1.016))))
        (number "20" (effects (font (size 1.016 1.016))))
      )
      (pin power_in line (at 0 -5.08 0) (length 7.62)
        (name "GND_2" (effects (font (size 1.016 1.016))))
        (number "3" (effects (font (size 1.016 1.016))))
      )
      (pin input line (at 0 -7.62 0) (length 7.62)
        (name "LEA" (effects (font (size 1.016 1.016))))
        (number "4" (effects (font (size 1.016 1.016))))
      )
      (pin input line (at 0 -10.16 0) (length 7.62)
        (name "*LEA" (effects (font (size 1.016 1.016))))
        (number "5" (effects (font (size 1.016 1.016))))
      )
      (pin power_in line (at 0 -12.7 0) (length 7.62)
        (name "VEE_2" (effects (font (size 1.016 1.016))))
        (number "6" (effects (font (size 1.016 1.016))))
      )
      (pin power_in line (at 0 -15.24 0) (length 7.62)
        (name "VCC_2" (effects (font (size 1.016 1.016))))
        (number "7" (effects (font (size 1.016 1.016))))
      )
      (pin input line (at 0 -17.78 0) (length 7.62)
        (name "HYSA" (effects (font (size 1.016 1.016))))
        (number "8" (effects (font (size 1.016 1.016))))
      )
      (pin input line (at 0 -20.32 0) (length 7.62)
        (name "INA-" (effects (font (size 1.016 1.016))))
        (number "9" (effects (font (size 1.016 1.016))))
      )
    )
  )
  (symbol "MC100EP90DTG" (pin_names (offset 1.016)) (in_bom yes) (on_board yes)
    (property "Reference" "U2" (id 0) (at 10.16 -31.75 90)
      (effects (font (size 1.27 1.27)) (justify left))
    )
    (property "Value" "MC100EP90DTG" (id 1) (at 24.13 -30.48 0)
      (effects (font (size 1.27 1.27)) (justify left))
    )
    (property "Footprint" "timing_logicboard_footprints:MC100EP90DTG" (id 2) (at 31.75 7.62 0)
      (effects (font (size 1.27 1.27)) (justify bottom) hide)
    )
    (property "Datasheet" "" (id 3) (at 0 0 0)
      (effects (font (size 1.27 1.27)) hide)
    )
    (property "VENDOR" "MAXIM" (id 4) (at 29.21 -19.05 0)
      (effects (font (size 1.27 1.27)) (justify bottom) hide)
    )
    (property "MANUFACTURER_PART_NUMBER" "MC100EP90DTG" (id 5) (at 30.48 -10.16 0)
      (effects (font (size 1.27 1.27)) (justify bottom) hide)
    )
    (symbol "MC100EP90DTG_0_0"
      (rectangle (start 7.62 -27.94) (end 53.34 5.08)
        (stroke (width 0.1524) (type default) (color 0 0 0 0))
        (fill (type background))
      )
      (pin power_in line (at 0 0 0) (length 7.62)
        (name "V_{CC}" (effects (font (size 1.016 1.016))))
        (number "1" (effects (font (size 1.016 1.016))))
      )
      (pin power_in line (at 0 -22.86 0) (length 7.62)
        (name "V_{EE}" (effects (font (size 1.016 1.016))))
        (number "10" (effects (font (size 1.016 1.016))))
      )
      (pin power_in line (at 60.96 -22.86 180) (length 7.62)
        (name "V_{CC}" (effects (font (size 1.016 1.016))))
        (number "11" (effects (font (size 1.016 1.016))))
      )
      (pin output line (at 60.96 -20.32 180) (length 7.62)
        (name "~{Q2}" (effects (font (size 1.016 1.016))))
        (number "12" (effects (font (size 1.016 1.016))))
      )
      (pin output line (at 60.96 -17.78 180) (length 7.62)
        (name "Q2" (effects (font (size 1.016 1.016))))
        (number "13" (effects (font (size 1.016 1.016))))
      )
      (pin passive line (at 60.96 -15.24 180) (length 7.62)
        (name "GND" (effects (font (size 1.016 1.016))))
        (number "14" (effects (font (size 1.016 1.016))))
      )
      (pin output line (at 60.96 -12.7 180) (length 7.62)
        (name "~{Q1}" (effects (font (size 1.016 1.016))))
        (number "15" (effects (font (size 1.016 1.016))))
      )
      (pin output line (at 60.96 -10.16 180) (length 7.62)
        (name "Q1" (effects (font (size 1.016 1.016))))
        (number "16" (effects (font (size 1.016 1.016))))
      )
      (pin passive line (at 60.96 -7.62 180) (length 7.62)
        (name "GND" (effects (font (size 1.016 1.016))))
        (number "17" (effects (font (size 1.016 1.016))))
      )
      (pin output line (at 60.96 -5.08 180) (length 7.62)
        (name "~{Q0}" (effects (font (size 1.016 1.016))))
        (number "18" (effects (font (size 1.016 1.016))))
      )
      (pin output line (at 60.96 -2.54 180) (length 7.62)
        (name "Q0" (effects (font (size 1.016 1.016))))
        (number "19" (effects (font (size 1.016 1.016))))
      )
      (pin input line (at 0 -2.54 0) (length 7.62)
        (name "D0" (effects (font (size 1.016 1.016))))
        (number "2" (effects (font (size 1.016 1.016))))
      )
      (pin power_in line (at 60.96 0 180) (length 7.62)
        (name "V_{CC}" (effects (font (size 1.016 1.016))))
        (number "20" (effects (font (size 1.016 1.016))))
      )
      (pin input line (at 0 -5.08 0) (length 7.62)
        (name "~{D0}" (effects (font (size 1.016 1.016))))
        (number "3" (effects (font (size 1.016 1.016))))
      )
      (pin input line (at 0 -7.62 0) (length 7.62)
        (name "V_{BB}" (effects (font (size 1.016 1.016))))
        (number "4" (effects (font (size 1.016 1.016))))
      )
      (pin input line (at 0 -10.16 0) (length 7.62)
        (name "D1" (effects (font (size 1.016 1.016))))
        (number "5" (effects (font (size 1.016 1.016))))
      )
      (pin input line (at 0 -12.7 0) (length 7.62)
        (name "~{D1}" (effects (font (size 1.016 1.016))))
        (number "6" (effects (font (size 1.016 1.016))))
      )
      (pin input line (at 0 -15.24 0) (length 7.62)
        (name "V_{BB}" (effects (font (size 1.016 1.016))))
        (number "7" (effects (font (size 1.016 1.016))))
      )
      (pin input line (at 0 -17.78 0) (length 7.62)
        (name "D2" (effects (font (size 1.016 1.016))))
        (number "8" (effects (font (size 1.016 1.016))))
      )
      (pin input line (at 0 -20.32 0) (length 7.62)
        (name "~{D2}" (effects (font (size 1.016 1.016))))
        (number "9" (effects (font (size 1.016 1.016))))
      )
    )
  )
)
