<?xml version="1.0" encoding="UTF-8" standalone="no"?>
<!-- Created with Inkscape (http://www.inkscape.org/) -->

<svg
   width="453.5433"
   height="340.15747"
   id="svg2"
   sodipodi:version="0.32"
   inkscape:version="1.2.2 (732a01da63, 2022-12-09)"
   sodipodi:docname="radioactive.svg"
   version="1.0"
   viewBox="0 0 453.5433 340.15747"
   xmlns:inkscape="http://www.inkscape.org/namespaces/inkscape"
   xmlns:sodipodi="http://sodipodi.sourceforge.net/DTD/sodipodi-0.dtd"
   xmlns="http://www.w3.org/2000/svg"
   xmlns:svg="http://www.w3.org/2000/svg"
   xmlns:rdf="http://www.w3.org/1999/02/22-rdf-syntax-ns#"
   xmlns:cc="http://creativecommons.org/ns#"
   xmlns:dc="http://purl.org/dc/elements/1.1/">
  <defs
     id="defs4" />
  <sodipodi:namedview
     id="base"
     pagecolor="#ffffff"
     bordercolor="#666666"
     borderopacity="1.0"
     inkscape:pageopacity="0.0"
     inkscape:pageshadow="2"
     inkscape:zoom="1.4142136"
     inkscape:cx="276.1252"
     inkscape:cy="123.74369"
     inkscape:document-units="mm"
     inkscape:current-layer="layer1"
     inkscape:window-width="1920"
     inkscape:window-height="1017"
     inkscape:window-x="-8"
     inkscape:window-y="-8"
     width="12.8cm"
     height="9.6cm"
     units="cm"
     showgrid="true"
     grid_units="mm"
     inkscape:object-paths="false"
     inkscape:grid-points="true"
     inkscape:grid-bbox="true"
     inkscape:guide-points="true"
     showguides="false"
     inkscape:guide-bbox="true"
     inkscape:pagecheckerboard="0"
     inkscape:window-maximized="1"
     inkscape:snap-grids="false"
     inkscape:showpageshadow="2"
     inkscape:deskcolor="#d1d1d1">
    <sodipodi:guide
       orientation="vertical"
       position="56.476527"
       id="guide3573"
       inkscape:locked="false" />
    <sodipodi:guide
       orientation="horizontal"
       position="11.035643"
       id="guide3579"
       inkscape:locked="false" />
    <sodipodi:guide
       orientation="horizontal"
       position="24.018753"
       id="guide3886"
       inkscape:locked="false" />
    <sodipodi:guide
       orientation="horizontal"
       position="285.62841"
       id="guide3988"
       inkscape:locked="false" />
    <sodipodi:guide
       orientation="horizontal"
       position="303.15561"
       id="guide4081"
       inkscape:locked="false" />
    <inkscape:grid
       id="GridFromPre046Settings"
       type="xygrid"
       originx="0"
       originy="0"
       spacingx="7.5590551"
       spacingy="7.5590551"
       color="#3f3fff"
       empcolor="#3f3fff"
       opacity="0.15"
       empopacity="0.38"
       empspacing="5" />
  </sodipodi:namedview>
  <metadata
     id="metadata7">
    <rdf:RDF>
      <cc:Work
         rdf:about="">
        <dc:format>image/svg+xml</dc:format>
        <dc:type
           rdf:resource="http://purl.org/dc/dcmitype/StillImage" />
      </cc:Work>
    </rdf:RDF>
  </metadata>
  <g
     inkscape:label="Layer 1"
     inkscape:groupmode="layer"
     id="layer1">
    <ellipse
       style="opacity:1;fill:#ffff00;stroke:#000000;stroke-width:1.13386;stroke-dasharray:none"
       id="path3581"
       cx="188.97638"
       cy="124.72441"
       rx="1.8189894e-12"
       ry="3.7795277" />
    <circle
       style="fill:#ffff00;stroke:#000000;stroke-width:5.98375;stroke-dasharray:none"
       id="path6547"
       cx="226.77165"
       cy="151.18111"
       r="125.51206" />
    <path
       style="fill:#ffff00;stroke:#000000;stroke-width:1.13386"
       d="m 113.38583,151.1811 h 226.77165 v 0 H 226.77165 L 294.80315,60.472441 158.74016,241.88976 226.77165,151.1811 158.74016,60.472441 294.80315,241.88976"
       id="path6549" />
    <path
       style="fill:#000000;stroke:#000000;stroke-width:1.12251968;stroke-dasharray:none"
       d="m 114.08908,148.88377 c 0,-2.82037 0.67123,-10.21513 1.31238,-14.45812 1.79236,-11.86145 5.17968,-22.52742 10.58173,-33.31968 4.80866,-9.606803 10.05897,-17.361196 17.15559,-25.337778 4.39795,-4.943286 14.29135,-13.936132 15.33171,-13.936132 0.2544,0 65.35115,86.45209 66.4159,88.204 0.19689,0.32396 -10.94268,0.40572 -55.27536,0.40572 h -55.52195 z"
       id="path6689" />
    <path
       style="fill:#000000;stroke:#000000;stroke-width:2.25637775;stroke-dasharray:none"
       d="m 228.57991,150.03606 c 0.17542,-0.22315 15.03629,-20.05079 33.02416,-44.06143 17.98787,-24.010636 32.87078,-43.833949 33.07313,-44.051805 0.28381,-0.305564 1.14644,0.24692 3.774,2.417141 24.42197,20.171154 39.42589,50.083124 40.78746,81.314294 l 0.20872,4.78752 h -55.59321 c -44.42829,0 -55.52916,-0.0815 -55.27426,-0.40572 z"
       id="path6693" />
    <path
       style="fill:#000000;stroke:#000000;stroke-width:0.0325291"
       d="m 244.36923,175.68554 c -9.29921,-12.33838 -17.18587,-22.70197 -17.48989,-22.98289 -0.0391,-0.0361 -0.11878,-0.0734 -0.17706,-0.0829 -0.0902,-0.0146 -0.11907,-0.005 -0.19394,0.0657 -0.0897,0.0845 -0.65248,0.78093 -1.08254,1.33965 -0.13126,0.17053 -0.24472,0.30398 -0.25213,0.29656 -0.007,-0.007 0.3458,-0.49235 0.78492,-1.07763 l 0.7984,-1.06415 0.0811,0.0934 c 0.2245,0.25866 18.61773,24.78177 18.6003,24.7992 -0.007,0.007 -0.48858,-0.61666 -1.06913,-1.38695 z"
       id="path6697" />
    <path
       style="fill:#000000;stroke:#000000;stroke-width:0.0458268;stroke-dasharray:none"
       d="m 221.25,263.79929 c -21.64091,-1.09342 -42.56348,-8.38722 -60.09375,-20.94924 -0.80781,-0.57887 -1.46875,-1.07734 -1.46875,-1.10771 0,-0.0942 65.58102,-87.44708 66.24875,-88.24234 0.34635,-0.4125 0.67783,-0.7663 0.73663,-0.78621 0.13737,-0.0465 2.99717,3.67553 13.76185,17.91121 2.70332,3.575 4.95393,6.52812 5.00135,6.5625 0.0474,0.0344 10.97235,14.57923 24.27761,32.32189 l 24.1914,32.25939 -1.76504,1.25675 c -4.94149,3.51843 -9.75728,6.39479 -15.32755,9.15479 -3.40615,1.68771 -4.73375,2.28246 -8.25,3.69596 -14.80266,5.95054 -31.38646,8.72768 -47.3125,7.92301 z"
       id="path7068" />
    <path
       style="fill:#000000;stroke:#000000;stroke-width:0.0458268;stroke-dasharray:none"
       d="m 219.875,263.67678 c -18.81512,-1.30962 -36.46487,-6.91763 -52.16165,-16.57379 -2.74112,-1.68625 -7.15427,-4.67305 -7.82109,-5.29326 -0.0593,-0.0551 9.52814,-12.94423 21.30534,-28.64247 27.48085,-36.63018 43.98425,-58.58588 44.78008,-59.57424 l 0.62965,-0.78198 0.29143,0.27378 c 0.81995,0.7703 14.13719,18.36875 42.31258,55.91518 13.41366,17.875 24.43525,32.5607 24.4924,32.6349 0.1097,0.14238 -3.24805,2.54519 -6.14124,4.39468 -10.31913,6.59658 -21.7461,11.51835 -33.5625,14.45588 -6.02797,1.49854 -11.59979,2.42252 -18.25,3.02639 -2.629,0.23872 -13.23215,0.34889 -15.875,0.16493 z"
       id="path7070" />
    <path
       style="fill:#000000;stroke:#000000;stroke-width:0.80125984;stroke-dasharray:none"
       d="m 219.9375,263.67444 c -19.63218,-1.2835 -38.64019,-7.59738 -54.8125,-18.20703 -2.32906,-1.52795 -5.3125,-3.62878 -5.3125,-3.74087 0,-0.13355 65.13439,-86.90116 66.35872,-88.39858 l 0.44727,-0.54703 0.50325,0.5574 c 1.33844,1.48243 14.27197,18.58499 41.90416,55.41167 13.51533,18.0125 24.62035,32.81085 24.67781,32.88521 0.0677,0.0876 -0.65492,0.66792 -2.0505,1.64686 -9.06363,6.35784 -18.69557,11.22169 -29.15321,14.72152 -9.53319,3.19044 -19.08122,5.04049 -29.3125,5.67965 -2.37181,0.14817 -10.93602,0.14248 -13.25,-0.009 z"
       id="path7072" />
    <circle
       style="fill:#000000;stroke:#ffff00;stroke-width:8.76094483;stroke-dasharray:none"
       id="path7074"
       cx="226.77165"
       cy="151.18111"
       r="15.118111" />
    <circle
       style="fill:none;stroke:#ffff00;stroke-width:8.76095;stroke-dasharray:none"
       id="path7857"
       cx="226.77165"
       cy="151.18111"
       r="113.38583" />
  </g>
  <g
     inkscape:groupmode="layer"
     id="layer2"
     inkscape:label="Layer 2" />
</svg>
