<?xml version="1.0" encoding="UTF-8" standalone="no"?>
<!-- Created with Inkscape (http://www.inkscape.org/) -->

<svg
   width="453.5433"
   height="340.15747"
   id="svg2"
   sodipodi:version="0.32"
   inkscape:version="1.1.2 (0a00cf5339, 2022-02-04)"
   sodipodi:docname="timing_overview.svg"
   version="1.0"
   viewBox="0 0 453.5433 340.15747"
   xmlns:inkscape="http://www.inkscape.org/namespaces/inkscape"
   xmlns:sodipodi="http://sodipodi.sourceforge.net/DTD/sodipodi-0.dtd"
   xmlns="http://www.w3.org/2000/svg"
   xmlns:svg="http://www.w3.org/2000/svg"
   xmlns:rdf="http://www.w3.org/1999/02/22-rdf-syntax-ns#"
   xmlns:cc="http://creativecommons.org/ns#"
   xmlns:dc="http://purl.org/dc/elements/1.1/">
  <defs
     id="defs4" />
  <sodipodi:namedview
     id="base"
     pagecolor="#ffffff"
     bordercolor="#666666"
     borderopacity="1.0"
     inkscape:pageopacity="0.0"
     inkscape:pageshadow="2"
     inkscape:zoom="3.080926"
     inkscape:cx="222.98491"
     inkscape:cy="206.59373"
     inkscape:document-units="mm"
     inkscape:current-layer="layer1"
     inkscape:window-width="1850"
     inkscape:window-height="1016"
     inkscape:window-x="0"
     inkscape:window-y="0"
     width="12.8cm"
     height="9.6cm"
     units="cm"
     showgrid="true"
     grid_units="mm"
     inkscape:object-paths="false"
     inkscape:grid-points="true"
     inkscape:grid-bbox="true"
     inkscape:guide-points="true"
     showguides="true"
     inkscape:guide-bbox="true"
     inkscape:pagecheckerboard="0"
     inkscape:window-maximized="1"
     inkscape:snap-grids="false">
    <sodipodi:guide
       orientation="vertical"
       position="56.476527"
       id="guide3573" />
    <sodipodi:guide
       orientation="horizontal"
       position="11.035643"
       id="guide3579" />
    <sodipodi:guide
       orientation="horizontal"
       position="24.018753"
       id="guide3886" />
    <sodipodi:guide
       orientation="horizontal"
       position="285.62841"
       id="guide3988" />
    <sodipodi:guide
       orientation="horizontal"
       position="303.15561"
       id="guide4081" />
    <inkscape:grid
       id="GridFromPre046Settings"
       type="xygrid"
       originx="0"
       originy="0"
       spacingx="7.5590551"
       spacingy="7.5590551"
       color="#3f3fff"
       empcolor="#3f3fff"
       opacity="0.15"
       empopacity="0.38"
       empspacing="5" />
  </sodipodi:namedview>
  <metadata
     id="metadata7">
    <rdf:RDF>
      <cc:Work
         rdf:about="">
        <dc:format>image/svg+xml</dc:format>
        <dc:type
           rdf:resource="http://purl.org/dc/dcmitype/StillImage" />
      </cc:Work>
    </rdf:RDF>
  </metadata>
  <g
     inkscape:label="Layer 1"
     inkscape:groupmode="layer"
     id="layer1">
    <rect
       style="fill:#808080;stroke:#808080;stroke-width:0.608504;stroke-opacity:1;fill-opacity:1"
       id="rect31768"
       width="113.38583"
       height="15.118111"
       x="113.38583"
       y="249.44882"
       inkscape:export-filename="/home/lhcb/TimingSetup/presentations/DPG/grafik/timing_overview.png"
       inkscape:export-xdpi="600"
       inkscape:export-ydpi="600" />
    <text
       xml:space="preserve"
       style="font-size:12px;line-height:1.25;font-family:sans-serif"
       x="139.58252"
       y="260.55414"
       id="text36075"
       inkscape:export-filename="/home/lhcb/TimingSetup/presentations/DPG/grafik/timing_overview.png"
       inkscape:export-xdpi="600"
       inkscape:export-ydpi="600"><tspan
         sodipodi:role="line"
         id="tspan36073"
         x="139.58252"
         y="260.55414">MightyPix</tspan></text>
    <rect
       style="fill:#808080;fill-opacity:1;stroke:#000000;stroke-width:2;stroke-opacity:1;stroke-miterlimit:4;stroke-dasharray:none"
       id="rect41867"
       width="75.590553"
       height="37.79528"
       x="302.36221"
       y="226.77165"
       inkscape:export-filename="/home/lhcb/TimingSetup/presentations/DPG/grafik/timing_overview.png"
       inkscape:export-xdpi="600"
       inkscape:export-ydpi="600" />
    <text
       xml:space="preserve"
       style="font-size:12px;line-height:1.25;font-family:sans-serif;text-align:center;text-anchor:middle;fill:#000000"
       x="341.72293"
       y="242.68576"
       id="text60123"
       inkscape:export-filename="/home/lhcb/TimingSetup/presentations/DPG/grafik/timing_overview.png"
       inkscape:export-xdpi="600"
       inkscape:export-ydpi="600"><tspan
         sodipodi:role="line"
         id="tspan60121"
         x="341.72293"
         y="242.68576">FPGA</tspan><tspan
         sodipodi:role="line"
         x="341.72293"
         y="257.68576"
         id="tspan60125">Readout</tspan></text>
    <path
       style="fill:none;stroke:#000000;stroke-width:2.82843;stroke-linecap:butt;stroke-linejoin:miter;stroke-miterlimit:4;stroke-dasharray:none;stroke-opacity:1"
       d="M 226.77165,257.00787 H 302.3622"
       id="path65194"
       inkscape:export-filename="/home/lhcb/TimingSetup/presentations/DPG/grafik/timing_overview.png"
       inkscape:export-xdpi="600"
       inkscape:export-ydpi="600" />
    <rect
       style="fill:#00ffff;fill-opacity:1;stroke:none;stroke-width:2;stroke-miterlimit:4;stroke-dasharray:none;stroke-opacity:1"
       id="rect65591"
       width="113.38583"
       height="15.118111"
       x="113.38583"
       y="188.97638"
       inkscape:export-filename="/home/lhcb/TimingSetup/presentations/DPG/grafik/timing_overview.png"
       inkscape:export-xdpi="600"
       inkscape:export-ydpi="600" />
    <rect
       style="fill:#4d4d4d;fill-opacity:1;stroke:#000000;stroke-width:1;stroke-miterlimit:4;stroke-dasharray:none;stroke-opacity:1"
       id="rect65737"
       width="22.677176"
       height="15.118111"
       x="226.77165"
       y="188.97638"
       inkscape:export-filename="/home/lhcb/TimingSetup/presentations/DPG/grafik/timing_overview.png"
       inkscape:export-xdpi="600"
       inkscape:export-ydpi="600" />
    <rect
       style="fill:#4d4d4d;fill-opacity:1;stroke:#000000;stroke-width:1;stroke-miterlimit:4;stroke-dasharray:none;stroke-opacity:1"
       id="rect65805"
       width="21.555904"
       height="15.118111"
       x="94.271812"
       y="188.97638"
       inkscape:export-filename="/home/lhcb/TimingSetup/presentations/DPG/grafik/timing_overview.png"
       inkscape:export-xdpi="600"
       inkscape:export-ydpi="600" />
    <rect
       style="fill:#008000;fill-opacity:1;stroke:#000000;stroke-width:2;stroke-miterlimit:4;stroke-dasharray:none;stroke-opacity:1"
       id="rect65963"
       width="75.590553"
       height="45.354332"
       x="302.36221"
       y="158.74016"
       inkscape:export-filename="/home/lhcb/TimingSetup/presentations/DPG/grafik/timing_overview.png"
       inkscape:export-xdpi="600"
       inkscape:export-ydpi="600" />
    <rect
       style="fill:#896700;fill-opacity:1;stroke:#000000;stroke-width:1;stroke-miterlimit:4;stroke-dasharray:none;stroke-opacity:1"
       id="rect66231"
       width="37.795284"
       height="15.118105"
       x="56.476528"
       y="188.97638"
       inkscape:export-filename="/home/lhcb/TimingSetup/presentations/DPG/grafik/timing_overview.png"
       inkscape:export-xdpi="600"
       inkscape:export-ydpi="600" />
    <rect
       style="fill:#896700;fill-opacity:1;stroke:#000000;stroke-width:1;stroke-miterlimit:4;stroke-dasharray:none;stroke-opacity:1"
       id="rect66231-6"
       width="37.795277"
       height="15.118109"
       x="249.44881"
       y="188.97638"
       inkscape:export-filename="/home/lhcb/TimingSetup/presentations/DPG/grafik/timing_overview.png"
       inkscape:export-xdpi="600"
       inkscape:export-ydpi="600" />
    <text
       xml:space="preserve"
       style="font-style:normal;font-variant:normal;font-weight:normal;font-stretch:normal;font-size:8px;line-height:1.25;font-family:sans-serif;-inkscape-font-specification:'sans-serif, Normal';font-variant-ligatures:normal;font-variant-caps:normal;font-variant-numeric:normal;font-variant-east-asian:normal;fill:#000000;fill-opacity:1"
       x="147.82013"
       y="199.12503"
       id="text70511"
       inkscape:export-filename="/home/lhcb/TimingSetup/presentations/DPG/grafik/timing_overview.png"
       inkscape:export-xdpi="600"
       inkscape:export-ydpi="600"><tspan
         sodipodi:role="line"
         id="tspan95333"
         x="147.82013"
         y="199.12503">Scintillator</tspan></text>
    <text
       xml:space="preserve"
       style="font-size:8px;line-height:1.25;font-family:sans-serif"
       x="57.287865"
       y="198.55383"
       id="text100799"
       inkscape:export-filename="/home/lhcb/TimingSetup/presentations/DPG/grafik/timing_overview.png"
       inkscape:export-xdpi="600"
       inkscape:export-ydpi="600"><tspan
         sodipodi:role="line"
         id="tspan100797"
         x="57.287865"
         y="198.55383">Amplifier</tspan></text>
    <text
       xml:space="preserve"
       style="font-size:8px;line-height:1.25;font-family:sans-serif"
       x="250.32982"
       y="198.85046"
       id="text100799-0"
       inkscape:export-filename="/home/lhcb/TimingSetup/presentations/DPG/grafik/timing_overview.png"
       inkscape:export-xdpi="600"
       inkscape:export-ydpi="600"><tspan
         sodipodi:role="line"
         id="tspan100797-9"
         x="250.32982"
         y="198.85046">Amplifier</tspan></text>
    <text
       xml:space="preserve"
       style="font-size:8px;line-height:1.25;font-family:sans-serif"
       x="96.231438"
       y="198.96976"
       id="text111808"
       inkscape:export-filename="/home/lhcb/TimingSetup/presentations/DPG/grafik/timing_overview.png"
       inkscape:export-xdpi="600"
       inkscape:export-ydpi="600"><tspan
         sodipodi:role="line"
         id="tspan111806"
         x="96.231438"
         y="198.96976">SiPM</tspan></text>
    <text
       xml:space="preserve"
       style="font-size:8px;line-height:1.25;font-family:sans-serif"
       x="228.65198"
       y="199.222"
       id="text111808-7"
       inkscape:export-filename="/home/lhcb/TimingSetup/presentations/DPG/grafik/timing_overview.png"
       inkscape:export-xdpi="600"
       inkscape:export-ydpi="600"><tspan
         sodipodi:role="line"
         id="tspan111806-5"
         x="228.65198"
         y="199.222">SiPM</tspan></text>
    <text
       xml:space="preserve"
       style="font-size:12px;line-height:1.25;font-family:sans-serif;text-align:center;text-anchor:middle"
       x="340.43002"
       y="177.60361"
       id="text120219"
       inkscape:export-filename="/home/lhcb/TimingSetup/presentations/DPG/grafik/timing_overview.png"
       inkscape:export-xdpi="600"
       inkscape:export-ydpi="600"><tspan
         sodipodi:role="line"
         id="tspan120217"
         x="340.43002"
         y="177.60361">Logic</tspan><tspan
         sodipodi:role="line"
         x="340.43002"
         y="192.60361"
         id="tspan120221">Board</tspan></text>
    <path
       style="fill:none;stroke:#000000;stroke-width:2;stroke-linecap:butt;stroke-linejoin:miter;stroke-opacity:1;stroke-miterlimit:4;stroke-dasharray:none"
       d="m 340.15748,204.09449 v 22.67716"
       id="path124276"
       inkscape:export-filename="/home/lhcb/TimingSetup/presentations/DPG/grafik/timing_overview.png"
       inkscape:export-xdpi="600"
       inkscape:export-ydpi="600" />
    <path
       style="fill:none;stroke:#000000;stroke-width:1px;stroke-linecap:butt;stroke-linejoin:miter;stroke-opacity:1"
       d="M 287.24409,196.53543 H 302.3622"
       id="path124278"
       inkscape:export-filename="/home/lhcb/TimingSetup/presentations/DPG/grafik/timing_overview.png"
       inkscape:export-xdpi="600"
       inkscape:export-ydpi="600" />
    <path
       style="fill:none;stroke:#000000;stroke-width:1px;stroke-linecap:butt;stroke-linejoin:miter;stroke-opacity:1"
       d="M 302.3622,166.29921 H 45.354331 v 30.23622 h 11.122196"
       id="path124280"
       inkscape:export-filename="/home/lhcb/TimingSetup/presentations/DPG/grafik/timing_overview.png"
       inkscape:export-xdpi="600"
       inkscape:export-ydpi="600" />
    <path
       style="fill:#ff0000;stroke:#ff0000;stroke-width:1.422;stroke-linecap:butt;stroke-linejoin:miter;stroke-opacity:1;stroke-miterlimit:4;stroke-dasharray:none"
       d="m 186.48994,168.89476 28.55401,116.15852"
       id="path124475"
       inkscape:export-filename="/home/lhcb/TimingSetup/presentations/DPG/grafik/timing_overview.png"
       inkscape:export-xdpi="600"
       inkscape:export-ydpi="600" />
    <text
       xml:space="preserve"
       style="font-size:10.6667px;line-height:1.25;font-family:sans-serif;fill:#ff0000"
       x="253.29599"
       y="-138.42694"
       id="text148901"
       transform="rotate(74.83827)"
       inkscape:export-filename="/home/lhcb/TimingSetup/presentations/DPG/grafik/timing_overview.png"
       inkscape:export-xdpi="600"
       inkscape:export-ydpi="600"><tspan
         sodipodi:role="line"
         id="tspan148899"
         x="253.29599"
         y="-138.42694">Particle</tspan></text>
    <path
       sodipodi:type="star"
       style="fill:#ff0000;fill-opacity:1;stroke:#ff0000;stroke-width:2;stroke-miterlimit:4;stroke-dasharray:none;stroke-opacity:1"
       id="path166841"
       inkscape:flatsided="true"
       sodipodi:sides="3"
       sodipodi:cx="213.81056"
       sodipodi:cy="279.8673"
       sodipodi:r1="5.3306289"
       sodipodi:r2="2.6653144"
       sodipodi:arg1="1.3373019"
       sodipodi:arg2="2.3844995"
       inkscape:rounded="0"
       inkscape:randomized="0"
       d="m 215.04396,285.05329 -6.34128,-6.71082 8.98237,-2.1363 z"
       inkscape:transform-center-x="0.61668564"
       inkscape:transform-center-y="0.7624329"
       inkscape:export-filename="/home/lhcb/TimingSetup/presentations/DPG/grafik/timing_overview.png"
       inkscape:export-xdpi="600"
       inkscape:export-ydpi="600" />
    <path
       sodipodi:type="star"
       style="fill:#ff0000;fill-opacity:1;stroke:#ff0000;stroke-width:0.5;stroke-miterlimit:4;stroke-dasharray:none;stroke-opacity:1"
       id="path167751"
       inkscape:flatsided="false"
       sodipodi:sides="10"
       sodipodi:cx="208.72186"
       sodipodi:cy="257.58414"
       sodipodi:r1="5.1564155"
       sodipodi:r2="2.5782077"
       sodipodi:arg1="-0.29733291"
       sodipodi:arg2="0.016826351"
       inkscape:rounded="0"
       inkscape:randomized="0"
       d="m 213.65202,256.07346 -2.35231,1.55406 2.29869,1.63232 -2.81652,-0.12539 0.90023,2.67172 -2.20491,-1.75695 -0.8421,2.6906 -0.75109,-2.71741 -2.26277,1.68177 0.98961,-2.63992 -2.81915,0.0306 2.35232,-1.55406 -2.2987,-1.63233 2.81652,0.12539 -0.90022,-2.67172 2.2049,1.75696 0.8421,-2.69061 0.7511,2.71742 2.26277,-1.68177 -0.98961,2.63991 z"
       inkscape:export-filename="/home/lhcb/TimingSetup/presentations/DPG/grafik/timing_overview.png"
       inkscape:export-xdpi="600"
       inkscape:export-ydpi="600" />
    <path
       sodipodi:type="star"
       style="fill:#ff0000;fill-opacity:1;stroke:#ff0000;stroke-width:0.5;stroke-miterlimit:4;stroke-dasharray:none;stroke-opacity:1"
       id="path167753"
       inkscape:flatsided="false"
       sodipodi:sides="10"
       sodipodi:cx="194.15201"
       sodipodi:cy="198.04504"
       sodipodi:r1="3.9453027"
       sodipodi:r2="1.9726514"
       sodipodi:arg1="2.0990905"
       sodipodi:arg2="2.4132498"
       inkscape:rounded="0"
       inkscape:randomized="0"
       d="m 192.16334,201.45248 0.51652,-2.09437 -2.13956,0.27469 1.64892,-1.39077 -1.89241,-1.03537 2.15148,-0.15595 -0.92241,-1.94996 1.83225,1.13844 0.39991,-2.11973 0.81316,1.99799 1.56948,-1.47984 -0.51652,2.09437 2.13956,-0.27469 -1.64892,1.39077 1.8924,1.03537 -2.15148,0.15595 0.92242,1.94996 -1.83225,-1.13844 -0.39991,2.11973 -0.81316,-1.99799 z"
       inkscape:export-filename="/home/lhcb/TimingSetup/presentations/DPG/grafik/timing_overview.png"
       inkscape:export-xdpi="600"
       inkscape:export-ydpi="600" />
  </g>
</svg>
